<svg width="41" height="19" viewBox="0 0 41 19" fill="none" xmlns="http://www.w3.org/2000/svg">
<path d="M25.1019 16.1547L25.0158 15.2077L25.524 14.7841C26.3311 14.1116 26.468 12.799 25.7901 11.9824L24.4976 10.3916C24.0834 9.84573 23.4227 9.60001 22.8039 9.60001H17.2039C16.5851 9.60001 15.9244 9.84574 15.5102 10.3917L14.2176 11.9825C13.5398 12.799 13.6767 14.1116 14.4838 14.7841L14.9921 15.2077L14.9089 16.1219C14.9082 16.1233 14.9075 16.1248 14.9067 16.1264L14.9045 16.1307C14.8934 16.153 14.8703 16.199 14.8514 16.2494C14.8392 16.2818 14.8253 16.3246 14.8157 16.3755L13.9844 18.5H0.503906V0.5H2.88726C13.6686 5.8 26.2392 5.8 37.0205 0.5H39.5039V18.5H26.0234L25.1695 16.3178L25.1314 16.2204L25.1039 16.1929V16.1773L25.1019 16.1547Z" fill="#CAB9AC" stroke="#7E6B5C"/>
</svg>
