<svg width="40" height="40" viewBox="0 0 40 40" fill="none" xmlns="http://www.w3.org/2000/svg">
<path d="M25.098 37.1547L25.0118 36.2077L25.5201 35.7841C26.3271 35.1116 26.4641 33.7992 25.7864 32.9826C25.7856 32.9817 25.7849 32.9808 25.7841 32.9799L24.4937 31.3917C24.0795 30.8457 23.4188 30.6 22.8 30.6H17.2C16.5811 30.6 15.9205 30.8458 15.5063 31.3917L14.2159 32.9799C14.2151 32.9808 14.2144 32.9817 14.2136 32.9826C13.5359 33.7992 13.6729 35.1116 14.4799 35.7841L14.8 35.4L14.4799 35.7841L14.9882 36.2077L14.905 37.1219C14.9043 37.1233 14.9036 37.1248 14.9028 37.1264L14.9007 37.1306C14.8895 37.1529 14.8664 37.199 14.8475 37.2494C14.8353 37.2817 14.8214 37.3245 14.8118 37.3755L13.9805 39.5H0.5V0.5H39.5V39.5H26.0195L25.1656 37.3178L25.1275 37.2204L25.1 37.1929V37.1773L25.098 37.1547Z" fill="#CAB9AC" stroke="#7E6B5C"/>
</svg>
