<?xml version="1.0" encoding="UTF-8"?>
<svg width="18px" height="54px" viewBox="0 0 18 54" version="1.1" xmlns="http://www.w3.org/2000/svg" xmlns:xlink="http://www.w3.org/1999/xlink">
    <!-- Generator: Sketch 51.2 (57519) - http://www.bohemiancoding.com/sketch -->
    <title>blade-50x150</title>
    <desc>Created with Sketch.</desc>
    <defs></defs>
    <g id="**-UPDATED-WORKSPACES" stroke="none" stroke-width="1" fill="none" fill-rule="evenodd">
        <g id="021-sculptform-price&amp;spec-workspace-BLADES" transform="translate(-1173.000000, -255.000000)">
            <g id="TOOLBAR-CLADDING" transform="translate(1149.000000, 0.000000)">
                <g id="01" transform="translate(24.000000, 255.000000)">
                    <g id="blade-50x150" transform="translate(0.000000, 0.142574)">
                        <path d="M16.6330871,21.4646257 C16.6047505,21.4646257 16.5799782,21.4519723 16.5623347,21.4323683 L1.3058198,21.4323683 C1.28799802,21.4519723 1.26322574,21.4646257 1.23506733,21.4646257 L1.23488911,21.4646257 C0.978433663,21.4644475 0.769918812,21.2557545 0.769918812,20.9994772 C0.769918812,20.9966257 0.771344554,20.9941307 0.77170099,20.9914574 C0.771344554,20.9886059 0.769918812,20.9861109 0.769918812,20.9834376 L0.769918812,3.4681901 C0.769918812,3.45981386 0.772770297,3.45232871 0.774730693,3.44466535 C0.786314851,3.31100198 0.852790099,3.18678416 0.962215842,3.10747723 C1.08251287,3.02032871 1.23845347,2.99609109 1.37995842,3.04207129 C1.39243366,3.0461703 1.40330495,3.05258614 1.4127505,3.06060594 C1.48350297,3.08163564 1.55603762,3.09785347 1.62964158,3.10658614 C1.6378396,3.10747723 1.64461188,3.11104158 1.65191881,3.11389307 C1.78843366,3.11335842 1.9067703,3.01284356 1.92298812,2.8741901 C1.93795842,2.74569505 1.86025545,2.62771485 1.74316634,2.58601188 C1.72997822,2.59260594 1.71589901,2.59741782 1.70039406,2.59741782 C1.69665149,2.59741782 1.69290891,2.5972396 1.68916634,2.59670495 C1.28407723,2.54929901 0.979324752,2.19304158 0.995007921,1.78563564 C1.01086931,1.37805149 1.34253267,1.04638812 1.75011683,1.03070495 C2.15823564,1.01092277 2.51395842,1.31995248 2.56100792,1.72504158 C2.56332475,1.74428911 2.55815644,1.76193267 2.55013663,1.77797228 C2.59166139,1.89541782 2.70999802,1.97329901 2.83849307,1.95868515 C2.97661188,1.94246733 3.07748317,1.82502178 3.07837426,1.68939802 C3.07534455,1.68173465 3.07195842,1.6742495 3.07088911,1.66569505 C3.0618,1.58799208 3.04469109,1.5111802 3.02187921,1.43632871 C3.01688911,1.4292 3.00940396,1.4242099 3.00655248,1.41547723 C2.96021584,1.27432871 2.98463168,1.11803168 3.0717802,0.997734653 C3.15126535,0.888308911 3.27548317,0.821833663 3.40896832,0.810249505 C3.4168099,0.808289109 3.42411683,0.805615842 3.43249307,0.805615842 L8.24437426,0.805615842 C8.24722574,0.805615842 8.24954257,0.806863366 8.25239406,0.807219802 C8.25524554,0.806863366 8.25756238,0.805615842 8.26041386,0.805615842 C8.51686931,0.805615842 8.72556238,1.01413069 8.72556238,1.27058614 C8.72556238,1.29892277 8.71290891,1.32369505 8.69348317,1.34133861 L8.69348317,4.3341505 L9.14259208,4.3341505 L9.14259208,1.27112079 C9.14259208,1.27094257 9.14259208,1.27076436 9.14259208,1.27058614 C9.14259208,1.27040792 9.14259208,1.2702297 9.14259208,1.26987327 L9.14259208,1.25472475 C9.14259208,1.2492 9.14473069,1.24456634 9.14562178,1.23939802 C9.16148317,1.00860594 9.34486931,0.824863366 9.57566139,0.808823762 C9.58118614,0.807754455 9.58599802,0.805615842 9.59170099,0.805615842 L14.4356614,0.805615842 C14.4438594,0.805615842 14.4513446,0.808289109 14.4590079,0.810249505 C14.5926713,0.821833663 14.7170673,0.888308911 14.7963743,0.997912871 C14.8835228,1.1182099 14.9079386,1.27450693 14.861602,1.41565545 C14.8587505,1.42438812 14.8510871,1.42937822 14.8462752,1.43650693 C14.8234634,1.51153663 14.8063545,1.5881703 14.7974436,1.66533861 C14.7963743,1.6742495 14.7929881,1.68209109 14.7897802,1.68993267 C14.7901366,1.75034851 14.8093842,1.80862574 14.8473446,1.85692277 C14.8924337,1.91395248 14.957305,1.95013069 15.0294832,1.95868515 C15.102196,1.96688317 15.173305,1.94674455 15.2303347,1.90165545 C15.271503,1.86904158 15.3012653,1.82626931 15.318196,1.77797228 C15.309998,1.76175446 15.3048297,1.74411089 15.3071465,1.72468515 C15.3545525,1.31959604 15.7136614,1.01270495 16.1183941,1.03070495 C16.5258,1.04656634 16.8574634,1.3782297 16.8731465,1.78581386 C16.8888297,2.19339802 16.583899,2.54947723 16.1788099,2.59670495 C16.1750673,2.5972396 16.1711465,2.59741782 16.1675822,2.59741782 C16.1522554,2.59741782 16.1381762,2.59260594 16.1249881,2.58601188 C16.0770475,2.60312079 16.0346317,2.63252673 16.002196,2.67351683 C15.9571069,2.73054653 15.9367901,2.80183366 15.9451663,2.8741901 C15.9535426,2.94654653 15.9897208,3.0112396 16.0469287,3.05632871 C16.0952257,3.09482376 16.1542158,3.11371485 16.2148099,3.11407129 C16.2224733,3.11104158 16.229602,3.10747723 16.2381564,3.10640792 C16.3115822,3.09785347 16.384295,3.08181386 16.455404,3.06078416 C16.4648495,3.05258614 16.475899,3.0461703 16.4883743,3.04207129 C16.629701,2.99609109 16.785998,3.02032871 16.9059386,3.10765545 C17.0155426,3.18678416 17.0818396,3.31100198 17.0934238,3.44448713 C17.0953842,3.45232871 17.0982356,3.45981386 17.0982356,3.4681901 L17.0982356,20.9834376 C17.0982356,20.9861109 17.0969881,20.9884277 17.0966317,20.9912792 C17.0969881,20.9939525 17.0982356,20.9964475 17.0982356,20.9994772 C17.0982356,21.2559327 16.8893644,21.4646257 16.6330871,21.4646257 M17.0982356,22.4911604 L17.0982356,39.6854376 C17.0982356,39.6884673 17.0968099,39.6909624 17.0966317,39.6936356 C17.0968099,39.6964871 17.0982356,39.698804 17.0982356,39.7018337 C17.0980574,40.0146059 16.9763347,40.3084871 16.7551663,40.5298337 C16.5391663,40.7458337 16.2531267,40.8661307 15.9483743,40.8714772 C15.9465921,40.8716554 15.9451663,40.8723683 15.9433842,40.8723683 L15.927701,40.8723683 L15.9273446,40.8723683 L15.4301168,40.8723683 C15.4026713,40.8723683 15.3782554,40.8606059 15.3606119,40.8420713 C14.8541168,40.8509822 14.3563545,40.9844673 13.913305,41.2300515 C13.9054634,41.2485861 13.8933446,41.2653386 13.8748099,41.2762099 L12.5595624,42.0461109 C12.5570673,42.0477149 12.5540376,42.0471802 12.5515426,42.0484277 C12.5460178,42.0534178 12.5415624,42.059299 12.5347901,42.0630416 C12.3572851,42.1655168 12.1548297,42.2198733 11.9493446,42.2198733 C11.9245723,42.2198733 11.902295,42.2097149 11.8851861,42.1942099 C11.8682554,42.2097149 11.8459782,42.2198733 11.8210277,42.2198733 C11.3676416,42.219695 10.9509683,41.9539723 10.7597406,41.543002 C10.7511861,41.5244673 10.7506515,41.5048634 10.7540376,41.4863287 C10.5000772,40.9784079 10.0481168,40.5991604 9.50152277,40.4407248 C9.49492871,40.4403683 9.48815644,40.4398337 9.48138416,40.4378733 C9.29069109,40.3842297 9.15631485,40.2131406 9.14473069,40.017101 C9.14437426,40.0133584 9.14259208,40.0103287 9.14259208,40.0064079 L9.14259208,39.9912594 C9.14259208,39.990903 9.14259208,39.9905465 9.14259208,39.9901901 C9.14259208,39.9900119 9.14259208,39.9898337 9.14259208,39.9896554 L9.14259208,37.2315564 C9.14259208,37.1164277 9.04902772,37.0230416 8.93407723,37.0230416 C8.81912673,37.0230416 8.72556238,37.1166059 8.72556238,37.2315564 C8.72556238,37.2597149 8.71290891,37.2846653 8.69348317,37.3021307 L8.69348317,39.9197941 C8.71290891,39.9374376 8.72556238,39.9622099 8.72556238,39.9903683 C8.72556238,40.1976356 8.58619604,40.3817347 8.3867703,40.4380515 C8.37964158,40.4400119 8.37269109,40.4407248 8.36556238,40.4410812 C7.81950297,40.5995168 7.36789901,40.9787644 7.11411683,41.4865069 C7.11732475,41.5052198 7.11696832,41.525002 7.10823564,41.5435366 C6.9168297,41.9543287 6.50015644,42.2198733 6.04694851,42.2198733 C6.01861188,42.2198733 5.99366139,42.2072198 5.97619604,42.1876158 L5.95712673,42.1876158 C5.93948317,42.2072198 5.91453267,42.2198733 5.88637426,42.2198733 C5.68124554,42.2198733 5.4787901,42.1655168 5.30092871,42.0628634 C5.28364158,42.052705 5.27223564,42.0375564 5.26403762,42.020804 L3.96215644,41.2767446 C3.94308713,41.2658733 3.93061188,41.2489426 3.9227703,41.2300515 C3.4888099,40.9894574 3.00227525,40.8568634 2.5068297,40.8431406 C2.48936436,40.8611406 2.46512673,40.8723683 2.43803762,40.8723683 L1.9247703,40.8723683 C1.92298812,40.8723683 1.92156238,40.8716554 1.9197802,40.8714772 C1.6148495,40.8661307 1.3288099,40.7456554 1.1128099,40.5294772 C0.891641584,40.3081307 0.769918812,40.0142495 0.769918812,39.7014772 C0.769918812,39.6986257 0.771344554,39.6963089 0.77170099,39.6934574 C0.771344554,39.6907842 0.769918812,39.6882891 0.769918812,39.6854376 L0.769918812,22.4911604 C0.769918812,22.4881307 0.771344554,22.4858139 0.77170099,22.4829624 C0.771344554,22.4801109 0.769918812,22.4777941 0.769918812,22.4749426 C0.769918812,22.2184871 0.978611881,22.0099723 1.23506733,22.0099723 C1.26340396,22.0099723 1.28799802,22.0226257 1.3058198,22.0418733 L16.5625129,22.0418733 C16.5801564,22.0226257 16.6049287,22.0099723 16.6330871,22.0099723 C16.8895426,22.0099723 17.0982356,22.2184871 17.0982356,22.4751208 C17.0982356,22.4779723 17.0968099,22.4802891 17.0966317,22.4831406 C17.0968099,22.4858139 17.0982356,22.4883089 17.0982356,22.4911604 M17.5954634,0.228190099 C17.5926119,0.228190099 17.590295,0.226764356 17.5874436,0.226586139 C17.5845921,0.226764356 17.5822752,0.228190099 17.5794238,0.228190099 L0.272691089,0.228190099 C0.228493069,0.228190099 0.192493069,0.264190099 0.192493069,0.308388119 L0.192493069,52.9824475 C0.192493069,53.0266455 0.228493069,53.0626455 0.272691089,53.0626455 L2.59843366,53.0626455 C2.62374059,53.0626455 2.64619604,53.072804 2.66330495,53.0886653 C2.92742376,53.0599723 3.16053267,52.8944079 3.27049307,52.6486455 C3.39168119,52.3777545 3.34231485,52.0596356 3.14431485,51.8382891 C3.12435446,51.8160119 3.11811683,51.7871406 3.12239406,51.7595168 C3.00316634,51.5821901 2.98124554,51.3535366 3.06999802,51.155002 C3.17051287,50.9302693 3.39471089,50.7850218 3.64100792,50.7850218 C3.68520594,50.7850218 3.72120594,50.7488436 3.72120594,50.7046455 C3.72120594,50.7019723 3.72263168,50.6994772 3.7228099,50.6966257 C3.72263168,50.6939525 3.72120594,50.6914574 3.72120594,50.6886059 L3.72120594,50.0953188 C3.72120594,49.8340515 3.61944356,49.5884673 3.4348099,49.4036554 C3.24999802,49.2186653 3.00441386,49.116903 2.74314653,49.116903 C2.74011683,49.116903 2.7378,49.1154772 2.73494851,49.115299 C2.73209703,49.1154772 2.72960198,49.116903 2.7267505,49.116903 L2.11724554,49.116903 C2.11439406,49.116903 2.11207723,49.1154772 2.10922574,49.115299 C2.10637426,49.1154772 2.10405743,49.116903 2.10102772,49.116903 C1.84902772,49.1167248 1.64051287,48.9117743 1.63605743,48.6599525 C1.63552277,48.6310812 1.64835446,48.6057743 1.66813663,48.5877743 L1.66813663,48.104804 C1.66760198,48.0723683 1.64746337,48.0436752 1.61698812,48.0315564 C1.61146337,48.0294178 1.60736436,48.0253188 1.60237426,48.0222891 C1.43591881,47.9531406 1.3268495,47.7975564 1.31722574,47.6184475 C1.31686931,47.6152396 1.31526535,47.6123881 1.31526535,47.609002 L1.31526535,44.8503683 C1.31526535,44.8387842 1.31811683,44.8280911 1.32185941,44.8177545 C1.33789901,44.6684079 1.42148317,44.5336752 1.55461188,44.4597149 C1.55603762,44.4588238 1.5578198,44.4588238 1.55942376,44.4582891 C1.56067129,44.457398 1.56138416,44.4561505 1.56263168,44.4554376 C1.58740396,44.4417149 1.6018396,44.4158733 1.60290891,44.3878931 L1.57225545,43.9264871 C1.57189901,43.9216752 1.57368119,43.9172198 1.57403762,43.9125861 C1.57368119,43.9090218 1.57189901,43.9061703 1.57189901,43.9024277 C1.57154257,43.8869228 1.56601782,43.8726653 1.55764158,43.8601901 C1.55425545,43.8585861 1.55051287,43.859299 1.54730495,43.8573386 C1.41809703,43.7824871 1.3368297,43.6488238 1.32150297,43.5019723 C1.31811683,43.4921703 1.31526535,43.4818337 1.31526535,43.4707842 L1.31526535,43.4388832 C1.31526535,43.4369228 1.31615644,43.4353188 1.31633465,43.4335366 C1.32774059,42.8049624 1.83637426,42.2965069 2.4647703,42.2849228 C2.46673069,42.2849228 2.46833465,42.2838535 2.47011683,42.2838535 L3.1437802,42.2838535 C3.14645347,42.2838535 3.1487703,42.2852792 3.15162178,42.2854574 C3.34837426,42.2895564 3.54227525,42.3421307 3.71318614,42.4408634 C3.73029505,42.4506653 3.74152277,42.4656356 3.74954257,42.4820317 L4.56987921,42.9377347 C4.58948317,42.9486059 4.60231485,42.9658931 4.61051287,42.9851406 C5.04429505,43.2257347 5.5308297,43.3583287 6.02627525,43.3718733 C6.04391881,43.3538733 6.06797822,43.3426455 6.09506733,43.3426455 L8.14813663,43.3426455 C8.17273069,43.3426455 8.19447327,43.3524475 8.21158218,43.367596 C8.29962178,43.3519129 8.37643366,43.2959525 8.41350297,43.2123683 C8.45235446,43.1248634 8.43934455,43.0252396 8.38587921,42.9480713 C8.37340396,42.942903 8.3618198,42.9354178 8.35219604,42.9247248 C8.06526535,42.6087446 8.0807703,42.1284475 8.38748317,41.8315366 C8.69419604,41.5344475 9.17449307,41.5349822 9.48102772,41.8318931 C9.78756238,42.128804 9.80288911,42.609101 9.51560198,42.924903 C9.50597822,42.935596 9.49439406,42.9434376 9.48209703,42.9486059 C9.4288099,43.0259525 9.41597822,43.1250416 9.45465149,43.2121901 C9.49172079,43.2959525 9.56853267,43.3519129 9.65657228,43.367596 C9.67368119,43.3524475 9.69542376,43.3426455 9.72001782,43.3426455 L11.7410079,43.3426455 C11.7684535,43.3426455 11.7928693,43.3544079 11.8103347,43.3729426 C12.3168297,43.3640317 12.8147703,43.2305465 13.2578198,42.9849624 C13.2656614,42.9658931 13.2786713,42.9486059 13.2982752,42.9377347 L14.1186119,42.4820317 C14.1268099,42.4656356 14.1380376,42.4506653 14.1551465,42.4406851 C14.325701,42.3421307 14.519602,42.2895564 14.7165327,42.2854574 C14.7192059,42.2852792 14.7215228,42.2838535 14.7243743,42.2838535 L15.3980376,42.2838535 C15.399998,42.2838535 15.4014238,42.2849228 15.4033842,42.2849228 C16.0319584,42.2966851 16.5404139,42.8049624 16.5518198,43.4335366 C16.551998,43.4353188 16.5528891,43.4369228 16.5528891,43.4388832 L16.5528891,43.4707842 C16.5528891,43.4820119 16.5500376,43.4923485 16.5466515,43.5021505 C16.5311465,43.649002 16.4498792,43.7826653 16.3206713,43.8573386 C16.3058792,43.8658931 16.2894832,43.8699921 16.2734436,43.8701703 C16.2686317,43.8803287 16.2645327,43.8910218 16.2641762,43.9026059 C16.2641762,43.9056356 16.2627505,43.9081307 16.2623941,43.9109822 C16.2627505,43.9141901 16.2641762,43.9168634 16.2641762,43.9200713 L16.2641762,44.3839723 C16.2636416,44.4135564 16.279503,44.4408238 16.3055228,44.4552594 C16.3067703,44.4559723 16.3076614,44.457398 16.3089089,44.4582891 C16.3105129,44.4588238 16.312295,44.4588238 16.3137208,44.4597149 C16.4468495,44.5336752 16.5306119,44.6685861 16.5464733,44.8181109 C16.5500376,44.8282693 16.5528891,44.8387842 16.5528891,44.8503683 L16.5528891,47.609002 C16.5528891,47.6123881 16.5514634,47.6152396 16.5511069,47.6184475 C16.541305,47.7973782 16.4324139,47.9527842 16.2659584,48.0221109 C16.2609683,48.0251406 16.2566911,48.0294178 16.2509881,48.0315564 C16.2206911,48.043497 16.2005525,48.0723683 16.2000178,48.104804 L16.2000178,48.6677941 C16.2000178,48.6720713 16.1982356,48.6758139 16.197701,48.6800911 C16.1830871,48.9117743 15.9972059,49.0974772 15.7669485,49.113695 C15.7614238,49.1145861 15.7566119,49.116903 15.7509089,49.116903 L15.1255426,49.116903 L15.1251861,49.116903 C14.8639188,49.116903 14.6183347,49.2184871 14.433701,49.403299 C14.2488891,49.5881109 14.1469485,49.8338733 14.1469485,50.0949624 L14.1469485,50.6886059 C14.1469485,50.6914574 14.1455228,50.6939525 14.1453446,50.6966257 C14.1455228,50.6994772 14.1469485,50.7019723 14.1469485,50.7046455 C14.1469485,50.7260317 14.1553248,50.7463485 14.1704733,50.761497 C14.1856218,50.7766455 14.2057604,50.7850218 14.2271465,50.7850218 L14.2273248,50.7850218 C14.4736218,50.7850218 14.6976416,50.9302693 14.7983347,51.1551802 C14.8947505,51.3711802 14.8594634,51.6221109 14.7113644,51.8042495 C14.7072653,51.8165465 14.7008495,51.8281307 14.6917604,51.8382891 C14.4939386,52.0594574 14.4443941,52.3775762 14.565404,52.6484673 C14.6794634,52.903497 14.9257604,53.0717347 15.2016416,53.090804 C15.2191069,53.0733386 15.2431663,53.0626455 15.2697208,53.0626455 L17.5794238,53.0626455 C17.5822752,53.0626455 17.5845921,53.0640713 17.5874436,53.0642495 C17.590295,53.0640713 17.5926119,53.0626455 17.5954634,53.0626455 C17.6396614,53.0626455 17.6756614,53.0266455 17.6756614,52.9824475 L17.6756614,0.308388119 C17.6756614,0.264190099 17.6396614,0.228190099 17.5954634,0.228190099" id="Fill-1" fill="#CECECE"></path>
                        <path d="M17.6756792,52.9823762 C17.6756792,53.0265743 17.6396792,53.0625743 17.5954812,53.0625743 C17.5926297,53.0625743 17.5903129,53.064 17.5874614,53.0641782 C17.5846099,53.064 17.5822931,53.0625743 17.5794416,53.0625743 L15.2697386,53.0625743 C15.2431842,53.0625743 15.2191248,53.0734455 15.2016594,53.0907327 C14.9257782,53.0716634 14.6794812,52.903604 14.5654218,52.648396 C14.4444119,52.377505 14.4939564,52.0593861 14.6917782,51.8382178 C14.7008673,51.8280594 14.7072832,51.8164752 14.7113822,51.8043564 C14.8594812,51.6220396 14.8947683,51.3711089 14.7981743,51.1551089 C14.6976594,50.930198 14.4736396,50.7849505 14.2273426,50.7849505 L14.2271644,50.7849505 C14.2057782,50.7849505 14.1856396,50.7765743 14.1704911,50.7614257 C14.1553426,50.7462772 14.1469663,50.7261386 14.1469663,50.7047525 C14.1469663,50.701901 14.1455406,50.6994059 14.1453624,50.6967327 C14.1455406,50.6938812 14.1469663,50.6915644 14.1469663,50.6887129 L14.1469663,50.0950693 C14.1469663,49.833802 14.2487287,49.5880396 14.4337188,49.4032277 C14.6183525,49.2185941 14.8639366,49.1170099 15.1250257,49.1170099 L15.1253822,49.1170099 L15.7509267,49.1170099 C15.7564515,49.1170099 15.7614416,49.1146931 15.7669663,49.1136238 C15.9972238,49.0974059 16.183105,48.911703 16.1977188,48.6800198 C16.1980752,48.6757426 16.2000356,48.672 16.2000356,48.6677228 L16.2000356,48.1049109 C16.2005703,48.072297 16.2205307,48.0434257 16.2510059,48.0316634 C16.2567089,48.0293465 16.2609861,48.0252475 16.2659762,48.0220396 C16.4324317,47.9527129 16.5413228,47.7973069 16.5509465,47.6183762 C16.551303,47.6153465 16.5529069,47.6123168 16.5529069,47.6091089 L16.5529069,44.850297 C16.5529069,44.8388911 16.5500554,44.828198 16.5464911,44.8180396 C16.5306297,44.6686931 16.4468673,44.5337822 16.3137386,44.4598218 C16.3123129,44.4589307 16.3105307,44.4589307 16.3089267,44.4582178 C16.3076792,44.4573267 16.3067881,44.455901 16.3055406,44.4551881 C16.2795208,44.4407525 16.2636594,44.4134851 16.2641941,44.383901 L16.2641941,43.92 C16.2641941,43.9169703 16.2627683,43.9141188 16.2624119,43.9110891 C16.2627683,43.9080594 16.2641941,43.9055644 16.2641941,43.9027129 C16.2645505,43.8909505 16.2684713,43.8804356 16.2734614,43.870099 C16.289501,43.8699208 16.3057188,43.866 16.3206891,43.8574455 C16.449897,43.7827723 16.5311644,43.6491089 16.5466693,43.5022574 C16.5500554,43.4922772 16.5529069,43.4819406 16.5529069,43.4708911 L16.5529069,43.4388119 C16.5529069,43.4368515 16.5520158,43.4354257 16.5518376,43.4334653 C16.5404317,42.8050693 16.0319762,42.2966139 15.403402,42.2850297 C15.4014416,42.2850297 15.3998376,42.2839604 15.3980554,42.2839604 L14.7243921,42.2839604 C14.7215406,42.2839604 14.7192238,42.2853861 14.7165505,42.2855644 C14.5196198,42.2894851 14.3257188,42.3422376 14.1551644,42.4407921 C14.1380554,42.4505941 14.1268277,42.4655644 14.1186297,42.4819604 L13.2982931,42.9378416 C13.2786891,42.9485347 13.2656792,42.966 13.2576594,42.9848911 C12.8147881,43.2304752 12.3168475,43.3639604 11.8103525,43.3728713 C11.7928871,43.3545149 11.7684713,43.3425743 11.7410257,43.3425743 L9.72003564,43.3425743 C9.69544158,43.3425743 9.67369901,43.3525545 9.6565901,43.367703 C9.5685505,43.3518416 9.49173861,43.2958812 9.45466931,43.212297 C9.41599604,43.1249703 9.42882772,43.0260594 9.48211485,42.9485347 C9.49441188,42.9433663 9.50599604,42.9355248 9.5156198,42.9248317 C9.80290693,42.6090297 9.7875802,42.1289109 9.48104554,41.832 C9.17451089,41.5350891 8.69421386,41.5345545 8.38750099,41.8316436 C8.08078812,42.1285545 8.06528317,42.6086733 8.35221386,42.9246535 C8.36183762,42.9353465 8.37342178,42.9428317 8.38589703,42.948 C8.43936238,43.0253465 8.45237228,43.1247921 8.41352079,43.2124752 C8.37645149,43.2958812 8.2996396,43.3518416 8.2116,43.367703 C8.19449109,43.3525545 8.17274851,43.3425743 8.14815446,43.3425743 L6.09508515,43.3425743 C6.06799604,43.3425743 6.04375842,43.3539802 6.02629307,43.371802 C5.53084752,43.3582574 5.04431287,43.2258416 4.61035248,42.9850693 C4.60233267,42.966 4.58950099,42.9485347 4.56989703,42.9378416 L3.7495604,42.4819604 C3.74154059,42.4655644 3.73013465,42.4505941 3.71320396,42.4409703 C3.54229307,42.3422376 3.34839208,42.2894851 3.15146139,42.2855644 C3.14878812,42.2853861 3.14647129,42.2839604 3.14379802,42.2839604 L2.47013465,42.2839604 C2.46817426,42.2839604 2.46674851,42.2850297 2.46478812,42.2850297 C1.83639208,42.2964356 1.32775842,42.8050693 1.31635248,43.4334653 C1.31617426,43.4354257 1.31528317,43.4368515 1.31528317,43.4388119 L1.31528317,43.4708911 C1.31528317,43.4817624 1.31813465,43.492099 1.32152079,43.5020792 C1.33684752,43.6487525 1.41811485,43.7824158 1.54732277,43.8574455 C1.55053069,43.8594059 1.55427327,43.8586931 1.55765941,43.8601188 C1.56603564,43.8727723 1.5715604,43.8870297 1.57191683,43.9025347 C1.57191683,43.906099 1.57352079,43.9091287 1.57405545,43.9125149 C1.57369901,43.9173267 1.57191683,43.921604 1.57227327,43.9265941 L1.60292673,44.3878218 C1.60185743,44.4159802 1.58742178,44.4416436 1.5626495,44.4553663 C1.56140198,44.4560792 1.56068911,44.4573267 1.55944158,44.4582178 C1.55783762,44.4589307 1.55605545,44.4589307 1.55445149,44.4598218 C1.42150099,44.5337822 1.33791683,44.6685149 1.32187723,44.8176832 C1.31813465,44.8280198 1.31528317,44.8388911 1.31528317,44.850297 L1.31528317,47.6091089 C1.31528317,47.6123168 1.31670891,47.6153465 1.31706535,47.6183762 C1.32686733,47.7974851 1.43575842,47.9530693 1.60239208,48.0222178 C1.60738218,48.0254257 1.61148119,48.0293465 1.61700594,48.0316634 C1.64748119,48.043604 1.6676198,48.072297 1.66815446,48.1049109 L1.66815446,48.5878812 C1.64837228,48.605703 1.63554059,48.6310099 1.63607525,48.6598812 C1.64053069,48.911703 1.84904554,49.1168317 2.10104554,49.1170099 C2.10389703,49.1170099 2.10639208,49.1155842 2.10924356,49.1154059 C2.11191683,49.1155842 2.11441188,49.1170099 2.11726337,49.1170099 L2.72676832,49.1170099 C2.7296198,49.1170099 2.73211485,49.1155842 2.73496634,49.1154059 C2.73781782,49.1155842 2.74013465,49.1170099 2.74298614,49.1170099 C3.00443168,49.1170099 3.25001584,49.2187723 3.43482772,49.4035842 C3.61946139,49.588396 3.72122376,49.8339802 3.72122376,50.0954257 L3.72122376,50.6887129 C3.72122376,50.6915644 3.7226495,50.6938812 3.72282772,50.6967327 C3.7226495,50.6994059 3.72122376,50.701901 3.72122376,50.7047525 C3.72122376,50.7489505 3.68522376,50.7849505 3.64102574,50.7849505 C3.39472871,50.7849505 3.17053069,50.930198 3.07001584,51.1549307 C2.98126337,51.3534653 3.00318416,51.582297 3.12241188,51.7596238 C3.11813465,51.7870693 3.12437228,51.8159406 3.14433267,51.8382178 C3.34233267,52.0595644 3.39169901,52.3776832 3.27051089,52.6485743 C3.1605505,52.8945149 2.92744158,53.0600792 2.66332277,53.0887723 C2.64621386,53.0729109 2.62375842,53.0625743 2.59845149,53.0625743 L0.272708911,53.0625743 C0.228510891,53.0625743 0.192510891,53.0265743 0.192510891,52.9823762 L0.192510891,0.308316832 C0.192510891,0.264118812 0.228510891,0.228118812 0.272708911,0.228118812 L17.5794416,0.228118812 C17.5822931,0.228118812 17.5846099,0.226693069 17.5874614,0.226514851 C17.5903129,0.226693069 17.5926297,0.228118812 17.5954812,0.228118812 C17.6396792,0.228118812 17.6756792,0.264118812 17.6756792,0.308316832 L17.6756792,52.9823762 Z M17.8649465,0.276237624 C17.8489069,0.141148515 17.7350257,0.0356435644 17.5954812,0.0356435644 C17.5926297,0.0356435644 17.5903129,0.0370693069 17.5874614,0.0372475248 C17.5846099,0.0370693069 17.5822931,0.0356435644 17.5794416,0.0356435644 L0.256669307,0.0356435644 C0.250966337,0.0356435644 0.245976238,0.037960396 0.240451485,0.039029703 C0.116055446,0.0538217822 0.0180356436,0.151841584 0.00324356436,0.276237624 C0.00235247525,0.281762376 3.56435644e-05,0.286574257 3.56435644e-05,0.292277228 L3.56435644e-05,52.9984158 C3.56435644e-05,53.0041188 0.00235247525,53.0089307 0.00324356436,53.0144554 C0.0180356436,53.1388515 0.116055446,53.2370495 0.240629703,53.2518416 C0.245976238,53.2529109 0.250966337,53.2550495 0.256669307,53.2550495 L2.51165941,53.2550495 C2.52930297,53.2744752 2.55407525,53.2871287 2.58241188,53.2871287 C2.95506535,53.2871287 3.29421386,53.0673861 3.44623366,52.7271683 C3.58666931,52.413505 3.54247129,52.0504752 3.34019406,51.777802 C3.34447129,51.7503564 3.33823366,51.7214851 3.31809505,51.6992079 C3.2045703,51.5719604 3.17605545,51.3892871 3.24573861,51.2335248 C3.31542178,51.0779406 3.47047129,50.9774257 3.64102574,50.9774257 L3.64120396,50.9774257 C3.79144158,50.9772475 3.91369901,50.8549901 3.91369901,50.7047525 C3.91369901,50.701901 3.91227327,50.6994059 3.91209505,50.6967327 C3.91227327,50.6938812 3.91369901,50.6915644 3.91369901,50.6887129 L3.91369901,50.0792079 C3.91369901,50.0774257 3.9126297,50.0758218 3.9126297,50.0742178 C3.90728317,49.7694653 3.78698614,49.483604 3.57080792,49.2674257 C3.34981782,49.0462574 3.05575842,48.9243564 2.74298614,48.9243564 C2.74013465,48.9243564 2.73781782,48.9257822 2.73496634,48.9259604 C2.73211485,48.9257822 2.7296198,48.9243564 2.72676832,48.9243564 L2.11726337,48.9243564 C2.11441188,48.9243564 2.11191683,48.9257822 2.10924356,48.9259604 C2.10639208,48.9257822 2.10407525,48.9243564 2.10122376,48.9243564 C1.97736238,48.9241782 1.87221386,48.8393465 1.83977822,48.7247525 C1.85189703,48.7087129 1.8606297,48.6894653 1.8606297,48.6677228 L1.8606297,48.090297 C1.8606297,48.0765743 1.85742178,48.0633861 1.85225347,48.0516238 C1.83550099,47.97 1.78328317,47.9015644 1.70771881,47.8641386 C1.69969901,47.8573663 1.69150099,47.8511287 1.68116436,47.8472079 C1.57583762,47.8058614 1.50775842,47.7062376 1.50775842,47.5930693 L1.50775842,44.8663366 C1.50775842,44.7672475 1.5615802,44.676 1.64801584,44.6278812 C1.64944158,44.6269901 1.65033267,44.6255644 1.65175842,44.6246733 C1.65318416,44.6241386 1.65478812,44.624495 1.65621386,44.623604 C1.72821386,44.5836832 1.77544158,44.5136436 1.79005545,44.4345149 C1.79468911,44.4222178 1.79718416,44.4088515 1.79611485,44.3945941 L1.79575842,44.3871089 C1.79575842,44.3847921 1.79647129,44.3826535 1.79647129,44.3803366 C1.79629307,44.3771287 1.79504554,44.374099 1.79468911,44.3708911 L1.76421386,43.9135842 C1.76403564,43.911802 1.76296634,43.910198 1.7626099,43.9082376 C1.76296634,43.9052079 1.76439208,43.9025347 1.76439208,43.8993267 C1.7626099,43.8041584 1.7105703,43.7155842 1.62841188,43.6678218 C1.62039208,43.6633663 1.61183762,43.6615842 1.60328317,43.6594455 C1.54429307,43.608297 1.50775842,43.5345149 1.50775842,43.4548515 L1.50775842,43.4546733 C1.50793663,42.9153861 1.94688713,42.4764356 2.48635248,42.4764356 L3.12793663,42.4764356 C3.28334257,42.4764356 3.43625347,42.5156436 3.5745505,42.5867525 C3.58292673,42.601901 3.59397624,42.6156238 3.61037228,42.6247129 L4.42678812,43.0784554 C4.4346297,43.097703 4.44710495,43.1151683 4.46653069,43.126396 C4.96571881,43.4145743 5.53423366,43.5671287 6.11041188,43.5671287 C6.13874851,43.5671287 6.16352079,43.5544752 6.18116436,43.5350495 L8.09344158,43.5350495 C8.11126337,43.5544752 8.13585743,43.5671287 8.16419406,43.5671287 C8.34811485,43.5671287 8.51510495,43.4585941 8.5896,43.2903564 C8.66391683,43.1221188 8.63219406,42.9251881 8.50851089,42.7892079 C8.49817426,42.7779802 8.48569901,42.770495 8.47251089,42.7653267 C8.2816396,42.5270495 8.29892673,42.1852277 8.52134257,41.9697624 C8.75284752,41.7459208 9.11552079,41.7455644 9.34720396,41.9701188 C9.56944158,42.1854059 9.5865505,42.5272277 9.39567921,42.7653267 C9.38249109,42.770495 9.37001584,42.7779802 9.35985743,42.7892079 C9.23599604,42.9251881 9.20409505,43.1219406 9.2785901,43.2901782 C9.35308515,43.4584158 9.52007525,43.5671287 9.70399604,43.5671287 C9.73215446,43.5671287 9.75692673,43.5544752 9.7745703,43.5350495 L11.6861347,43.5350495 C11.7037782,43.5544752 11.7283723,43.5671287 11.7567089,43.5671287 C12.3330653,43.5671287 12.9015802,43.4147525 13.4007683,43.1267525 C13.4201941,43.115703 13.4326693,43.0980594 13.4405109,43.0788119 L14.2578178,42.6247129 C14.2742139,42.6156238 14.2852634,42.6017228 14.2936396,42.5865743 C14.4317584,42.5156436 14.5848475,42.4764356 14.7406099,42.4764356 L15.3820158,42.4764356 C15.9214812,42.4766139 16.3604317,42.9155644 16.3604317,43.4548515 C16.3604317,43.5334455 16.3249663,43.6063366 16.2675802,43.6574851 C16.2474416,43.6548119 16.2265901,43.6571287 16.207699,43.6678218 C16.1255406,43.7155842 16.073501,43.8041584 16.0717188,43.8991485 C16.0717188,43.9030693 16.0733228,43.9062772 16.0736792,43.910198 C16.0733228,43.9135842 16.0717188,43.9166139 16.0717188,43.92 L16.0717188,44.4011881 C16.0717188,44.411703 16.0745703,44.4213267 16.0777782,44.4309505 C16.091501,44.5113267 16.1387287,44.5826139 16.211798,44.6234257 C16.2132238,44.6241386 16.2148277,44.6237822 16.2162535,44.6246733 C16.2176792,44.6253861 16.2185703,44.6269901 16.2201743,44.6278812 C16.3067881,44.6761782 16.3604317,44.7674257 16.3604317,44.8663366 L16.3604317,47.5932475 C16.3604317,47.7062376 16.2921743,47.8058614 16.1868475,47.8472079 C16.175798,47.8513069 16.1667089,47.8580792 16.1585109,47.8653861 C16.0838376,47.9029901 16.0325109,47.9707129 16.0159366,48.0516238 C16.0107683,48.0633861 16.0075604,48.0765743 16.0075604,48.090297 L16.0075604,48.6561386 C16.0075604,48.6563168 16.0075604,48.6563168 16.0075604,48.656495 C16.0048871,48.8042376 15.8826297,48.9243564 15.7348871,48.9243564 L15.1253822,48.9243564 L15.1250257,48.9243564 L15.1093426,48.9243564 C15.1075604,48.9243564 15.1061347,48.9252475 15.1043525,48.9254257 C14.7996,48.9307723 14.5135604,49.0508911 14.2975604,49.2670693 C14.0813822,49.4832475 13.9609069,49.7692871 13.9555604,50.0742178 C13.9553822,50.0758218 13.9544911,50.0774257 13.9544911,50.0792079 L13.9544911,50.6887129 C13.9544911,50.6915644 13.9559168,50.6938812 13.956095,50.6967327 C13.9559168,50.6994059 13.9544911,50.701901 13.9544911,50.7047525 C13.9544911,50.7774653 13.9828277,50.8460792 14.0343327,50.8975842 C14.0858376,50.9490891 14.1542733,50.9774257 14.2271644,50.9774257 L14.2273426,50.9774257 C14.3977188,50.9774257 14.5529465,51.0779406 14.6224515,51.233703 C14.6921347,51.3894653 14.6636198,51.5721386 14.5499168,51.6992079 C14.5408277,51.7093663 14.5345901,51.7209505 14.5304911,51.7330693 C14.2982733,52.0096634 14.2417782,52.3958614 14.389699,52.7269901 C14.541897,53.0673861 14.8808673,53.2871287 15.2535208,53.2871287 C15.2818574,53.2871287 15.3066297,53.2744752 15.3242733,53.2550495 L17.5794416,53.2550495 C17.5822931,53.2550495 17.5846099,53.2536238 17.5874614,53.2534455 C17.5903129,53.2536238 17.5926297,53.2550495 17.5954812,53.2550495 C17.7348475,53.2550495 17.8489069,53.1495446 17.8649465,53.0144554 C17.8658376,53.0089307 17.8681545,53.0041188 17.8681545,52.9984158 L17.8681545,0.292277228 C17.8681545,0.286574257 17.8658376,0.281762376 17.8649465,0.276237624 Z M16.9057782,20.9994059 C16.9057782,21.1241584 16.8209465,21.2285941 16.7063525,21.2608515 C16.6901347,21.2485545 16.6710653,21.24 16.6491446,21.24 L1.21904554,21.24 C1.19730297,21.24 1.17805545,21.2485545 1.16183762,21.2608515 C1.04724356,21.2284158 0.962411881,21.1239802 0.962411881,20.9994059 C0.962411881,20.9965545 0.960986139,20.9942376 0.960807921,20.9913861 C0.960986139,20.9885347 0.962411881,20.9862178 0.962411881,20.9833663 L0.962411881,3.48415842 C0.962411881,3.3970099 1.0046495,3.31449505 1.07522376,3.26334653 C1.13724356,3.21825743 1.21548119,3.20364356 1.29033267,3.2189703 C1.29817426,3.22467327 1.30583762,3.23019802 1.31546139,3.23340594 C1.39423366,3.25924752 1.47567921,3.27689109 1.55783762,3.28936634 C1.56977822,3.2970297 1.58314455,3.30273267 1.59811485,3.30451485 C1.61629307,3.30665347 1.63447129,3.30772277 1.65247129,3.30772277 C1.88486733,3.30772277 2.08643168,3.13306931 2.11405545,2.89657426 C2.14399604,2.64190099 1.96096634,2.41039604 1.70629307,2.38063366 C1.68579802,2.37778218 1.66708515,2.38330693 1.65033267,2.39239604 C1.37605545,2.32984158 1.17609505,2.07944554 1.18732277,1.7930495 C1.19944158,1.48526733 1.44983762,1.23487129 1.75744158,1.22293069 C2.04544158,1.2129505 2.29494653,1.41219802 2.35678812,1.68665347 C2.34823366,1.70322772 2.34253069,1.72176238 2.34502574,1.74172277 C2.3726495,1.97821782 2.57403564,2.1530495 2.8066099,2.1530495 C2.82443168,2.1530495 2.8426099,2.1519802 2.86078812,2.14966337 C3.1156396,2.11990099 3.29866931,1.88857426 3.26890693,1.63390099 C3.26712475,1.61875248 3.26142178,1.60556436 3.25375842,1.59344554 C3.24128317,1.51146535 3.2236396,1.4300198 3.19797624,1.35142574 C3.19476832,1.34180198 3.18906535,1.33378218 3.18354059,1.32594059 C3.16803564,1.25144554 3.1826495,1.1730297 3.22773861,1.11065347 C3.27888713,1.04007921 3.36140198,0.998019802 3.4485505,0.998019802 L8.24439208,0.998019802 C8.24724356,0.998019802 8.2495604,0.996594059 8.25241188,0.996415842 C8.25526337,0.996594059 8.2575802,0.998019802 8.26043168,0.998019802 C8.38536238,0.998019802 8.4896198,1.08285149 8.52187723,1.19762376 C8.5095802,1.21366337 8.50102574,1.23273267 8.50102574,1.25465347 L8.50102574,4.43049505 C8.50102574,4.48360396 8.54415446,4.52673267 8.59726337,4.52673267 L9.23884752,4.52673267 C9.29195644,4.52673267 9.33508515,4.48360396 9.33508515,4.43049505 L9.33508515,1.26980198 C9.33579802,1.11992079 9.45769901,0.998019802 9.60775842,0.998019802 L14.4196396,0.998019802 C14.5067881,0.998019802 14.589303,1.04007921 14.6404515,1.11083168 C14.6855406,1.1730297 14.7001545,1.25144554 14.6846495,1.32594059 C14.6791248,1.33378218 14.6734218,1.34162376 14.6703921,1.35124752 C14.6445505,1.42984158 14.6269069,1.51110891 14.6146099,1.59273267 C14.6067683,1.60485149 14.6010653,1.61839604 14.5992832,1.63372277 C14.5848475,1.7570495 14.6192436,1.87877228 14.6964119,1.97625743 C14.773402,2.07374257 14.8837188,2.13540594 15.0072238,2.14966337 C15.0255802,2.1519802 15.0439366,2.1530495 15.0619366,2.1530495 C15.1661941,2.1530495 15.2667089,2.11829703 15.3497584,2.05253465 C15.4472436,1.97554455 15.5087287,1.8650495 15.5231644,1.74172277 C15.5254812,1.72176238 15.5199564,1.70340594 15.5112238,1.68665347 C15.5730653,1.4120198 15.8213228,1.2129505 16.1109267,1.22310891 C16.4185307,1.2350495 16.6689267,1.48544554 16.6806891,1.79322772 C16.6919168,2.07962376 16.4919564,2.3300198 16.2176792,2.39239604 C16.201105,2.38348515 16.1825703,2.3779604 16.1622535,2.38063366 C16.0387485,2.39489109 15.9284317,2.45655446 15.8512634,2.5540396 C15.7742733,2.65134653 15.739699,2.77306931 15.7541347,2.89639604 C15.7683921,3.01990099 15.8300554,3.13021782 15.9273624,3.20738614 C16.0104119,3.2729703 16.1109267,3.30790099 16.2151842,3.30790099 C16.2333624,3.30790099 16.2515406,3.30683168 16.269897,3.30451485 C16.2848673,3.30291089 16.2982337,3.2970297 16.3101743,3.28936634 C16.3921545,3.27706931 16.4734218,3.25942574 16.5521941,3.23358416 C16.5618178,3.23037624 16.5698376,3.22485149 16.5776792,3.21914851 C16.6525307,3.20364356 16.7307683,3.21825743 16.7931446,3.26334653 C16.8635406,3.31449505 16.9057782,3.3970099 16.9057782,3.48415842 L16.9057782,20.9833663 C16.9057782,20.986396 16.907204,20.9887129 16.9073822,20.9915644 C16.907204,20.9944158 16.9057782,20.9965545 16.9057782,20.9994059 Z M17.0982535,20.9833663 L17.0982535,3.46811881 C17.0982535,3.45974257 17.095402,3.45225743 17.0934416,3.44459406 C17.0816792,3.31093069 17.0153822,3.18671287 16.9059564,3.10758416 C16.7860158,3.02025743 16.6297188,2.9960198 16.4882139,3.04217822 C16.4759168,3.04627723 16.4648673,3.05269307 16.4554218,3.06071287 C16.3843129,3.08174257 16.3116,3.0979604 16.2381743,3.10651485 C16.2296198,3.10740594 16.2224911,3.11114851 16.2148277,3.114 C16.1542337,3.11382178 16.0952436,3.09493069 16.0469465,3.05643564 C15.9897386,3.01116832 15.9535604,2.94647525 15.9451842,2.87411881 C15.9368079,2.80176238 15.9569465,2.73047525 16.0022139,2.67344554 C16.0346495,2.63245545 16.0770653,2.6030495 16.1250059,2.58611881 C16.1381941,2.59271287 16.1522733,2.59734653 16.1676,2.59734653 C16.1711644,2.59734653 16.1750851,2.59716832 16.1788277,2.59663366 C16.5839168,2.54958416 16.8888475,2.19332673 16.8731644,1.78574257 C16.8574812,1.37815842 16.5258178,1.04667327 16.1184119,1.03081188 C15.7136792,1.01281188 15.3545703,1.31952475 15.3071644,1.72479208 C15.3048475,1.7440396 15.3100158,1.76168317 15.3180356,1.77790099 C15.3012832,1.82619802 15.2715208,1.86914851 15.2303525,1.90158416 C15.1731446,1.94685149 15.1022139,1.96681188 15.029501,1.95861386 C14.9573228,1.95005941 14.8924515,1.91405941 14.8473624,1.85685149 C14.809402,1.80873267 14.7901545,1.75045545 14.789798,1.68986139 C14.7930059,1.6820198 14.7963921,1.67417822 14.7974614,1.66526733 C14.8063723,1.58809901 14.8234812,1.51146535 14.8462931,1.43661386 C14.851105,1.42930693 14.8587683,1.42449505 14.8616198,1.41576238 C14.9079564,1.27443564 14.8835406,1.11831683 14.7963921,0.998019802 C14.7169069,0.888237624 14.5926891,0.821940594 14.4590257,0.810178218 C14.4513624,0.808217822 14.4438772,0.805544554 14.4356792,0.805544554 L9.59171881,0.805544554 C9.58601584,0.805544554 9.58120396,0.807861386 9.57567921,0.808752475 C9.34488713,0.824970297 9.16150099,1.00853465 9.1456396,1.23932673 C9.14474851,1.24449505 9.1426099,1.24930693 9.1426099,1.25465347 L9.1426099,1.26980198 C9.1426099,1.27015842 9.1426099,1.27033663 9.1426099,1.27069307 C9.1426099,1.27087129 9.1426099,1.27087129 9.1426099,1.2710495 L9.1426099,4.33425743 L8.69350099,4.33425743 L8.69350099,1.34126733 C8.71292673,1.32380198 8.7255802,1.2990297 8.7255802,1.27069307 C8.7255802,1.01423762 8.51688713,0.805544554 8.26043168,0.805544554 C8.2575802,0.805544554 8.25526337,0.806970297 8.25241188,0.807148515 C8.2495604,0.806970297 8.24724356,0.805544554 8.24439208,0.805544554 L3.43251089,0.805544554 C3.42413465,0.805544554 3.41682772,0.808217822 3.40898614,0.810178218 C3.27550099,0.821940594 3.15110495,0.888237624 3.07179802,0.997841584 C2.9846495,1.11813861 2.96023366,1.27425743 3.00639208,1.41540594 C3.00942178,1.42431683 3.01690693,1.42912871 3.02189703,1.43643564 C3.04470891,1.51110891 3.06181782,1.58792079 3.07090693,1.66562376 C3.07197624,1.67417822 3.07536238,1.68166337 3.07839208,1.68932673 C3.07750099,1.8249505 2.9766297,1.94239604 2.83851089,1.95861386 C2.71001584,1.97322772 2.59167921,1.89552475 2.55015446,1.77807921 C2.55817426,1.76186139 2.56334257,1.74421782 2.56102574,1.7249703 C2.51397624,1.32005941 2.15825347,1.01085149 1.75013465,1.03063366 C1.3425505,1.04649505 1.01088713,1.3779802 0.995025743,1.78556436 C0.979164356,2.1929703 1.28409505,2.54940594 1.68918416,2.59663366 C1.69292673,2.59716832 1.69666931,2.59734653 1.70041188,2.59734653 C1.71591683,2.59734653 1.72999604,2.59271287 1.74318416,2.58611881 C1.86027327,2.62764356 1.93797624,2.74562376 1.92300594,2.87411881 C1.90678812,3.01277228 1.78827327,3.11346535 1.65193663,3.11382178 C1.6446297,3.11114851 1.63785743,3.10740594 1.62965941,3.10651485 C1.55605545,3.09778218 1.48352079,3.08156436 1.41276832,3.06071287 C1.40332277,3.05269307 1.39245149,3.04627723 1.37997624,3.04217822 C1.23847129,2.9960198 1.08253069,3.02025743 0.962233663,3.10740594 C0.852629703,3.18689109 0.786332673,3.31110891 0.774748515,3.44459406 C0.772788119,3.45243564 0.769936634,3.45974257 0.769936634,3.46811881 L0.769936634,20.9833663 C0.769936634,20.9862178 0.771362376,20.9885347 0.771540594,20.9913861 C0.771362376,20.9942376 0.769936634,20.9965545 0.769936634,20.9994059 C0.769936634,21.2558614 0.978451485,21.4643762 1.23490693,21.4645545 L1.23508515,21.4645545 C1.26324356,21.4645545 1.28801584,21.451901 1.30565941,21.4324752 L16.5623525,21.4324752 C16.579996,21.451901 16.6047683,21.4645545 16.633105,21.4645545 C16.8893822,21.4645545 17.0982535,21.2558614 17.0982535,20.9994059 C17.0982535,20.9963762 17.0968277,20.9940594 17.0966495,20.9912079 C17.0968277,20.9885347 17.0982535,20.9862178 17.0982535,20.9833663 Z M16.9057782,39.7017624 C16.9057782,39.9630297 16.8038376,40.2087921 16.6190257,40.393604 C16.4343921,40.5782376 16.1888079,40.68 15.9275406,40.68 L15.9271842,40.68 L15.4850257,40.68 C15.4673822,40.6605743 15.4426099,40.6479208 15.4144515,40.6479208 C14.838095,40.6479208 14.2695802,40.800297 13.7703921,41.088297 C13.7504317,41.0998812 13.7372436,41.1180594 13.7297584,41.138198 L12.4622733,41.8801188 C12.4562139,41.8836832 12.4522931,41.8888515 12.4474812,41.8933069 C12.4446297,41.8945545 12.4414218,41.8947327 12.4385703,41.8963366 C12.313996,41.9683366 12.1744515,42.0100396 12.0315208,42.0219802 C12.0142337,42.0055842 11.9912436,41.9952475 11.9655802,41.9952475 L11.8051842,41.9952475 C11.7798772,41.9952475 11.7572436,42.0054059 11.7399564,42.0214455 C11.4118574,41.9936436 11.1176198,41.8013465 10.9613228,41.5103168 C10.9641743,41.4919604 10.9634614,41.4730693 10.9552634,41.4550693 C10.6808079,40.8660594 10.1648673,40.4271089 9.53950099,40.2506733 C9.53540198,40.2494257 9.53130297,40.2503168 9.52720396,40.2497822 C9.41421386,40.214495 9.33544158,40.1098812 9.33508515,39.9908317 L9.33508515,37.2154455 C9.33508515,37.2097426 9.33276832,37.2049307 9.33187723,37.1994059 C9.31512475,36.9935644 9.14421386,36.830495 8.93409505,36.830495 C8.74607525,36.830495 8.58888713,36.9613069 8.54575842,37.1363168 C8.5195604,37.153604 8.50102574,37.1817624 8.50102574,37.2154455 L8.50102574,40.0063366 C8.50102574,40.0277228 8.50922376,40.0464356 8.52098614,40.062297 C8.49674851,40.1499802 8.4306297,40.2214455 8.34152079,40.249604 C8.33724356,40.2501386 8.33332277,40.2492475 8.32922376,40.250495 C7.70367921,40.4265743 7.1875604,40.865703 6.91328317,41.4545347 C6.90472871,41.4727129 6.90437228,41.491604 6.90722376,41.5099604 C6.74611485,41.8097228 6.43904554,42.0050495 6.09900594,42.0235842 C6.08171881,42.0061188 6.05765941,41.9952475 6.03092673,41.9952475 L5.9026099,41.9952475 C5.87587723,41.9952475 5.8516396,42.0061188 5.83417426,42.0239406 C5.69676832,42.0166337 5.5625703,41.9802772 5.43995644,41.9171881 C5.4315802,41.9022178 5.42088713,41.8886733 5.40502574,41.8795842 L4.10653069,41.1374851 C4.09886733,41.1178812 4.08603564,41.1000594 4.06625347,41.0886535 C3.56706535,40.8004752 2.9985505,40.6479208 2.42237228,40.6479208 C2.39403564,40.6479208 2.36926337,40.6605743 2.3516198,40.68 L1.94047129,40.68 C1.67938218,40.68 1.4336198,40.5780594 1.24898614,40.3932475 C1.06417426,40.2084356 0.962411881,39.9628515 0.962411881,39.7014059 C0.962411881,39.6987327 0.960986139,39.6962376 0.960807921,39.6935644 C0.960986139,39.6907129 0.962411881,39.6882178 0.962411881,39.6855446 L0.962411881,22.4910891 C0.962411881,22.4882376 0.960986139,22.4859208 0.960807921,22.4828911 C0.960986139,22.4802178 0.962411881,22.4777228 0.962411881,22.4748713 C0.962411881,22.3499406 1.04724356,22.2456832 1.16201584,22.213604 C1.17805545,22.225901 1.19730297,22.2344554 1.21904554,22.2344554 L16.6491446,22.2344554 C16.6708871,22.2344554 16.6899564,22.225901 16.7061743,22.213604 C16.8209465,22.2458614 16.9057782,22.3501188 16.9057782,22.4750495 C16.9057782,22.477901 16.907204,22.480396 16.9073822,22.4830693 C16.907204,22.4859208 16.9057782,22.4884158 16.9057782,22.4910891 L16.9057782,39.6855446 C16.9057782,39.688396 16.907204,39.6908911 16.9073822,39.6937426 C16.907204,39.6964158 16.9057782,39.6989109 16.9057782,39.7017624 Z M16.633105,22.009901 C16.6049465,22.009901 16.5801743,22.0225545 16.5623525,22.0419802 L1.30565941,22.0419802 C1.28801584,22.0225545 1.26342178,22.009901 1.23508515,22.009901 C0.978629703,22.009901 0.769936634,22.2185941 0.769936634,22.4748713 C0.769936634,22.4777228 0.771362376,22.4802178 0.771540594,22.4828911 C0.771362376,22.4859208 0.769936634,22.4882376 0.769936634,22.4910891 L0.769936634,39.6855446 C0.769936634,39.6882178 0.771362376,39.6907129 0.771540594,39.6935644 C0.771362376,39.6962376 0.769936634,39.6987327 0.769936634,39.7014059 C0.769936634,40.0141782 0.891659406,40.3082376 1.1126495,40.5294059 C1.32882772,40.7457624 1.61486733,40.8662376 1.91979802,40.8714059 C1.9215802,40.8715842 1.92300594,40.8724752 1.92478812,40.8724752 L2.43805545,40.8724752 C2.46514455,40.8724752 2.48938218,40.8610693 2.50684752,40.8432475 C3.00229307,40.8567921 3.48882772,40.9893861 3.92278812,41.2301584 C3.9306297,41.2488713 3.94310495,41.2659802 3.96217426,41.2766733 L5.26405545,42.0207327 C5.27225347,42.0374851 5.28365941,42.0528119 5.30094653,42.0627921 C5.47880792,42.1656238 5.68126337,42.219802 5.88639208,42.219802 C5.9145505,42.219802 5.93950099,42.2071485 5.95714455,42.1877228 L5.97621386,42.1877228 C5.99367921,42.2071485 6.0186297,42.219802 6.04696634,42.219802 C6.50017426,42.219802 6.91684752,41.9542574 7.10825347,41.5434653 C7.11698614,41.5249307 7.11734257,41.5053267 7.11413465,41.4864356 C7.36791683,40.9786931 7.81952079,40.5996238 8.3655802,40.4410099 C8.37270891,40.4406535 8.37965941,40.4399406 8.3866099,40.4379802 C8.58621386,40.3816634 8.7255802,40.1977426 8.7255802,39.9904752 C8.7255802,39.9621386 8.71292673,39.9375446 8.69350099,39.9197228 L8.69350099,37.3022376 C8.71292673,37.2845941 8.7255802,37.2596436 8.7255802,37.2314851 C8.7255802,37.1167129 8.81914455,37.0229703 8.93409505,37.0229703 C9.04904554,37.0229703 9.1426099,37.1165347 9.1426099,37.2314851 L9.1426099,39.9897624 C9.1426099,39.9899406 9.1426099,39.9901188 9.1426099,39.990297 C9.1426099,39.9906535 9.1426099,39.9910099 9.1426099,39.9911881 L9.1426099,40.0063366 C9.1426099,40.0102574 9.14439208,40.0132871 9.14474851,40.0170297 C9.15633267,40.2132475 9.29070891,40.3843366 9.48140198,40.437802 C9.48817426,40.4397624 9.49494653,40.440297 9.50154059,40.4406535 C10.0481347,40.5992673 10.500095,40.9785149 10.7540554,41.4862574 C10.7506693,41.5049703 10.751204,41.524396 10.7597584,41.5429307 C10.9509861,41.953901 11.3674812,42.2196238 11.8210455,42.219802 C11.845996,42.219802 11.8682733,42.2098218 11.885204,42.1943168 C11.9023129,42.2098218 11.9244119,42.219802 11.9493624,42.219802 C12.1546693,42.219802 12.357303,42.1656238 12.5348079,42.0629703 C12.5415802,42.0592277 12.5460356,42.0535248 12.5515604,42.0483564 C12.5540554,42.0472871 12.5570851,42.0478218 12.5595802,42.0462178 L13.8748277,41.2761386 C13.8933624,41.2654455 13.9054812,41.2485149 13.9133228,41.2301584 C14.3563723,40.9845743 14.8541347,40.8510891 15.3606297,40.8421782 C15.3782733,40.8605347 15.4026891,40.8724752 15.4301347,40.8724752 L15.9271842,40.8724752 L15.9275406,40.8724752 L15.943402,40.8724752 C15.9451842,40.8724752 15.9466099,40.8715842 15.9483921,40.8714059 C16.2531446,40.8662376 16.5391842,40.7459406 16.7551842,40.5297624 C16.9763525,40.3085941 17.0980752,40.0145347 17.0982535,39.7017624 C17.0982535,39.6989109 17.0968277,39.6964158 17.0964713,39.6937426 C17.0968277,39.6908911 17.0982535,39.688396 17.0982535,39.6855446 L17.0982535,22.4910891 C17.0982535,22.4884158 17.0968277,22.4859208 17.0964713,22.4830693 C17.0968277,22.480396 17.0982535,22.477901 17.0982535,22.4750495 C17.0982535,22.2185941 16.8895604,22.009901 16.633105,22.009901 Z" id="Fill-3" fill="#000000"></path>
                    </g>
                </g>
            </g>
        </g>
    </g>
</svg>