<?xml version="1.0" encoding="UTF-8"?>
<svg width="18px" height="106px" viewBox="0 0 18 106" version="1.1" xmlns="http://www.w3.org/2000/svg" xmlns:xlink="http://www.w3.org/1999/xlink">
    <!-- Generator: Sketch 51.2 (57519) - http://www.bohemiancoding.com/sketch -->
    <title>blade-50x300</title>
    <desc>Created with Sketch.</desc>
    <defs></defs>
    <g id="**-UPDATED-WORKSPACES" stroke="none" stroke-width="1" fill="none" fill-rule="evenodd">
        <g id="021-sculptform-price&amp;spec-workspace-BLADES" transform="translate(-1279.000000, -202.000000)">
            <g id="TOOLBAR-CLADDING" transform="translate(1149.000000, 0.000000)">
                <g id="03" transform="translate(130.000000, 202.000000)">
                    <g id="blade-50x300">
                        <path d="M16.6330871,46.2012594 C16.6047505,46.2012594 16.5799782,46.1886059 16.5623347,46.169002 L1.30564158,46.169002 C1.28799802,46.1886059 1.26340396,46.2012594 1.23506733,46.2012594 L1.23488911,46.2012594 C0.978433663,46.2010812 0.769740594,45.9923881 0.769918812,45.7361109 C0.769918812,45.7332594 0.771344554,45.7307644 0.771522772,45.7280911 C0.771344554,45.7252396 0.769918812,45.7229228 0.769918812,45.7200713 L0.769918812,3.61076436 C0.769918812,3.60238812 0.772770297,3.59490297 0.774730693,3.5872396 C0.786314851,3.45357624 0.852611881,3.32935842 0.962215842,3.25005149 C1.08233465,3.16290297 1.23845347,3.13866535 1.37995842,3.18464554 C1.39225545,3.18874455 1.40330495,3.1951604 1.4127505,3.2031802 C1.48350297,3.2242099 1.55603762,3.24042772 1.62964158,3.2491604 C1.63766139,3.25005149 1.64461188,3.25361584 1.65191881,3.25646733 C1.78825545,3.25593267 1.9067703,3.15541782 1.92298812,3.01676436 C1.93795842,2.88826931 1.86007723,2.77028911 1.74298812,2.72858614 C1.72997822,2.7351802 1.71589901,2.73999208 1.70057228,2.73999208 C1.69665149,2.73999208 1.69290891,2.73981386 1.68898812,2.73927921 C1.28407723,2.69187327 0.979324752,2.33561584 0.995007921,1.9282099 C1.01104752,1.52062574 1.34253267,1.18896238 1.74993861,1.17327921 C2.15823564,1.15349703 2.51395842,1.46252673 2.56100792,1.86761584 C2.56332475,1.88686337 2.55815644,1.90450693 2.55013663,1.92054653 C2.59166139,2.03799208 2.71017624,2.11587327 2.83849307,2.10125941 C2.97661188,2.08504158 3.07730495,1.96759604 3.07819604,1.83197228 C3.07534455,1.82430891 3.07195842,1.81682376 3.07088911,1.80826931 C3.0618,1.73056634 3.04469109,1.65375446 3.02187921,1.57890297 C3.01688911,1.57177426 3.00940396,1.56678416 3.00655248,1.55805149 C2.96021584,1.41690297 2.98463168,1.26060594 3.0717802,1.14030891 C3.15126535,1.03088317 3.27548317,0.964407921 3.40914653,0.952823762 C3.4168099,0.950863366 3.42429505,0.948190099 3.43267129,0.948190099 L8.24455248,0.948190099 C8.24722574,0.948190099 8.24972079,0.949437624 8.25257228,0.949794059 C8.25506733,0.949437624 8.25756238,0.948190099 8.26059208,0.948190099 C8.51686931,0.948190099 8.72556238,1.15670495 8.72556238,1.4131604 C8.72556238,1.44149703 8.71290891,1.46626931 8.69348317,1.48391287 L8.69348317,4.47672475 L9.14259208,4.47672475 L9.14259208,1.41369505 L9.14259208,1.4131604 L9.14259208,1.41244752 L9.14259208,1.39729901 C9.14259208,1.39177426 9.14473069,1.38714059 9.14562178,1.38197228 C9.16148317,1.1511802 9.34486931,0.967437624 9.57566139,0.95139802 C9.58118614,0.950328713 9.58599802,0.948190099 9.59170099,0.948190099 L14.4356614,0.948190099 C14.4440376,0.948190099 14.4513446,0.950863366 14.4590079,0.952823762 C14.5926713,0.964407921 14.7170673,1.03088317 14.7963743,1.14048713 C14.8835228,1.26078416 14.9077604,1.41708119 14.861602,1.5582297 C14.8587505,1.56696238 14.8512653,1.57195248 14.8462752,1.57908119 C14.8234634,1.65411089 14.8063545,1.73074455 14.7974436,1.80791287 C14.7963743,1.81682376 14.7929881,1.82466535 14.789602,1.83250693 C14.7901366,1.89292277 14.8093842,1.9512 14.8471663,1.99949703 C14.8924337,2.05652673 14.957305,2.09270495 15.0296614,2.10125941 C15.1020178,2.10945743 15.173305,2.08931881 15.2303347,2.0442297 C15.271503,2.01161584 15.3010871,1.96884356 15.3180178,1.92054653 C15.309998,1.90432871 15.3050079,1.88668515 15.3071465,1.86725941 C15.3543743,1.4621703 15.7136614,1.15527921 16.1183941,1.17327921 C16.5258,1.18914059 16.8574634,1.52080396 16.8731465,1.92838812 C16.8888297,2.33597228 16.583899,2.69205149 16.1786317,2.73927921 C16.1750673,2.73981386 16.1711465,2.73999208 16.1675822,2.73999208 C16.1522554,2.73999208 16.1381762,2.7351802 16.1249881,2.72858614 C16.0772257,2.74569505 16.0346317,2.77510099 16.002196,2.81609109 C15.9569287,2.87312079 15.9367901,2.94440792 15.9451663,3.01676436 C15.9535426,3.08912079 15.9897208,3.15381386 16.0469287,3.19890297 C16.0952257,3.23739802 16.1542158,3.25628911 16.2148099,3.25664554 C16.2224733,3.25361584 16.229602,3.25005149 16.2381564,3.24898218 C16.3115822,3.24042772 16.384295,3.22438812 16.455404,3.20335842 C16.4648495,3.1951604 16.4757208,3.18874455 16.4883743,3.18464554 C16.629701,3.13866535 16.785998,3.16290297 16.9059386,3.2502297 C17.0155426,3.32935842 17.0818396,3.45357624 17.0934238,3.58706139 C17.0955624,3.59490297 17.0982356,3.60238812 17.0982356,3.61076436 L17.0982356,45.7200713 C17.0982356,45.7227446 17.0969881,45.7250614 17.0966317,45.7279129 C17.0969881,45.7305861 17.0982356,45.7330812 17.0982356,45.7361109 C17.0982356,45.9925663 16.8893644,46.2012594 16.6330871,46.2012594 M17.0982356,47.2277941 L17.0982356,92.4022693 C17.0982356,92.405299 17.0968099,92.4077941 17.0966317,92.4104673 C17.0968099,92.4133188 17.0982356,92.4156356 17.0982356,92.4186653 C17.0980574,92.7314376 16.9763347,93.0253188 16.7551663,93.2466653 C16.5391663,93.4626653 16.2531267,93.5829624 15.9483743,93.5883089 C15.9465921,93.5884871 15.9451663,93.5892 15.9433842,93.5892 L15.927701,93.5892 L15.9273446,93.5892 L15.4301168,93.5892 C15.4026713,93.5892 15.3782554,93.5774376 15.3606119,93.558903 C14.854295,93.5678139 14.3563545,93.701299 13.9131267,93.9468832 C13.9054634,93.9654178 13.8933446,93.9821703 13.8746317,93.9930416 L12.5597406,94.7629426 C12.5570673,94.7645465 12.5540376,94.7640119 12.5515426,94.7652594 C12.5460178,94.7702495 12.5415624,94.7761307 12.5349683,94.7798733 C12.3572851,94.8823485 12.1548297,94.936705 11.9495228,94.936705 C11.9245723,94.936705 11.902295,94.9265465 11.8851861,94.9110416 C11.8682554,94.9265465 11.8459782,94.936705 11.8210277,94.936705 C11.3674634,94.9365267 10.9509683,94.670804 10.7597406,94.2598337 C10.7511861,94.241299 10.7506515,94.221695 10.7540376,94.2031604 C10.5000772,93.6952396 10.0481168,93.3159921 9.50152277,93.1575564 C9.4947505,93.1572 9.48815644,93.1566653 9.48138416,93.154705 C9.29069109,93.1010614 9.15631485,92.9299723 9.14473069,92.7339327 C9.14419604,92.7301901 9.14259208,92.7271604 9.14259208,92.7232396 L9.14259208,92.7080911 L9.14259208,92.7070218 L9.14259208,92.7064871 L9.14259208,89.9483881 C9.14259208,89.8332594 9.04902772,89.7398733 8.93407723,89.7398733 C8.81912673,89.7398733 8.72556238,89.8334376 8.72556238,89.9483881 C8.72556238,89.9765465 8.71290891,90.001497 8.69348317,90.0189624 L8.69348317,92.6366257 C8.71290891,92.6542693 8.72556238,92.6790416 8.72556238,92.7072 C8.72556238,92.9144673 8.58637426,93.0985663 8.3867703,93.1548832 C8.37964158,93.1568436 8.37251287,93.1575564 8.36556238,93.1579129 C7.81950297,93.3163485 7.36789901,93.695596 7.11411683,94.2033386 C7.11732475,94.2220515 7.11696832,94.2418337 7.10841386,94.2603683 C6.9168297,94.6711604 6.50033465,94.936705 6.04694851,94.936705 C6.01843366,94.936705 5.9938396,94.9240515 5.97601782,94.9044475 L5.95712673,94.9044475 C5.93948317,94.9240515 5.91453267,94.936705 5.88619604,94.936705 C5.68124554,94.936705 5.4787901,94.8823485 5.30092871,94.779695 C5.28346337,94.7695366 5.27223564,94.7543881 5.26403762,94.7376356 L3.96197822,93.9935762 C3.94308713,93.982705 3.9307901,93.9657743 3.9227703,93.9468832 C3.4888099,93.7062891 3.00245347,93.573695 2.50665149,93.5599723 C2.48936436,93.5779723 2.46512673,93.5892 2.43821584,93.5892 L1.9247703,93.5892 C1.92298812,93.5892 1.92156238,93.5884871 1.9197802,93.5883089 C1.6148495,93.5829624 1.32898812,93.4624871 1.11263168,93.2463089 C0.891641584,93.0249624 0.769918812,92.7310812 0.769918812,92.4183089 C0.769918812,92.4154574 0.771344554,92.4131406 0.771522772,92.4102891 C0.771344554,92.4076158 0.769918812,92.4051208 0.769918812,92.4022693 L0.769918812,47.2277941 C0.769918812,47.2249426 0.771344554,47.2224475 0.771522772,47.219596 C0.771344554,47.2169228 0.769918812,47.2144277 0.769918812,47.2115762 C0.769918812,46.9551208 0.978611881,46.7466059 1.23524554,46.7466059 C1.26340396,46.7466059 1.28799802,46.7590812 1.30564158,46.7785069 L16.5625129,46.7785069 C16.5799782,46.7590812 16.6049287,46.7466059 16.6330871,46.7466059 C16.8893644,46.7466059 17.0982356,46.9551208 17.0982356,47.2117545 C17.0982356,47.2146059 17.0969881,47.2169228 17.0966317,47.2197743 C17.0969881,47.2224475 17.0982356,47.2249426 17.0982356,47.2277941 M17.5954634,0.370764356 C17.5927901,0.370764356 17.590295,0.369338614 17.5874436,0.369160396 C17.5847703,0.369338614 17.5822752,0.370764356 17.5794238,0.370764356 L0.272691089,0.370764356 C0.228493069,0.370764356 0.192493069,0.406764356 0.192493069,0.450962376 L0.192493069,105.699279 C0.192493069,105.743477 0.228493069,105.779477 0.272691089,105.779477 L2.59843366,105.779477 C2.62374059,105.779477 2.64619604,105.789636 2.66330495,105.805497 C2.92760198,105.776804 3.16053267,105.61124 3.27049307,105.365477 C3.39168119,105.094586 3.34231485,104.776467 3.14431485,104.555121 C3.12435446,104.532844 3.11811683,104.503972 3.12239406,104.476349 C3.00316634,104.299022 2.98124554,104.070368 3.06999802,103.871834 C3.17051287,103.647101 3.39471089,103.501853 3.64100792,103.501853 L3.64118614,103.501853 C3.68538416,103.501853 3.72120594,103.465675 3.72120594,103.421477 C3.72120594,103.418804 3.72263168,103.416309 3.7228099,103.413457 C3.72263168,103.410784 3.72120594,103.408289 3.72120594,103.405438 L3.72120594,102.81215 C3.72120594,102.550883 3.61944356,102.305299 3.43463168,102.120487 C3.24999802,101.935497 3.00441386,101.833735 2.74314653,101.833735 C2.74011683,101.833735 2.73762178,101.832309 2.73494851,101.832131 C2.73209703,101.832309 2.72960198,101.833735 2.7267505,101.833735 L2.11724554,101.833735 C2.11439406,101.833735 2.11207723,101.832309 2.10922574,101.832131 C2.10637426,101.832309 2.10405743,101.833735 2.10120594,101.833735 L2.10102772,101.833735 C1.84920594,101.833556 1.64069109,101.628606 1.63623564,101.376784 C1.63552277,101.347913 1.64835446,101.322606 1.66813663,101.304606 L1.66813663,100.821636 C1.66742376,100.7892 1.64746337,100.760507 1.61698812,100.748388 C1.61146337,100.74625 1.60736436,100.74215 1.60237426,100.739121 C1.43591881,100.669972 1.3268495,100.514388 1.31722574,100.335279 C1.31686931,100.332071 1.31526535,100.32922 1.31526535,100.325834 L1.31526535,97.5672 C1.31526535,97.5556158 1.31793861,97.5449228 1.32185941,97.5345861 C1.33789901,97.3852396 1.42148317,97.2505069 1.55461188,97.1765465 C1.55603762,97.1756554 1.5578198,97.1756554 1.55942376,97.1751208 C1.5608495,97.1742297 1.56156238,97.1729822 1.56263168,97.1722693 C1.58740396,97.1585465 1.6018396,97.132705 1.60290891,97.1047248 L1.57207723,96.6433188 C1.57189901,96.6385069 1.57368119,96.6340515 1.57403762,96.6294178 C1.57368119,96.6258535 1.57189901,96.623002 1.57172079,96.6192594 C1.57154257,96.6037545 1.56601782,96.589497 1.55764158,96.5770218 C1.55425545,96.5754178 1.55051287,96.5761307 1.54748317,96.5741703 C1.41809703,96.4993188 1.3368297,96.3656554 1.32150297,96.218804 C1.31793861,96.209002 1.31526535,96.1986653 1.31526535,96.1876158 L1.31526535,96.1557149 C1.31526535,96.1537545 1.31633465,96.1521505 1.31633465,96.1503683 C1.32774059,95.5217941 1.83637426,95.0133386 2.4647703,95.0017545 C2.46673069,95.0017545 2.46833465,95.0006851 2.47011683,95.0006851 L3.1437802,95.0006851 C3.14645347,95.0006851 3.1487703,95.0021109 3.15162178,95.0022891 C3.34837426,95.0063881 3.54227525,95.0589624 3.71318614,95.157695 C3.73029505,95.167497 3.74152277,95.1824673 3.74972079,95.1988634 L4.56987921,95.6545663 C4.58948317,95.6654376 4.60231485,95.6827248 4.61051287,95.7019723 C5.04429505,95.9425663 5.53065149,96.0751604 6.02627525,96.088705 C6.04374059,96.070705 6.06815644,96.0594772 6.09506733,96.0594772 L8.14813663,96.0594772 C8.17273069,96.0594772 8.19447327,96.0692792 8.21158218,96.0844277 C8.29962178,96.0687446 8.37643366,96.0127842 8.41368119,95.9292 C8.45235446,95.841695 8.43934455,95.7420713 8.38587921,95.664903 C8.37340396,95.6597347 8.3618198,95.6522495 8.35219604,95.6415564 C8.06526535,95.3255762 8.08094851,94.8452792 8.38748317,94.5483683 C8.69419604,94.2512792 9.17449307,94.2518139 9.48102772,94.5487248 C9.78756238,94.8456356 9.80288911,95.3259327 9.51560198,95.6417347 C9.50597822,95.6524277 9.49439406,95.6602693 9.48209703,95.6654376 C9.4288099,95.7427842 9.41597822,95.8418733 9.45465149,95.9290218 C9.49172079,96.0127842 9.56835446,96.0687446 9.65657228,96.0844277 C9.67350297,96.0692792 9.69542376,96.0594772 9.72001782,96.0594772 L11.7410079,96.0594772 C11.7684535,96.0594772 11.7928693,96.0712396 11.8103347,96.0897743 C12.3168297,96.0808634 12.8147703,95.9473782 13.2578198,95.7017941 C13.2656614,95.6827248 13.2786713,95.6654376 13.2982752,95.6545663 L14.1187901,95.1988634 C14.1268099,95.1824673 14.1380376,95.167497 14.1551465,95.1575168 C14.3258792,95.0589624 14.519602,95.0063881 14.7165327,95.0022891 C14.7193842,95.0021109 14.7215228,95.0006851 14.7243743,95.0006851 L15.3978594,95.0006851 C15.3998198,95.0006851 15.401602,95.0017545 15.4033842,95.0017545 C16.0319584,95.0135168 16.5404139,95.5217941 16.5518198,96.1503683 C16.551998,96.1521505 16.5528891,96.1537545 16.5528891,96.1557149 L16.5528891,96.1876158 C16.5528891,96.1988436 16.5500376,96.2091802 16.5466515,96.2189822 C16.5311465,96.3658337 16.4498792,96.499497 16.3206713,96.5741703 C16.305701,96.5827248 16.2894832,96.5868238 16.2732653,96.587002 C16.2684535,96.5971604 16.2645327,96.6078535 16.2643545,96.6194376 C16.2641762,96.6224673 16.2627505,96.6249624 16.2623941,96.6278139 C16.2627505,96.6310218 16.2643545,96.633695 16.2643545,96.636903 L16.2643545,97.100804 C16.2636416,97.1303881 16.2796812,97.1576554 16.3053446,97.1720911 C16.3067703,97.172804 16.3076614,97.1742297 16.3089089,97.1751208 C16.3105129,97.1756554 16.312295,97.1756554 16.3137208,97.1765465 C16.4468495,97.2505069 16.5306119,97.3854178 16.5464733,97.5349426 C16.5500376,97.545101 16.5528891,97.5556158 16.5528891,97.5672 L16.5528891,100.325834 C16.5528891,100.32922 16.5512851,100.332071 16.5511069,100.335279 C16.541305,100.51421 16.4324139,100.669616 16.2657802,100.738943 C16.2607901,100.741972 16.2568693,100.74625 16.2509881,100.748388 C16.2206911,100.760329 16.2005525,100.7892 16.2000178,100.821636 L16.2000178,101.384626 C16.2000178,101.388903 16.1982356,101.392646 16.197701,101.396923 C16.1832653,101.628606 15.9973842,101.814309 15.7669485,101.830527 C15.7614238,101.831418 15.7566119,101.833735 15.7509089,101.833735 L15.1253644,101.833735 L15.1250079,101.833735 C14.8639188,101.833735 14.6183347,101.935319 14.433701,102.120131 C14.2488891,102.304943 14.1469485,102.550705 14.1469485,102.811794 L14.1469485,103.405438 C14.1469485,103.408289 14.145701,103.410784 14.1453446,103.413457 C14.145701,103.416309 14.1469485,103.418804 14.1469485,103.421477 C14.1469485,103.442863 14.1553248,103.46318 14.1704733,103.478329 C14.1856218,103.493477 14.2057604,103.501853 14.2271465,103.501853 L14.2273248,103.501853 C14.4736218,103.501853 14.6976416,103.647101 14.7981564,103.872012 C14.8947505,104.088012 14.8594634,104.338943 14.7113644,104.521081 C14.7072653,104.533378 14.7008495,104.544962 14.6917604,104.555121 C14.4939386,104.776289 14.4443941,105.094408 14.565404,105.365299 C14.6794634,105.620329 14.9257604,105.788566 15.2016416,105.807636 C15.2189287,105.79017 15.2431663,105.779477 15.269899,105.779477 L17.5794238,105.779477 C17.5822752,105.779477 17.5847703,105.780903 17.5872653,105.781081 C17.5901168,105.780903 17.5926119,105.779477 17.5952851,105.779477 C17.6394832,105.779477 17.6758396,105.743477 17.6758396,105.699279 L17.6758396,0.450962376 C17.6758396,0.406764356 17.6396614,0.370764356 17.5954634,0.370764356" id="Fill-1" fill="#CECECE"></path>
                        <path d="M17.6757683,105.699208 C17.6757683,105.743406 17.6395901,105.779406 17.5953921,105.779406 C17.5925406,105.779406 17.5902238,105.780832 17.5873723,105.78101 C17.584699,105.780832 17.5823822,105.779406 17.5793525,105.779406 L15.2698277,105.779406 C15.2432733,105.779406 15.2190356,105.790277 15.2015703,105.807564 C14.9256891,105.788495 14.6795703,105.620436 14.5655109,105.365228 C14.4443228,105.094337 14.4938673,104.776218 14.6918673,104.55505 C14.7009564,104.544891 14.7073723,104.533307 14.7112931,104.521188 C14.8593921,104.338871 14.8948574,104.087941 14.7982634,103.871941 C14.6975703,103.64703 14.4735505,103.501782 14.2272535,103.501782 L14.2270752,103.501782 C14.2056891,103.501782 14.1855505,103.493406 14.170402,103.478257 C14.1552535,103.463109 14.1468772,103.44297 14.1468772,103.421584 C14.1468772,103.418733 14.1456297,103.416238 14.1452733,103.413564 C14.1456297,103.410713 14.1468772,103.408396 14.1468772,103.405545 L14.1468772,102.811901 C14.1468772,102.550634 14.2488178,102.304871 14.4338079,102.120059 C14.6184416,101.935426 14.8640257,101.833842 15.1249366,101.833842 L15.1252931,101.833842 L15.7508376,101.833842 C15.7565406,101.833842 15.7615307,101.831525 15.7668772,101.830455 C15.9973129,101.814238 16.1831941,101.628535 16.1976297,101.396851 C16.1981644,101.392574 16.2001248,101.388832 16.2001248,101.384554 L16.2001248,100.821743 C16.2006594,100.789129 16.2206198,100.760257 16.251095,100.748495 C16.256798,100.746178 16.260897,100.742079 16.2658871,100.738871 C16.4323426,100.669545 16.5414119,100.514139 16.5510356,100.335208 C16.5512139,100.332178 16.5528178,100.329149 16.5528178,100.325941 L16.5528178,97.5671287 C16.5528178,97.5557228 16.5501446,97.5450297 16.546402,97.5348713 C16.5305406,97.3855248 16.4467782,97.2506139 16.3136495,97.1766535 C16.312402,97.1757624 16.3106198,97.1757624 16.3088376,97.1750495 C16.3075901,97.1741584 16.306699,97.1727327 16.3054515,97.1720198 C16.2796099,97.1575842 16.2635703,97.1303168 16.2642832,97.1007327 L16.2642832,96.6368317 C16.2642832,96.633802 16.2626792,96.6309505 16.2623228,96.6279208 C16.2626792,96.6248911 16.264105,96.622396 16.2642832,96.6195446 C16.2644614,96.6077822 16.2685604,96.5972673 16.2733723,96.5869307 C16.2895901,96.5867525 16.3058079,96.5828317 16.3206,96.5742772 C16.4498079,96.499604 16.5310752,96.3659406 16.5465802,96.2190891 C16.5501446,96.2091089 16.5528178,96.1987723 16.5528178,96.1877228 L16.5528178,96.1556436 C16.5528178,96.1536832 16.5519267,96.1522574 16.5517485,96.150297 C16.5405208,95.521901 16.0318871,95.0134455 15.4033129,95.0018614 C15.4015307,95.0018614 15.3997485,95.0007921 15.3979663,95.0007921 L14.724303,95.0007921 C14.7216297,95.0007921 14.7193129,95.0022178 14.7166396,95.002396 C14.5195307,95.0063168 14.3258079,95.0590693 14.1550752,95.1576238 C14.1379663,95.1674257 14.1267386,95.182396 14.1187188,95.1987921 L13.2983822,95.6546733 C13.2786,95.6653663 13.2657683,95.6828317 13.2577485,95.7017228 C12.8148772,95.9473069 12.3169366,96.0807921 11.8104416,96.089703 C11.792798,96.0713465 11.7685604,96.0594059 11.7409366,96.0594059 L9.71994653,96.0594059 C9.69553069,96.0594059 9.6736099,96.0693861 9.65667921,96.0845347 C9.56846139,96.0686733 9.4916495,96.0127129 9.4545802,95.9291287 C9.41590693,95.841802 9.42891683,95.7428911 9.48202574,95.6653663 C9.49450099,95.660198 9.50590693,95.6523564 9.51570891,95.6416634 C9.80281782,95.3258614 9.78749109,94.8457426 9.48113465,94.5488317 C9.1746,94.2519208 8.69430297,94.2513861 8.3875901,94.5484752 C8.08087723,94.8453861 8.06519406,95.325505 8.35230297,95.6414851 C8.36174851,95.6521782 8.37351089,95.6596634 8.38580792,95.6648317 C8.43945149,95.7421782 8.45228317,95.8416238 8.4136099,95.9293069 C8.37636238,96.0127129 8.29972871,96.0686733 8.21168911,96.0845347 C8.1945802,96.0693861 8.17283762,96.0594059 8.14806535,96.0594059 L6.09517426,96.0594059 C6.06808515,96.0594059 6.04366931,96.0708119 6.02638218,96.0886337 C5.53075842,96.0750891 5.04422376,95.9426733 4.61044158,95.701901 C4.60242178,95.6828317 4.58941188,95.6653663 4.56980792,95.6546733 L3.7496495,95.1987921 C3.74145149,95.182396 3.73022376,95.1674257 3.71311485,95.157802 C3.54220396,95.0590693 3.34830297,95.0063168 3.1515505,95.002396 C3.14869901,95.0022178 3.1465604,95.0007921 3.14370891,95.0007921 L2.47022376,95.0007921 C2.46826337,95.0007921 2.46665941,95.0018614 2.46469901,95.0018614 C1.83630297,95.0132673 1.32784752,95.521901 1.31626337,96.150297 C1.31626337,96.1522574 1.31519406,96.1536832 1.31519406,96.1556436 L1.31519406,96.1877228 C1.31519406,96.1985941 1.31804554,96.2089307 1.32143168,96.2189109 C1.33675842,96.3655842 1.41802574,96.4992475 1.54741188,96.5742772 C1.5506198,96.5762376 1.55418416,96.5755248 1.55774851,96.5769505 C1.56594653,96.589604 1.5716495,96.6038614 1.57182772,96.6193663 C1.57200594,96.6229307 1.5736099,96.6259604 1.57396634,96.6293465 C1.5736099,96.6341584 1.57200594,96.6384356 1.57218416,96.6434257 L1.60283762,97.1046535 C1.60194653,97.1328119 1.58751089,97.1584752 1.56273861,97.172198 C1.56149109,97.1729109 1.56077822,97.1741584 1.55935248,97.1750495 C1.55792673,97.1757624 1.55614455,97.1757624 1.55454059,97.1766535 C1.4215901,97.2506139 1.33782772,97.3853465 1.32178812,97.5345149 C1.31804554,97.5448515 1.31519406,97.5557228 1.31519406,97.5671287 L1.31519406,100.325941 C1.31519406,100.329149 1.31679802,100.332178 1.31715446,100.335208 C1.32695644,100.514317 1.43584752,100.669901 1.60248119,100.73905 C1.60747129,100.742257 1.61139208,100.746178 1.61709505,100.748495 C1.64739208,100.760436 1.66753069,100.789129 1.66824356,100.821743 L1.66824356,101.304713 C1.64828317,101.322535 1.63545149,101.347842 1.63616436,101.376713 C1.6406198,101.628535 1.84913465,101.833663 2.10095644,101.833842 L2.10113465,101.833842 C2.10398614,101.833842 2.10648119,101.832416 2.10915446,101.832238 C2.11200594,101.832416 2.11450099,101.833842 2.11717426,101.833842 L2.72667921,101.833842 C2.72970891,101.833842 2.73202574,101.832416 2.73487723,101.832238 C2.73772871,101.832416 2.74004554,101.833842 2.74307525,101.833842 C3.00452079,101.833842 3.25010495,101.935604 3.43473861,102.120416 C3.6195505,102.305228 3.72113465,102.550812 3.72113465,102.812257 L3.72113465,103.405545 C3.72113465,103.408396 3.7225604,103.410713 3.72273861,103.413564 C3.7225604,103.416238 3.72113465,103.418733 3.72113465,103.421584 C3.72113465,103.465782 3.68531287,103.501782 3.64111485,103.501782 L3.64093663,103.501782 C3.3946396,103.501782 3.17044158,103.64703 3.07010495,103.871762 C2.98135248,104.070297 3.00327327,104.299129 3.12250099,104.476455 C3.11804554,104.503901 3.12446139,104.532772 3.14442178,104.55505 C3.34224356,104.776396 3.39178812,105.094515 3.27042178,105.365406 C3.1606396,105.611347 2.92753069,105.776911 2.66341188,105.805604 C2.64612475,105.789743 2.62366931,105.779406 2.59836238,105.779406 L0.27279802,105.779406 C0.2286,105.779406 0.192421782,105.743406 0.192421782,105.699208 L0.192421782,0.450891089 C0.192421782,0.406693069 0.2286,0.370693069 0.27279802,0.370693069 L17.5793525,0.370693069 C17.5823822,0.370693069 17.584699,0.369267327 17.5875505,0.369089109 C17.590402,0.369267327 17.5927188,0.370693069 17.5955703,0.370693069 C17.6397683,0.370693069 17.6757683,0.406693069 17.6757683,0.450891089 L17.6757683,105.699208 Z M17.8650356,0.418811881 C17.8488178,0.283722772 17.7349366,0.178217822 17.5955703,0.178217822 C17.5927188,0.178217822 17.590402,0.179643564 17.5875505,0.179821782 C17.584699,0.179643564 17.5823822,0.178217822 17.5793525,0.178217822 L0.256758416,0.178217822 C0.251055446,0.178217822 0.245887129,0.180534653 0.240540594,0.18160396 C0.116144554,0.19639604 0.0181247525,0.294415842 0.00333267327,0.418811881 C0.00226336634,0.424336634 -5.34653465e-05,0.429148515 -5.34653465e-05,0.434851485 L-5.34653465e-05,105.715248 C-5.34653465e-05,105.72095 0.00226336634,105.725762 0.00333267327,105.731287 C0.0181247525,105.855683 0.116144554,105.953881 0.240540594,105.968673 C0.245887129,105.969743 0.251055446,105.971881 0.256758416,105.971881 L2.51174851,105.971881 C2.52939208,105.991307 2.55398614,106.00396 2.58232277,106.00396 C2.95497624,106.00396 3.29412475,105.784218 3.44614455,105.444 C3.5865802,105.130337 3.54238218,104.767307 3.34028317,104.494634 C3.34438218,104.467188 3.33814455,104.438317 3.31800594,104.41604 C3.20465941,104.288792 3.17614455,104.106119 3.2456495,103.950356 C3.31533267,103.794772 3.4705604,103.694257 3.64111485,103.694257 C3.79153069,103.694079 3.9136099,103.571822 3.9136099,103.421584 C3.9136099,103.418733 3.91218416,103.416238 3.91218416,103.413564 C3.91218416,103.410713 3.9136099,103.408396 3.9136099,103.405545 L3.9136099,102.79604 C3.9136099,102.794257 3.91271881,102.792653 3.91254059,102.79105 C3.90719406,102.486297 3.78689703,102.200436 3.57071881,101.984257 C3.34972871,101.763089 3.05584752,101.641188 2.74307525,101.641188 C2.74004554,101.641188 2.73772871,101.642614 2.73487723,101.642792 C2.73202574,101.642614 2.72970891,101.641188 2.72667921,101.641188 L2.11717426,101.641188 C2.11450099,101.641188 2.11200594,101.642614 2.10915446,101.642792 C2.10648119,101.642614 2.10398614,101.641188 2.10113465,101.641188 C1.97727327,101.64101 1.87212475,101.556178 1.83986733,101.441584 C1.85198614,101.425545 1.86071881,101.406297 1.86071881,101.384554 L1.86071881,100.807129 C1.86071881,100.793406 1.85751089,100.780218 1.85234257,100.768455 C1.83541188,100.686832 1.78337228,100.618396 1.7076297,100.58097 C1.69978812,100.574198 1.6915901,100.56796 1.68125347,100.56404 C1.57592673,100.522693 1.50766931,100.423069 1.50766931,100.309901 L1.50766931,97.5831683 C1.50766931,97.4840792 1.56149109,97.3928317 1.64792673,97.3447129 C1.64953069,97.3438218 1.65024356,97.342396 1.65184752,97.341505 C1.65327327,97.3409703 1.65469901,97.3413267 1.65612475,97.3404356 C1.72830297,97.3005149 1.77535248,97.2304752 1.78996634,97.1513465 C1.79477822,97.1390495 1.79709505,97.1256832 1.79620396,97.1114257 L1.79584752,97.1039406 C1.79584752,97.1016238 1.79638218,97.0994851 1.79638218,97.0971683 C1.79638218,97.0939604 1.79495644,97.0909307 1.7946,97.0877228 L1.76430297,96.6304158 C1.76412475,96.6286337 1.76287723,96.6270297 1.76269901,96.6250693 C1.76287723,96.6220396 1.76448119,96.6193663 1.76430297,96.6161584 C1.76269901,96.5209901 1.71065941,96.4324158 1.62832277,96.3846535 C1.62030297,96.380198 1.61174851,96.3784158 1.60319406,96.3762772 C1.54420396,96.3251287 1.50766931,96.2513465 1.50766931,96.1716832 L1.50766931,96.171505 C1.50784752,95.6322178 1.94679802,95.1932673 2.48626337,95.1932673 L3.12784752,95.1932673 C3.28343168,95.1932673 3.43634257,95.2324752 3.57446139,95.3035842 C3.58301584,95.3187327 3.59388713,95.3324554 3.61028317,95.3415446 L4.42669901,95.7952871 C4.43454059,95.8145347 4.44701584,95.832 4.4666198,95.8432277 C4.96580792,96.1314059 5.53414455,96.2839604 6.11032277,96.2839604 C6.13883762,96.2839604 6.16343168,96.2713069 6.18107525,96.2518812 L8.09353069,96.2518812 C8.11117426,96.2713069 8.13594653,96.2839604 8.16410495,96.2839604 C8.34802574,96.2839604 8.51501584,96.1754257 8.58968911,96.0071881 C8.66400594,95.8389505 8.63228317,95.6420198 8.5086,95.5060396 C8.49826337,95.4948119 8.48578812,95.4873267 8.47242178,95.4821584 C8.28172871,95.2438812 8.29901584,94.9020594 8.52125347,94.6865941 C8.75293663,94.4627525 9.1156099,94.462396 9.34729307,94.6869505 C9.56953069,94.9022376 9.58646139,95.2440594 9.3955901,95.4821584 C9.38240198,95.4873267 9.37010495,95.4948119 9.35976832,95.5060396 C9.23608515,95.6420198 9.20418416,95.8387723 9.27867921,96.0070099 C9.35317426,96.1752475 9.51998614,96.2839604 9.70408515,96.2839604 C9.73224356,96.2839604 9.75683762,96.2713069 9.77448119,96.2518812 L11.6862238,96.2518812 C11.7036891,96.2713069 11.7284614,96.2839604 11.7566198,96.2839604 C12.3329762,96.2839604 12.9014911,96.1315842 13.4006792,95.8435842 C13.420105,95.8325347 13.4325802,95.8148911 13.4404218,95.7956436 L14.2579069,95.3415446 C14.2741248,95.3324554 14.2853525,95.3185545 14.2937287,95.3034059 C14.4318475,95.2324752 14.5847584,95.1932673 14.7405208,95.1932673 L15.382105,95.1932673 C15.9213921,95.1934455 16.3603426,95.632396 16.3603426,96.1716832 C16.3603426,96.2502772 16.3250554,96.3231683 16.2676693,96.3743168 C16.2473525,96.3716436 16.226501,96.3739604 16.2077881,96.3846535 C16.1256297,96.4324158 16.0735901,96.5209901 16.0718079,96.6159802 C16.0716297,96.619901 16.0734119,96.6231089 16.0737683,96.6270297 C16.0734119,96.6304158 16.0718079,96.6334455 16.0718079,96.6368317 L16.0718079,97.1180198 C16.0718079,97.1285347 16.0746594,97.1381584 16.0776891,97.1477822 C16.0914119,97.2281584 16.1388178,97.2994455 16.2117089,97.3402574 C16.2131347,97.3409703 16.2149168,97.3406139 16.2163426,97.341505 C16.2175901,97.3422178 16.2184812,97.3438218 16.2200851,97.3447129 C16.306699,97.3930099 16.3603426,97.4842574 16.3603426,97.5831683 L16.3603426,100.310079 C16.3603426,100.423069 16.2920851,100.522693 16.1867584,100.56404 C16.1758871,100.568139 16.1666198,100.574911 16.1584218,100.582218 C16.0839267,100.619822 16.0326,100.687545 16.0160257,100.768455 C16.0106792,100.780218 16.0076495,100.793406 16.0076495,100.807129 L16.0076495,101.37297 C16.0076495,101.373149 16.0074713,101.373149 16.0074713,101.373327 C16.0049762,101.521069 15.8825406,101.641188 15.734798,101.641188 L15.1252931,101.641188 L15.1249366,101.641188 L15.1094317,101.641188 C15.1076495,101.641188 15.1060455,101.642079 15.1042634,101.642257 C14.7995109,101.647604 14.5136495,101.767723 14.2976495,101.983901 C14.0814713,102.200079 13.960996,102.486119 13.9554713,102.79105 C13.9554713,102.792653 13.954402,102.794257 13.954402,102.79604 L13.954402,103.405545 C13.954402,103.408396 13.9558277,103.410713 13.9561842,103.413564 C13.9558277,103.416238 13.954402,103.418733 13.954402,103.421584 C13.954402,103.494297 13.9827386,103.562911 14.0342436,103.614416 C14.0857485,103.665921 14.1541842,103.694257 14.2270752,103.694257 L14.2272535,103.694257 C14.3978079,103.694257 14.5530356,103.794772 14.6223624,103.950535 C14.6920455,104.106297 14.6637089,104.28897 14.5500059,104.41604 C14.5407386,104.426198 14.534501,104.437782 14.5305802,104.449901 C14.2983624,104.726495 14.2416891,105.112693 14.3897881,105.443822 C14.5419861,105.784218 14.8809564,106.00396 15.2534317,106.00396 C15.2817683,106.00396 15.3065406,105.991307 15.3241842,105.971881 L17.5793525,105.971881 C17.5823822,105.971881 17.584699,105.970455 17.5873723,105.970277 C17.5902238,105.970455 17.5925406,105.971881 17.5953921,105.971881 C17.7347584,105.971881 17.8488178,105.866376 17.8650356,105.731287 C17.8657485,105.725762 17.8682436,105.72095 17.8682436,105.715248 L17.8682436,0.434851485 C17.8682436,0.429148515 17.8657485,0.424336634 17.8650356,0.418811881 Z M16.9058673,45.7360396 C16.9058673,45.8607921 16.8208574,45.9652277 16.7064416,45.9974851 C16.6902238,45.9851881 16.6709762,45.9766337 16.6490554,45.9766337 L1.21913465,45.9766337 C1.19721386,45.9766337 1.17814455,45.9851881 1.16192673,45.9974851 C1.04715446,45.9650495 0.96250099,45.8607921 0.96250099,45.7360396 C0.96250099,45.7331881 0.961075248,45.7308713 0.96089703,45.7280198 C0.961075248,45.7251683 0.96250099,45.7228515 0.96250099,45.72 L0.96250099,3.62673267 C0.96250099,3.53958416 1.0045604,3.45706931 1.07513465,3.40592079 C1.13733267,3.36083168 1.2155703,3.34621782 1.29042178,3.36154455 C1.29826337,3.36724752 1.30592673,3.37277228 1.3155505,3.3759802 C1.39432277,3.40182178 1.47576832,3.41946535 1.55792673,3.43194059 C1.56986733,3.43960396 1.58305545,3.44530693 1.59820396,3.44708911 C1.61638218,3.44922772 1.63438218,3.45029703 1.6525604,3.45029703 C1.88495644,3.45029703 2.08652079,3.27564356 2.11414455,3.03914851 C2.14408515,2.78447525 1.96087723,2.5529703 1.70620396,2.52320792 C1.68570891,2.52035644 1.66699604,2.52588119 1.65024356,2.5349703 C1.37596634,2.47241584 1.17618416,2.2220198 1.18741188,1.93562376 C1.19935248,1.62784158 1.44992673,1.37744554 1.75753069,1.36550495 C2.04553069,1.35552475 2.29485743,1.55477228 2.35687723,1.82922772 C2.34814455,1.84580198 2.3426198,1.86433663 2.34493663,1.88429703 C2.37273861,2.12079208 2.57412475,2.29562376 2.80669901,2.29562376 C2.82452079,2.29562376 2.84269901,2.29455446 2.86069901,2.29223762 C3.1155505,2.26247525 3.2985802,2.03114851 3.26899604,1.77647525 C3.26721386,1.76132673 3.26133267,1.74813861 3.25366931,1.7360198 C3.24137228,1.6540396 3.22372871,1.57259406 3.19806535,1.494 C3.19467921,1.48437624 3.18915446,1.47635644 3.18345149,1.46851485 C3.16812475,1.3940198 3.1825604,1.31560396 3.2276495,1.25322772 C3.27879802,1.18265347 3.36149109,1.14059406 3.4486396,1.14059406 L8.24448119,1.14059406 C8.24733267,1.14059406 8.2496495,1.13916832 8.25250099,1.1389901 C8.25517426,1.13916832 8.25749109,1.14059406 8.26052079,1.14059406 C8.38527327,1.14059406 8.48970891,1.22542574 8.52196634,1.34019802 C8.50949109,1.35623762 8.50111485,1.37530693 8.50111485,1.39722772 L8.50111485,4.57306931 C8.50111485,4.62617822 8.54424356,4.66930693 8.59735248,4.66930693 L9.23893663,4.66930693 C9.29204554,4.66930693 9.33499604,4.62617822 9.33499604,4.57306931 L9.33499604,1.41237624 C9.33570891,1.26249505 9.45778812,1.14059406 9.60766931,1.14059406 L14.4197287,1.14059406 C14.5068772,1.14059406 14.5893921,1.18265347 14.6405406,1.25340594 C14.6856297,1.31560396 14.7000653,1.3940198 14.6847386,1.46851485 C14.6792139,1.47635644 14.6735109,1.48419802 14.6704812,1.49382178 C14.6444614,1.57241584 14.626996,1.65368317 14.6145208,1.73530693 C14.6068574,1.74742574 14.6009762,1.7609703 14.5991941,1.77629703 C14.5847584,1.89962376 14.6193327,2.02134653 14.6963228,2.11883168 C14.7734911,2.21631683 14.8838079,2.2779802 15.0073129,2.29223762 C15.0256693,2.29455446 15.0438475,2.29562376 15.0620257,2.29562376 C15.1662832,2.29562376 15.2666198,2.26087129 15.3496693,2.19510891 C15.4471545,2.11811881 15.5088178,2.00762376 15.5232535,1.88429703 C15.5255703,1.86433663 15.5198673,1.8459802 15.5111347,1.82922772 C15.5729762,1.55459406 15.8212337,1.35552475 16.1108376,1.36568317 C16.4184416,1.37762376 16.6690158,1.6280198 16.6807782,1.93580198 C16.6918277,2.22219802 16.4920455,2.47259406 16.2177683,2.5349703 C16.2011941,2.52605941 16.1826594,2.52053465 16.1623426,2.52320792 C16.0386594,2.53746535 15.9283426,2.59912871 15.8513525,2.69661386 C15.7741842,2.79392079 15.7397881,2.91564356 15.7540455,3.0389703 C15.7684812,3.16247525 15.8299663,3.27279208 15.9272733,3.3499604 C16.010501,3.41554455 16.1108376,3.45047525 16.2152733,3.45047525 C16.2332733,3.45047525 16.2516297,3.44940594 16.2698079,3.44708911 C16.2849564,3.44548515 16.2983228,3.43960396 16.3102634,3.43194059 C16.3922436,3.41964356 16.4735109,3.402 16.552105,3.37615842 C16.5619069,3.3729505 16.5699267,3.36742574 16.5777683,3.36172277 C16.6524416,3.34621782 16.7306792,3.36083168 16.7930554,3.40592079 C16.8636297,3.45706931 16.9058673,3.53958416 16.9058673,3.62673267 L16.9058673,45.72 C16.9058673,45.7230297 16.9072931,45.7253465 16.9072931,45.728198 C16.9072931,45.7310495 16.9058673,45.7331881 16.9058673,45.7360396 Z M17.0983426,45.72 L17.0983426,3.61069307 C17.0983426,3.60231683 17.0954911,3.59483168 17.0933525,3.58716832 C17.0817683,3.45350495 17.0154713,3.32928713 16.9060455,3.25015842 C16.786105,3.16283168 16.6298079,3.13859406 16.488303,3.18475248 C16.4758277,3.18885149 16.4647782,3.19526733 16.4553327,3.20328713 C16.384402,3.22431683 16.3116891,3.24053465 16.2382634,3.24908911 C16.2297089,3.2499802 16.2225802,3.25372277 16.2149168,3.25657426 C16.1543228,3.25639604 16.0953327,3.23750495 16.0468574,3.1990099 C15.9896495,3.15374257 15.9536495,3.0890495 15.945095,3.01669307 C15.9367188,2.94433663 15.9568574,2.8730495 16.0021248,2.8160198 C16.0345604,2.7750297 16.0771545,2.74562376 16.125095,2.72869307 C16.138105,2.73528713 16.1521842,2.73992079 16.1675109,2.73992079 C16.1712535,2.73992079 16.174996,2.73974257 16.1787386,2.73920792 C16.5838277,2.69215842 16.8887584,2.33590099 16.8730752,1.92831683 C16.8573921,1.52073267 16.5259069,1.18924752 16.118501,1.17338614 C15.7135901,1.15538614 15.3544812,1.46209901 15.3070752,1.86736634 C15.3049366,1.88661386 15.310105,1.90425743 15.3181248,1.92047525 C15.3011941,1.96877228 15.2716099,2.01172277 15.2302634,2.04415842 C15.1732337,2.08942574 15.1021248,2.10938614 15.0295901,2.10118812 C14.9572337,2.09263366 14.8925406,2.05663366 14.8472733,1.99942574 C14.8093129,1.95130693 14.7902436,1.8930297 14.7897089,1.83243564 C14.7929168,1.82459406 14.7964812,1.81675248 14.7975505,1.80784158 C14.8062832,1.73067327 14.8233921,1.6540396 14.846204,1.57918812 C14.8511941,1.57188119 14.8586792,1.56706931 14.8615307,1.55833663 C14.9078673,1.4170099 14.8834515,1.26089109 14.7964812,1.14059406 C14.716996,1.03081188 14.5926,0.964514851 14.4589366,0.952752475 C14.4512733,0.950792079 14.4439663,0.948118812 14.4355901,0.948118812 L9.59180792,0.948118812 C9.58592673,0.948118812 9.58111485,0.950435644 9.57576832,0.951326733 C9.34497624,0.967544554 9.1615901,1.15110891 9.14572871,1.38190099 C9.14483762,1.38706931 9.14252079,1.39188119 9.14252079,1.39722772 L9.14252079,1.41237624 L9.14252079,1.41326733 L9.14252079,1.41362376 L9.14252079,4.47683168 L8.6935901,4.47683168 L8.6935901,1.48384158 C8.71283762,1.46637624 8.72549109,1.44160396 8.72549109,1.41326733 C8.72549109,1.15681188 8.51679802,0.948118812 8.26052079,0.948118812 C8.25749109,0.948118812 8.25517426,0.949544554 8.25250099,0.949722772 C8.2496495,0.949544554 8.24733267,0.948118812 8.24448119,0.948118812 L3.4326,0.948118812 C3.42422376,0.948118812 3.41673861,0.950792079 3.40907525,0.952752475 C3.27541188,0.964514851 3.15119406,1.03081188 3.07188713,1.14041584 C2.9845604,1.26071287 2.96032277,1.41683168 3.00648119,1.5579802 C3.00933267,1.56689109 3.01681782,1.57170297 3.02180792,1.5790099 C3.0446198,1.65368317 3.06172871,1.73049505 3.07099604,1.80819802 C3.07206535,1.81675248 3.07527327,1.82423762 3.07830297,1.83190099 C3.07741188,1.96752475 2.97654059,2.0849703 2.83842178,2.10118812 C2.71010495,2.11580198 2.5915901,2.03809901 2.55024356,1.92065347 C2.55826337,1.90443564 2.56325347,1.88679208 2.56093663,1.86754455 C2.51406535,1.46263366 2.15834257,1.15342574 1.75004554,1.17320792 C1.3426396,1.18906931 1.01097624,1.52055446 0.994936634,1.92813861 C0.979253465,2.33554455 1.28400594,2.6919802 1.68909505,2.73920792 C1.69283762,2.73974257 1.69675842,2.73992079 1.70050099,2.73992079 C1.71582772,2.73992079 1.72990693,2.73528713 1.74309505,2.72869307 C1.86018416,2.77021782 1.93788713,2.88819802 1.92291683,3.01669307 C1.90687723,3.15534653 1.78836238,3.2560396 1.65202574,3.25639604 C1.64471881,3.25372277 1.63776832,3.2499802 1.62974851,3.24908911 C1.55614455,3.24035644 1.4836099,3.22413861 1.41267921,3.20328713 C1.40323366,3.19526733 1.39236238,3.18885149 1.37988713,3.18475248 C1.2385604,3.13859406 1.08244158,3.16283168 0.962322772,3.2499802 C0.852718812,3.32946535 0.786243564,3.45368317 0.774659406,3.58716832 C0.77269901,3.5950099 0.770025743,3.60231683 0.770025743,3.61069307 L0.770025743,45.72 C0.770025743,45.7228515 0.771273267,45.7251683 0.771451485,45.7280198 C0.771273267,45.7308713 0.770025743,45.7331881 0.770025743,45.7360396 C0.769847525,45.992495 0.978540594,46.2010099 1.23481782,46.2011881 L1.23499604,46.2011881 C1.26333267,46.2011881 1.28810495,46.1885347 1.30574851,46.1691089 L16.5622634,46.1691089 C16.5800851,46.1885347 16.6046792,46.2011881 16.6330158,46.2011881 C16.8894713,46.2011881 17.0983426,45.992495 17.0983426,45.7360396 C17.0983426,45.7330099 17.0969168,45.7306931 17.0965604,45.7278416 C17.0969168,45.7251683 17.0983426,45.7228515 17.0983426,45.72 Z M16.9058673,92.4185941 C16.9058673,92.6798614 16.8037485,92.9256238 16.6189366,93.1104356 C16.434303,93.2950693 16.1887188,93.3968317 15.9276297,93.3968317 L15.9272733,93.3968317 L15.4849366,93.3968317 C15.4672931,93.3774059 15.442699,93.3647525 15.4143624,93.3647525 C14.8380059,93.3647525 14.2694911,93.5171287 13.770303,93.8051287 C13.7503426,93.8167129 13.7371545,93.8348911 13.7296693,93.8550297 L12.4621842,94.5969505 C12.456303,94.6005149 12.4523822,94.6056832 12.4473921,94.6101386 C12.4445406,94.6113861 12.4415109,94.6115644 12.4384812,94.6131683 C12.3139069,94.6851683 12.1745406,94.7268713 12.0316099,94.7388119 C12.0141446,94.7224158 11.9913327,94.7120792 11.9654911,94.7120792 L11.8052733,94.7120792 C11.7797881,94.7120792 11.7571545,94.7222376 11.7398673,94.7382772 C11.4117683,94.7104752 11.1175307,94.5181782 10.9612337,94.2271485 C10.9640851,94.2087921 10.9635505,94.189901 10.9551743,94.171901 C10.6807188,93.5828911 10.1647782,93.1439406 9.53941188,92.967505 C9.53531287,92.9662574 9.53139208,92.9671485 9.52711485,92.9666139 C9.41430297,92.9313267 9.33535248,92.8267129 9.33499604,92.7076634 L9.33499604,89.9322772 C9.33499604,89.9265743 9.33285743,89.9217624 9.33196634,89.9162376 C9.31521386,89.710396 9.14430297,89.5473267 8.93400594,89.5473267 C8.74616436,89.5473267 8.58879802,89.6781386 8.54584752,89.8531485 C8.51947129,89.8704356 8.50111485,89.8985941 8.50111485,89.9322772 L8.50111485,92.7231683 C8.50111485,92.7445545 8.50931287,92.7632673 8.52107525,92.7791287 C8.49665941,92.8668119 8.43054059,92.9382772 8.34143168,92.9664356 C8.33733267,92.9669703 8.33323366,92.9660792 8.32913465,92.9673267 C7.70376832,93.1434059 7.1876495,93.5825347 6.91319406,94.1713663 C6.90481782,94.1895446 6.90428317,94.2084356 6.90713465,94.2267921 C6.74620396,94.5265545 6.43895644,94.7218812 6.09909505,94.7404158 C6.0816297,94.7229505 6.05774851,94.7120792 6.03101584,94.7120792 L5.90252079,94.7120792 C5.87578812,94.7120792 5.8515505,94.7229505 5.83426337,94.7407723 C5.69667921,94.7334653 5.56248119,94.6971089 5.44004554,94.6340198 C5.43166931,94.6190495 5.42079802,94.605505 5.40493663,94.5964158 L4.10644158,93.8543168 C4.09877822,93.8347129 4.08594653,93.8168911 4.06634257,93.8054851 C3.56697624,93.5173069 2.9986396,93.3647525 2.42228317,93.3647525 C2.39412475,93.3647525 2.36917426,93.3774059 2.35170891,93.3968317 L1.9405604,93.3968317 C1.67929307,93.3968317 1.43353069,93.2948911 1.24889703,93.1100792 C1.06408515,92.9252673 0.962322772,92.6796832 0.96250099,92.4182376 C0.96250099,92.4155644 0.961075248,92.4130693 0.96089703,92.410396 C0.961075248,92.4075446 0.96250099,92.4050495 0.96250099,92.4023762 L0.96250099,47.2277228 C0.96250099,47.2248713 0.961075248,47.2223762 0.96089703,47.219703 C0.961075248,47.2168515 0.96250099,47.2143564 0.96250099,47.211505 C0.96250099,47.0867525 1.04715446,46.9823168 1.16192673,46.9502376 C1.17814455,46.9623564 1.19721386,46.9710891 1.21913465,46.9710891 L16.6490554,46.9710891 C16.670798,46.9710891 16.6900455,46.9625347 16.7062634,46.9502376 C16.8208574,46.982495 16.9058673,47.0869307 16.9058673,47.2116832 C16.9058673,47.2145347 16.9071149,47.2170297 16.9072931,47.219703 C16.9071149,47.2225545 16.9058673,47.2248713 16.9058673,47.2277228 L16.9058673,92.4023762 C16.9058673,92.4052277 16.9072931,92.4077228 16.9072931,92.4105743 C16.9072931,92.4132475 16.9058673,92.4157426 16.9058673,92.4185941 Z M16.6330158,46.7465347 C16.6048574,46.7465347 16.5800851,46.7591881 16.5624416,46.7786139 L1.30574851,46.7786139 C1.28810495,46.7591881 1.26333267,46.7465347 1.23517426,46.7465347 C0.978718812,46.7465347 0.770025743,46.9552277 0.770025743,47.211505 C0.770025743,47.2143564 0.771273267,47.2168515 0.771451485,47.219703 C0.771273267,47.2223762 0.770025743,47.2248713 0.770025743,47.2277228 L0.770025743,92.4023762 C0.770025743,92.4050495 0.771273267,92.4075446 0.771451485,92.410396 C0.771273267,92.4130693 0.770025743,92.4155644 0.770025743,92.4182376 C0.770025743,92.7310099 0.891570297,93.0250693 1.1125604,93.2462376 C1.32891683,93.4625941 1.61495644,93.5830693 1.91988713,93.5882376 C1.92166931,93.5884158 1.92291683,93.5893069 1.92469901,93.5893069 L2.43814455,93.5893069 C2.46505545,93.5893069 2.48929307,93.577901 2.50675842,93.5600792 C3.00238218,93.5736238 3.48891683,93.7062178 3.92269901,93.9469901 C3.93071881,93.965703 3.94301584,93.9828119 3.96208515,93.993505 L5.26396634,94.7375644 C5.27216436,94.7543168 5.2835703,94.7696436 5.30085743,94.7796238 C5.47889703,94.8824554 5.68117426,94.9366337 5.88630297,94.9366337 C5.9146396,94.9366337 5.93941188,94.9239802 5.95705545,94.9045545 L5.97612475,94.9045545 C5.99376832,94.9239802 6.01854059,94.9366337 6.04687723,94.9366337 C6.50026337,94.9366337 6.91693663,94.6710891 7.10834257,94.260297 C7.11689703,94.2417624 7.11743168,94.2221584 7.11404554,94.2032673 C7.36782772,93.6955248 7.81943168,93.3164554 8.36566931,93.1578416 C8.3726198,93.1574851 8.37974851,93.1567723 8.38669901,93.1548119 C8.58630297,93.098495 8.72549109,92.9145743 8.72549109,92.7073069 C8.72549109,92.6789703 8.71283762,92.6543762 8.6935901,92.6365545 L8.6935901,90.0190693 C8.71283762,90.0014257 8.72549109,89.9764752 8.72549109,89.9483168 C8.72549109,89.8335446 8.81923366,89.739802 8.93400594,89.739802 C9.04913465,89.739802 9.14252079,89.8333663 9.14252079,89.9483168 L9.14252079,92.7065941 L9.14252079,92.7071287 L9.14252079,92.7080198 L9.14252079,92.7231683 C9.14252079,92.7270891 9.14430297,92.7301188 9.14483762,92.7338614 C9.15624356,92.9300792 9.2906198,93.1011683 9.48149109,93.1546337 C9.48826337,93.1565941 9.49485743,93.1571287 9.5016297,93.1574851 C10.0480455,93.316099 10.5000059,93.6953465 10.7539663,94.2030891 C10.7507584,94.221802 10.7512931,94.2412277 10.7596693,94.2597624 C10.9510752,94.6707327 11.3675703,94.9364554 11.8209564,94.9366337 C11.8459069,94.9366337 11.8681842,94.9266535 11.8852931,94.9111485 C11.9022238,94.9266535 11.924501,94.9366337 11.9494515,94.9366337 C12.1547584,94.9366337 12.3572139,94.8824554 12.534897,94.779802 C12.5414911,94.7760594 12.5461248,94.7703564 12.5514713,94.7651881 C12.5541446,94.7641188 12.556996,94.7646535 12.5596693,94.7630495 L13.8747386,93.9929703 C13.8932733,93.9822772 13.9055703,93.9653465 13.9132337,93.9469901 C14.3562832,93.7014059 14.8542238,93.5679208 15.3607188,93.5590099 C15.3781842,93.5773663 15.4026,93.5893069 15.4300455,93.5893069 L15.9272733,93.5893069 L15.9276297,93.5893069 L15.9433129,93.5893069 C15.945095,93.5893069 15.946699,93.5884158 15.9484812,93.5882376 C16.2532337,93.5830693 16.539095,93.4627723 16.755095,93.2465941 C16.9762634,93.0254257 17.0981644,92.7313663 17.0983426,92.4185941 C17.0983426,92.4157426 17.0967386,92.4132475 17.0965604,92.4105743 C17.0967386,92.4077228 17.0983426,92.4052277 17.0983426,92.4023762 L17.0983426,47.2277228 C17.0983426,47.2248713 17.0969168,47.2225545 17.0965604,47.219703 C17.0969168,47.2170297 17.0983426,47.2145347 17.0983426,47.2116832 C17.0983426,46.9552277 16.8894713,46.7465347 16.6330158,46.7465347 Z" id="Fill-3" fill="#000000"></path>
                    </g>
                </g>
            </g>
        </g>
    </g>
</svg>