Item Number,Item Description(Long),Net Weight,P & S Price,Clear Oil,Clear Poly,Rubio/Enviropro,Label
usotgc13819qsl,American Oak - Tongue & Groove Cladding 138x19mm (118.5mm cover) - Profile: Queenscliff - Set length fee included,1.7,32.12,1.82,7.73,9.31,American Oak
usotgc13819ssl,American Oak - Expression Cladding 138x19mm (118.5mm cover) - Profile: Sorrento - Set length fee included,1.7,32.12,1.82,7.73,9.31,American Oak
usotgc13826qsl,American Oak - Tongue & Groove Cladding 138x26mm (118.5mm cover) - Profile: Queenscliff - Set length fee included,2.33,74.55,1.82,7.73,9.31,American Oak
usotgc13832qsl,American Oak - Tongue & Groove Cladding 138x30mm (118.5mm cover) - Profile: Queenscliff - Set length fee included,2.86,74.55,1.82,7.73,9.31,American Oak
usotgc6819qsl,American Oak - Tongue & Groove Cladding 68x19mm (48.5mm cover) - Profile: Queenscliff - Set length fee included,0.7,16.65,1.82,4.59,5.53,American Oak
usotgc6819ssl,American Oak - Expression Cladding 68x19mm (48.5mm cover) - Profile: Sorrento - Set length fee included,0.7,16.65,1.82,4.59,5.53,American Oak
usotgc6826qsl,American Oak - Tongue & Groove Cladding 68x26mm (48.5mm cover) - Profile: Queenscliff - Set length fee included,0.95,31.21,1.82,4.59,5.53,American Oak
usotgc6832qsl,American Oak - Tongue & Groove Cladding 68x30mm (48.5mm cover) - Profile: Queenscliff - Set length fee included,1.17,31.21,1.82,4.59,5.53,American Oak
usotgc6832ssl,American Oak - Tongue & Groove Cladding 68x30mm (48.5mm cover) - Profile: Sorrento - Set length fee included,1.17,31.21,1.82,4.59,5.53,American Oak
usotgc8819qsl,American Oak - Tongue & Groove Cladding 88x19mm (68.5mm cover) - Profile: Queenscliff - Set length fee included,0.98,27.14,1.82,4.59,5.53,American Oak
usotgc8819ssl,American Oak - Tongue & Groove Cladding 88x19mm (68.5mm cover) - Profile: Sorrento - Set length fee included,0.98,27.14,1.82,4.59,5.53,American Oak
usotgc8826qsl,American Oak - Tongue & Groove Cladding 88x26mm (68.5mm cover) - Profile: Queenscliff - Set length fee included,1.34,51.39,1.82,4.59,5.53,American Oak
usotgc8832qsl,American Oak - Tongue & Groove Cladding 88x30mm (68.5mm cover) - Profile: Queenscliff - Set length fee included,1.65,51.39,1.82,4.59,5.53,American Oak
bbttgc13819qsl,Blackbutt - Tongue & Groove Cladding 138x19mm (118.5mm cover) - Profile: Queenscliff - Set length fee included,1.98,34.32,1.82,7.73,9.31,Blackbutt
bbttgc13819ssl,Blackbutt - Expression Cladding 138x19mm (118.5mm cover) - Profile: Sorrento - Set length fee included,1.98,34.32,1.82,7.73,9.31,Blackbutt
bbttgc13826qsl,Blackbutt - Tongue & Groove Cladding 138x26mm (118.5mm cover) - Profile: Queenscliff - Set length fee included,2.71,67.7,1.82,7.73,9.31,Blackbutt
bbttgc13832qsl,Blackbutt - Tongue & Groove Cladding 138x30mm (118.5mm cover) - Profile: Queenscliff - Set length fee included,3.34,67.7,1.82,7.73,9.31,Blackbutt
bbttgc6819qsl,Blackbutt - Tongue & Groove Cladding 68x19mm (48.5mm cover) - Profile: Queenscliff - Set length fee included,0.81,19.01,1.82,4.59,5.53,Blackbutt
bbttgc6819ssl,Blackbutt - Expression Cladding 68x19mm (48.5mm cover) - Profile: Sorrento - Set length fee included,0.81,19.01,1.82,4.59,5.53,Blackbutt
bbttgc6826qsl,Blackbutt - Tongue & Groove Cladding 68x26mm (48.5mm cover) - Profile: Queenscliff - Set length fee included,1.11,31.14,1.82,4.59,5.53,Blackbutt
bbttgc6832qsl,Blackbutt - Tongue & Groove Cladding 68x30mm (48.5mm cover) - Profile: Queenscliff - Set length fee included,1.37,31.14,1.82,4.59,5.53,Blackbutt
bbttgc6832ssl,Blackbutt - Tongue & Groove Cladding 68x30mm (48.5mm cover) - Profile: Sorrento - Set length fee included,1.37,31.14,1.82,4.59,5.53,Blackbutt
bbttgc8819qsl,Blackbutt - Tongue & Groove Cladding 88x19mm (68.5mm cover) - Profile: Queenscliff - Set length fee included,1.15,20.37,1.82,4.59,5.53,Blackbutt
bbttgc8819ssl,Blackbutt - Expression Cladding 88x19mm (68.5mm cover) - Profile: Sorrento - Set length fee included,1.15,20.37,1.82,4.59,5.53,Blackbutt
bbttgc8826qsl,Blackbutt - Tongue & Groove Cladding 88x26mm (68.5mm cover) - Profile: Queenscliff - Set length fee included,1.57,45.52,1.82,4.59,5.53,Blackbutt
bbttgc8832qsl,Blackbutt - Tongue & Groove Cladding 88x30mm (68.5mm cover) - Profile: Queenscliff - Set length fee included,1.93,45.52,1.82,4.59,5.53,Blackbutt
bjptgc13819qsl,Banjo Pine - Tongue & Groove Cladding 138x19mm (118.5mm cover) - Profile: Queenscliff - Set length fee included,1.23,21.72,1.82,7.73,9.31,Banjo Pine
bjptgc13819ssl,Banjo Pine - Expression Cladding 138x19mm (118.5mm cover) - Profile: Sorrento - Set length fee included,1.23,21.72,1.82,7.73,9.31,Banjo Pine
bjptgc13826qsl,Banjo Pine - Tongue & Groove Cladding 138x26mm (118.5mm cover) - Profile: Queenscliff - Set length fee included,1.68,38.97,1.82,7.73,9.31,Banjo Pine
bjptgc13832qsl,Banjo Pine - Tongue & Groove Cladding 138x30mm (118.5mm cover) - Profile: Queenscliff - Set length fee included,2.07,38.97,1.82,7.73,9.31,Banjo Pine
bjptgc6819qsl,Banjo Pine - Tongue & Groove Cladding 68x19mm (48.5mm cover) - Profile: Queenscliff - Set length fee included,0.5,11.46,1.82,4.59,5.53,Banjo Pine
bjptgc6819ssl,Banjo Pine - Expression Cladding 68x19mm (48.5mm cover) - Profile: Sorrento - Set length fee included,0.5,11.46,1.82,4.59,5.53,Banjo Pine
bjptgc6826qsl,Banjo Pine - Tongue & Groove Cladding 68x26mm (48.5mm cover) - Profile: Queenscliff - Set length fee included,0.69,17.96,1.82,4.59,5.53,Banjo Pine
bjptgc6832qsl,Banjo Pine - Tongue & Groove Cladding 68x30mm (48.5mm cover) - Profile: Queenscliff - Set length fee included,0.85,17.96,1.82,4.59,5.53,Banjo Pine
bjptgc6832ssl,Banjo Pine - Expression Cladding 68x30mm (48.5mm cover) - Profile: Sorrento - Set length fee included,0.85,17.96,1.82,4.59,5.53,Banjo Pine
bjptgc8819qsl,Banjo Pine - Tongue & Groove Cladding 88x19mm (68.5mm cover) - Profile: Queenscliff - Set length fee included,0.71,14.49,1.82,4.59,5.53,Banjo Pine
bjptgc8819ssl,Banjo Pine - Expression Cladding 88x19mm (68.5mm cover) - Profile: Sorrento - Set length fee included,0.71,14.49,1.82,4.59,5.53,Banjo Pine
bjptgc8826qsl,Banjo Pine - Tongue & Groove Cladding 88x26mm (68.5mm cover) - Profile: Queenscliff - Set length fee included,0.97,26.35,1.82,4.59,5.53,Banjo Pine
bjptgc8832qsl,Banjo Pine - Tongue & Groove Cladding 88x30mm (68.5mm cover) - Profile: Queenscliff - Set length fee included,1.19,26.35,1.82,4.59,5.53,Banjo Pine
spgtgc13819qsl,Spotted Gum - Tongue & Groove Cladding 138x19mm (118.5mm cover) - Profile: Queenscliff - Set length fee included,2.23,23.91,1.82,7.73,9.31,Spotted Gum
spgtgc13819ssl,Spotted Gum - Expression Cladding 138x19mm (118.5mm cover) - Profile: Sorrento - Set length fee included,2.23,23.91,1.82,7.73,9.31,Spotted Gum
spgtgc13826qsl,Spotted Gum - Tongue & Groove Cladding 138x26mm (118.5mm cover) - Profile: Queenscliff - Set length fee included,3.05,44.77,1.82,7.73,9.31,Spotted Gum
spgtgc13832qsl,Spotted Gum - Tongue & Groove Cladding 138x30mm (118.5mm cover) - Profile: Queenscliff - Set length fee included,3.75,44.77,1.82,7.73,9.31,Spotted Gum
spgtgc6819qsl,Spotted Gum - Tongue & Groove Cladding 68x19mm (48.5mm cover) - Profile: Queenscliff - Set length fee included,0.91,13.69,1.82,4.59,5.53,Spotted Gum
spgtgc6819ssl,Spotted Gum - Expression Cladding 68x19mm (48.5mm cover) - Profile: Sorrento - Set length fee included,0.91,13.69,1.82,4.59,5.53,Spotted Gum
spgtgc6826qsl,Spotted Gum - Tongue & Groove Cladding 68x26mm (48.5mm cover) - Profile: Queenscliff - Set length fee included,1.25,20.45,1.82,4.59,5.53,Spotted Gum
spgtgc6832qsl,Spotted Gum - Tongue & Groove Cladding 68x30mm (48.5mm cover) - Profile: Queenscliff - Set length fee included,1.54,20.45,1.82,4.59,5.53,Spotted Gum
spgtgc6832ssl,Spotted Gum - Tongue & Groove Cladding 68x30mm (48.5mm cover) - Profile: Sorrento - Set length fee included,1.54,20.45,1.82,4.59,5.53,Spotted Gum
spgtgc8819qsl,Spotted Gum - Tongue & Groove Cladding 88x19mm (68.5mm cover) - Profile: Queenscliff - Set length fee included,1.29,17.54,1.82,4.59,5.53,Spotted Gum
spgtgc8819ssl,Spotted Gum - Expression Cladding 88x19mm (68.5mm cover) - Profile: Sorrento - Set length fee included,1.29,17.54,1.82,4.59,5.53,Spotted Gum
spgtgc8826qsl,Spotted Gum - Tongue & Groove Cladding 88x26mm (68.5mm cover) - Profile: Queenscliff - Set length fee included,1.76,25.54,1.82,4.59,5.53,Spotted Gum
spgtgc8832qsl,Spotted Gum - Tongue & Groove Cladding 88x30mm (68.5mm cover) - Profile: Queenscliff - Set length fee included,2.17,25.54,1.82,4.59,5.53,Spotted Gum
vastgc13819qsl,Vic Ash - Tongue & Groove Cladding 138x19mm (118.5mm cover) - Profile: Queenscliff - Set length fee included,1.49,31.44,1.82,7.73,9.31,Vic Ash
vastgc13819ssl,Vic Ash - Expression Cladding 138x19mm (118.5mm cover) - Profile: Sorrento - Set length fee included,1.49,31.44,1.82,7.73,9.31,Vic Ash
vastgc13826qsl,Vic Ash - Tongue & Groove Cladding 138x26mm (118.5mm cover) - Profile: Queenscliff - Set length fee included,3.51,61.91,1.82,7.73,9.31,Vic Ash
vastgc13832qsl,Vic Ash - Tongue & Groove Cladding 138x30mm (118.5mm cover) - Profile: Queenscliff - Set length fee included,2.5,61.91,1.82,7.73,9.31,Vic Ash
vastgc6819qsl,Vic Ash - Tongue & Groove Cladding 68x19mm (48.5mm cover) - Profile: Queenscliff - Set length fee included,0.61,17.45,1.82,4.59,5.53,Vic Ash
vastgc6819ssl,Vic Ash - Expression Cladding 68x19mm (48.5mm cover) - Profile: Sorrento - Set length fee included,0.61,17.45,1.82,4.59,5.53,Vic Ash
vastgc6826qsl,Vic Ash - Tongue & Groove Cladding 68x26mm (48.5mm cover) - Profile: Queenscliff - Set length fee included,0.83,28.55,1.82,4.59,5.53,Vic Ash
vastgc6832qsl,Vic Ash - Tongue & Groove Cladding 68x30mm (48.5mm cover) - Profile: Queenscliff - Set length fee included,1.02,28.55,1.82,4.59,5.53,Vic Ash
vastgc6832ssl,Vic Ash - Expression Cladding 68x30mm (48.5mm cover) - Profile: Sorrento - Set length fee included,1.02,28.55,1.82,4.59,5.53,Vic Ash
vastgc8819qsl,Vic Ash - Tongue & Groove Cladding 88x19mm (68.5mm cover) - Profile: Queenscliff - Set length fee included,0.86,18.7,1.82,4.59,5.53,Vic Ash
vastgc8819ssl,Vic Ash - Expression Cladding 88x19mm (68.5mm cover) - Profile: Sorrento - Set length fee included,0.86,18.7,1.82,4.59,5.53,Vic Ash
vastgc8826qsl,Vic Ash - Tongue & Groove Cladding 88x26mm (68.5mm cover) - Profile: Queenscliff - Set length fee included,1.18,41.66,1.82,4.59,5.53,Vic Ash
vastgc8832qsl,Vic Ash - Tongue & Groove Cladding 88x30mm (68.5mm cover) - Profile: Queenscliff - Set length fee included,1.45,41.66,1.82,4.59,5.53,Vic Ash
