<?xml version="1.0" encoding="UTF-8"?>
<svg width="58px" height="14px" viewBox="0 0 58 14" version="1.1" xmlns="http://www.w3.org/2000/svg" xmlns:xlink="http://www.w3.org/1999/xlink">
    <!-- Generator: Sketch 51.2 (57519) - http://www.bohemiancoding.com/sketch -->
    <title>cladding-queenscliff-88x19</title>
    <desc>Created with Sketch.</desc>
    <defs></defs>
    <g id="**-UPDATED-WORKSPACES" stroke="none" stroke-width="1" fill="none" fill-rule="evenodd">
        <g id="Group" transform="translate(-92.000000, -213.000000)" fill="#CAB9AC" stroke="#7E6B5C">
            <g id="TOOLBAR-CLADDING">
                <g id="02" transform="translate(93.000000, 214.000000)">
                    <g id="cladding-queenscliff-88x19">
                        <path d="M55.8857778,2.65577778 L55.894,0.234666667 C55.892,0.230444444 55.888,0.227555556 55.8871111,0.222666667 C55.8644444,0.0951111111 55.7542222,0.00244444444 55.6244444,0.00244444444 L14.5468889,0.00244444444 C14.5446667,0.00244444444 14.5433333,0.000444444444 14.5413333,0 C14.5391111,0.000444444444 14.5377778,0.00244444444 14.5357778,0.00244444444 C14.4166667,0.00244444444 14.3171111,0.082 14.2837778,0.193555556 C14.2875556,0.202888889 14.2922222,0.212444444 14.2902222,0.223111111 L14.3348889,3.75644444 C14.3302222,3.78311111 14.3071111,3.80244444 14.28,3.80244444 L12.0688889,3.80244444 L12.0688889,4.058 C12.0688889,4.08755556 12.0457778,4.112 12.016,4.11333333 L8.20222222,4.31088889 L8.20222222,4.45777778 C8.20222222,4.48733333 8.17911111,4.51177778 8.14977778,4.51333333 L0.860666667,4.89111111 C0.859777778,4.89133333 0.858666667,4.89133333 0.858,4.89133333 C0.855555556,4.89133333 0.854222222,4.88933333 0.852,4.88888889 C0.849333333,4.88955556 0.847777778,4.89222222 0.844666667,4.89244444 C0.372444444,4.91711111 0.00244444444,5.30711111 0.00222222222,5.78 C0.00222222222,5.78222222 0.000222222222,5.78355556 0,5.78555556 C0.000222222222,5.78777778 0.00222222222,5.78911111 0.00222222222,5.79111111 L0.00222222222,6.72466667 C0.00222222222,6.72666667 0.000222222222,6.728 0,6.73 C0.000222222222,6.73222222 0.00222222222,6.73355556 0.00222222222,6.73555556 C0.00222222222,7.21688889 0.379111111,7.60711111 0.86,7.624 C0.860444444,7.624 0.860888889,7.62466667 0.861333333,7.62466667 L6.10422222,7.80244444 C6.13422222,7.80355556 6.158,7.828 6.158,7.858 L6.158,11.8688889 L48.98,11.8688889 L48.98,8.90222222 C48.98,8.90022222 48.9822222,8.89888889 48.9824444,8.89666667 C48.9822222,8.89466667 48.98,8.89333333 48.98,8.89133333 C48.98,8.41 48.6033333,8.01977778 48.1222222,8.00288889 C48.1217778,8.00288889 48.1215556,8.00244444 48.1211111,8.00244444 L42.9002222,7.82466667 C42.8931111,7.82444444 42.8882222,7.81911111 42.8817778,7.81622222 C42.8751111,7.81333333 42.8675556,7.81266667 42.8626667,7.80755556 C42.8575556,7.80222222 42.8571111,7.79466667 42.8542222,7.78777778 C42.852,7.78133333 42.8466667,7.77622222 42.8466667,7.76911111 L42.8466667,4.43577778 C42.8466667,4.40622222 42.8697778,4.38177778 42.8993333,4.38022222 L55.0448889,3.73622222 C55.0464444,3.736 55.0473333,3.73444444 55.0486667,3.73444444 C55.3028889,3.72111111 55.5393333,3.59933333 55.6977778,3.40022222 C55.8562222,3.20111111 55.9217778,2.94311111 55.8777778,2.69266667 C55.8753333,2.67911111 55.8795556,2.66666667 55.8857778,2.65577778" id="Fill-1"></path>
                    </g>
                </g>
            </g>
        </g>
    </g>
</svg>