<?xml version="1.0" encoding="UTF-8"?>
<svg width="58px" height="22px" viewBox="0 0 58 22" version="1.1" xmlns="http://www.w3.org/2000/svg" xmlns:xlink="http://www.w3.org/1999/xlink">
    <!-- Generator: Sketch 51.2 (57519) - http://www.bohemiancoding.com/sketch -->
    <title>cladding-queenscliff-88x32</title>
    <desc>Created with Sketch.</desc>
    <defs></defs>
    <g id="**-UPDATED-WORKSPACES" stroke="none" stroke-width="1" fill="none" fill-rule="evenodd">
        <g id="Group" transform="translate(-92.000000, -324.000000)" fill="#CAB9AC" stroke="#7E6B5C">
            <g id="TOOLBAR-CLADDING">
                <g id="08" transform="translate(93.000000, 324.000000)">
                    <g id="cladding-queenscliff-88x32">
                        <path d="M55.8857778,11.7866667 L55.894,0.921111111 C55.892,0.916888889 55.888,0.914 55.8871111,0.909333333 C55.8644444,0.781555556 55.7542222,0.688888889 55.6244444,0.688888889 L14.5468889,0.688888889 C14.5446667,0.688888889 14.5433333,0.686888889 14.5413333,0.686666667 C14.5391111,0.686888889 14.5377778,0.688888889 14.5357778,0.688888889 C14.4166667,0.688888889 14.3171111,0.768444444 14.2837778,0.88 C14.2875556,0.889555556 14.2922222,0.898888889 14.2902222,0.909777778 L14.3348889,12.8873333 C14.3302222,12.914 14.3071111,12.9333333 14.28,12.9333333 L12.0688889,12.9333333 L12.0688889,13.1888889 C12.0688889,13.2184444 12.0457778,13.2428889 12.016,13.2444444 L8.20222222,13.4417778 L8.20222222,13.5886667 C8.20222222,13.6182222 8.17911111,13.6428889 8.14977778,13.6442222 L0.860666667,14.0222222 L0.858,14.0222222 C0.855555556,14.0222222 0.854222222,14.0202222 0.852,14.02 C0.849333333,14.0204444 0.847777778,14.0231111 0.844666667,14.0233333 C0.372444444,14.0482222 0.00244444444,14.438 0.00222222222,14.9108889 C0.00222222222,14.9128889 0.000222222222,14.9142222 0,14.9164444 C0.000222222222,14.9186667 0.00222222222,14.92 0.00222222222,14.922 L0.00222222222,15.8555556 C0.00222222222,15.8575556 0.000222222222,15.8588889 0,15.8611111 C0.000222222222,15.8631111 0.00222222222,15.8644444 0.00222222222,15.8664444 C0.00222222222,16.3477778 0.379111111,16.738 0.86,16.7548889 C0.860444444,16.7548889 0.860888889,16.7553333 0.861333333,16.7553333 L6.10422222,16.9333333 C6.13422222,16.9344444 6.158,16.9588889 6.158,16.9888889 L6.158,21 L48.98,21 L48.98,18.0331111 C48.98,18.0311111 48.9822222,18.0297778 48.9824444,18.0277778 C48.9822222,18.0255556 48.98,18.0242222 48.98,18.0222222 C48.98,17.5408889 48.6033333,17.1506667 48.1222222,17.1337778 C48.1217778,17.1337778 48.1215556,17.1333333 48.1211111,17.1333333 L42.9002222,16.9555556 C42.8931111,16.9553333 42.8882222,16.9497778 42.8817778,16.9471111 C42.8751111,16.9442222 42.8675556,16.9435556 42.8626667,16.9384444 C42.8575556,16.9331111 42.8571111,16.9253333 42.8542222,16.9186667 C42.852,16.9122222 42.8466667,16.9073333 42.8466667,16.9 L42.8466667,13.5666667 C42.8466667,13.5371111 42.8697778,13.5128889 42.8993333,13.5113333 L55.0448889,12.8671111 C55.0464444,12.8668889 55.0473333,12.8653333 55.0486667,12.8653333 C55.3028889,12.852 55.5393333,12.7302222 55.6977778,12.5313333 C55.8562222,12.332 55.9217778,12.074 55.8777778,11.8235556 C55.8753333,11.81 55.8795556,11.7975556 55.8857778,11.7866667" id="Fill-1"></path>
                    </g>
                </g>
            </g>
        </g>
    </g>
</svg>