﻿Item Number,Item Description(Long),Sculptform Price,Net Weight,Default Item Group,Coating,Oil
fb50300bewd,Aluminium - Façade Blade 50mm (wide) X 300mm (deep) - Profile: Block - Exterior Timber-look Wrap - Colour -,$162.42,5.58,Façade Blades,,
fb50200bewd,Aluminium - Façade Blade 50mm (wide) X 200mm (deep) - Profile: Block - Exterior Timber-look Wrap - Colour -,$126.03,5.58,Façade Blades,,
fb50300bpc,Aluminium - Façade Blade 50mm (wide) X 300mm (deep) - Profile: Block - Powdercoated Premium Colour -,$109.99,5.58,Façade Blades,,
fb50300bae,Aluminium - Façade Blade 50mm (wide) X 300mm (deep) - Profile: Block - Anodised 20um (External) - Colour -,$131.64,5.58,Façade Blades,,
fb50200bpc,Aluminium - Façade Blade 50mm (wide) X 200mm (deep) - Profile: Block - Powdercoated Premium Colour -,$87.87,4.79,Façade Blades,,
fb50200bae,Aluminium - Façade Blade 50mm (wide) X 200mm (deep) - Profile: Block - Anodised 20um (External) - Colour -,$113.65,4.79,Façade Blades,,
fb50150bpc,Aluminium - Façade Blade 50mm (wide) X 150mm (deep) - Profile: Block - Powdercoated Premium Colour -,$73.52,3.76,Façade Blades,,
fb50150bae,Aluminium - Façade Blade 50mm (wide) X 150mm (deep) - Profile: Block - Anodised 20um (External) - Colour -,$93.22,3.76,Façade Blades,,
fb50150bewd,Aluminium - Façade Blade 50mm (wide) X 150mm (deep) - Profile: Block - Exterior Timber-look Wrap - Colour -,$110.52,3.76,Façade Blades,,
spgtgc13832qsl,Spotted Gum - Tongue & Groove Cladding 138x32mm (118.5mm cover) - Profile: Queenscliff - Set length fee included,$38.91,3.75,Tongue & Groove,7.16,1.58
bbttgc13832qsl,Blackbutt - Tongue & Groove Cladding 138x32mm (118.5mm cover) - Profile: Queenscliff - Set length fee included,$51.47,3.34,Tongue & Groove,7.16,1.58
spgtgc13826qsl,Spotted Gum - Tongue & Groove Cladding 138x26mm (118.5mm cover) - Profile: Queenscliff - Set length fee included,$38.91,3.05,Tongue & Groove,7.16,1.58
ptktgc13832qsl,Pacific Teak - Tongue & Groove Cladding 138x32mm (118.5mm cover) - Profile: Queenscliff - Set length fee included - (max length we can supply in set length is 3.0m),$39.08,3.03,Tongue & Groove,7.16,1.58
awotgc13832qsl,American White Oak - Tongue & Groove Cladding 138x32mm (118.5mm cover) - Profile: Queenscliff - Set length fee included,$77.14,2.86,Tongue & Groove,7.16,1.58
bbttgc13826qsl,Blackbutt - Tongue & Groove Cladding 138x26mm (118.5mm cover) - Profile: Queenscliff - Set length fee included,$51.47,2.71,Tongue & Groove,7.16,1.58
ashtgc13832qsl,Burnt Ash - Tongue & Groove Cladding 138x32mm (118.5mm cover) - Profile: Queenscliff - Set length fee included - (max length we can supply in set length is 3.0m),$63.92,2.65,Tongue & Groove,7.16,1.58
spgtgi13819fsl,Spotted Gum - Tongue & Groove Interior 138x19mm (128mm cover) - Profile: Flute - Set length fee included,$23.81,2.6,Tongue & Groove,7.16,1.58
vastgc13832qsl,Vic Ash - Tongue & Groove Cladding 138x32mm (118.5mm cover) - Profile: Queenscliff - Set length fee included,$46.49,2.5,Tongue & Groove,7.16,1.58
ptktgc13826qsl,Pacific Teak - Tongue & Groove Cladding 138x26mm (118.5mm cover) - Profile: Queenscliff - Set length fee included - (max length we can supply in set length is 3.0m),$39.08,2.46,Tongue & Groove,7.16,1.58
awotgc13826qsl,American White Oak - Tongue & Groove Cladding 138x26mm (118.5mm cover) - Profile: Queenscliff - Set length fee included,$77.14,2.33,Tongue & Groove,7.16,1.58
bbttgi13819fsl,Blackbutt - Tongue & Groove Interior 138x19mm (128mm cover) - Profile: Flute - Set length fee included,$26.57,2.31,Tongue & Groove,7.16,1.58
spgtgc13819qsl,Spotted Gum - Tongue & Groove Cladding 138x19mm (118.5mm cover) - Profile: Queenscliff - Set length fee included,$20.86,2.23,Tongue & Groove,7.16,1.58
spgtgc13819ssl,Spotted Gum - Expression Cladding 138x19mm (118.5mm cover) - Profile: Sorrento - Set length fee included,$20.86,2.23,Tongue & Groove,7.16,1.58
cob50150pp,Aluminium - Click-on Batten 50mm (wide) X 150mm (deep) - Premium Powdercoat - Colour -,$65.96,2.17,Clickon Battens,,
cob50150sp,Aluminium - Click-on Batten 50mm (wide) X 150mm (deep) - Standard Powdercoat - Colour -,$57.13,2.17,Clickon Battens,,
cob50150ae,Aluminium - Click-on Batten 50mm (wide) X 150mm (deep) - Anodised 20um (External) - Colour -,$71.00,2.17,Clickon Battens,,
cob50150ewd,Aluminium - Click-on Batten 50mm (wide) X 150mm (deep) - Exterior Timber-look Wrap - Colour -,$80.94,2.17,Clickon Battens,,
cob50150v,Aluminium - Click-on Batten 50mm (wide) X 150mm (deep) - Veneer - Species -,$116.46,2.17,Clickon Battens,,
spgtgc8832qsl,Spotted Gum - Tongue & Groove Cladding 88x32mm (68.5mm cover) - Profile: Queenscliff - Set length fee included,$22.28,2.17,Tongue & Groove,4.25,1.21
ashtgc13826qsl,Burnt Ash - Tongue & Groove Cladding 138x26mm (118.5mm cover) - Profile: Queenscliff - Set length fee included - (max length we can supply in set length is 3.0m),$63.92,2.16,Tongue & Groove,7.16,1.58
ptktgi13819fsl,Pacific Teak - Tongue & Groove Interior 138x19mm (128mm cover) - Profile: Flute - Set length fee included - (max length we can supply in set length is 3.0m),$29.27,2.1,Tongue & Groove,7.16,1.58
bjptgc13832qsl,Banjo Pine - Tongue & Groove Cladding 138x32mm (118.5mm cover) - Profile: Queenscliff - Set length fee included,$31.16,2.07,Tongue & Groove,7.16,1.58
vastgc13826qsl,Vic Ash - Tongue & Groove Cladding 138x26mm (118.5mm cover) - Profile: Queenscliff - Set length fee included,$46.49,2.03,Tongue & Groove,7.16,1.58
spgcob3260bsl,Spotted Gum - Click-on Batten 32mm (wide) X 60mm (deep) - Profile: Block - Set Lengths -,$21.81,1.98,Clickon Battens,6.31,1.61
spgcob6032dsl,Spotted Gum - Click-on Batten 60mm (wide) X 32mm (deep) - Profile: Dome - Set Lengths -,$24.38,1.98,Clickon Battens,5.03,1.61
spgcob3260dsl,Spotted Gum - Click-on Batten Batten 32mm (wide) X 60mm (deep) - Profile: Dome - Set Lengths -,$27.34,1.98,Clickon Battens,6.31,1.61
awotgi13819fsl,American White Oak - Tongue & Groove Interior 138x19mm (128mm cover) - Profile: Flute - Set length fee included,$36.44,1.98,Tongue & Groove,7.16,1.58
bbttgc13819ssl,Blackbutt - Expression Cladding 138x19mm (118.5mm cover) - Profile: Sorrento - Set length fee included,$24.26,1.98,Tongue & Groove,7.16,1.58
bbttgc13819qsl,Blackbutt - Tongue & Groove Cladding 138x19mm (118.5mm cover) - Profile: Queenscliff - Set length fee included,$24.26,1.98,Tongue & Groove,7.16,1.58
bbttgc8832qsl,Blackbutt - Tongue & Groove Cladding 88x32mm (68.5mm cover) - Profile: Queenscliff - Set length fee included,$34.70,1.93,Tongue & Groove,4.25,1.21
ptktgc13819ssl,Pacific Teak - Expression Cladding 138x19mm (118.5mm cover) - Profile: Sorrento - Set length fee included - (max length we can supply in set length is 3.0m),$26.71,1.8,Tongue & Groove,7.16,1.58
ptktgc13819qsl,Pacific Teak - Tongue & Groove Cladding 138x19mm (118.5mm cover) - Profile: Queenscliff - Set length fee included - (max length we can supply in set length is 3.0m),$26.71,1.8,Tongue & Groove,7.16,1.58
bbtcob3260bsl,Blackbutt - Click-on Batten 32mm (wide) X 60mm (deep) - Profile: Block - Set Lengths -,$27.16,1.76,Clickon Battens,6.31,1.61
bbtcob6032dsl,Blackbutt - Click-on Batten 60mm (wide) X 32mm (deep) - Profile: Dome - Set Lengths -,$30.55,1.76,Clickon Battens,5.03,1.61
bbtcob3260dsl,Blackbutt - Click-on Batten Batten 32mm (wide) X 60mm (deep) - Profile: Dome - Set Lengths -,$30.55,1.76,Clickon Battens,6.31,1.61
spgtgc8826qsl,Spotted Gum - Tongue & Groove Cladding 88x26mm (68.5mm cover) - Profile: Queenscliff - Set length fee included,$22.28,1.76,Tongue & Groove,4.25,1.21
ptktgc8832qsl,Pacific Teak - Tongue & Groove Cladding 88x32mm (68.5mm cover) - Profile: Queenscliff - Set length fee included - (max length we can supply in set length is 3.0m),$30.34,1.75,Tongue & Groove,4.25,1.21
spgcob4242bsl,Spotted Gum - Click-on Batten 42mm (wide) X 42mm (deep) - Profile: Block - Set Lengths -,$19.26,1.73,Clickon Battens,5.03,1.61
spgtgi9019fsl,Spotted Gum - Tongue & Groove Interior 88x19mm (78mm cover) - Profile: Flute - Set length fee included,$16.74,1.73,Tongue & Groove,4.25,1.21
vastgi13819fsl,Vic Ash - Tongue & Groove Interior 138x19mm (128mm cover) - Profile: Flute - Set length fee included,$28.74,1.73,Tongue & Groove,7.16,1.58
awotgc13819ssl,American White Oak - Expression Cladding 138x19mm (118.5mm cover) - Profile: Sorrento - Set length fee included,$33.23,1.7,Tongue & Groove,7.16,1.58
awotgc13819qsl,American White Oak - Tongue & Groove Cladding 138x19mm (118.5mm cover) - Profile: Queenscliff - Set length fee included,$33.23,1.7,Tongue & Groove,7.16,1.58
bjptgc13826qsl,Banjo Pine - Tongue & Groove Cladding 138x26mm (118.5mm cover) - Profile: Queenscliff - Set length fee included,$31.16,1.68,Tongue & Groove,7.16,1.58
awotgc8832qsl,American White Oak - Tongue & Groove Cladding 88x32mm (68.5mm cover) - Profile: Queenscliff - Set length fee included,$53.17,1.65,Tongue & Groove,4.25,1.21
ptkcob3260bsl,Pacific Teak - Click-on Batten 32mm (wide) X 60mm (deep) - Profile: Block - Set Lengths - (max length we can supply in set length is 3.0m),$26.07,1.6,Clickon Battens,6.31,1.61
ptkcob6032dsl,Pacific Teak - Click-on Batten 60mm (wide) X 32mm (deep) - Profile: Dome - Set Lengths - (max length we can supply in set length is 3.0m),$26.07,1.6,Clickon Battens,5.03,1.61
ptkcob3260dsl,Pacific Teak - Click-on Batten Batten 32mm (wide) X 60mm (deep) - Profile: Dome - Set Lengths - (max length we can supply in set length is 3.0m),$29.30,1.6,Clickon Battens,6.31,1.61
ashtgc13819ssl,Burnt Ash - Expression Cladding 138x19mm (118.5mm cover) - Profile: Sorrento - Set length fee included - (max length we can supply in set length is 3.0m),$42.69,1.58,Tongue & Groove,7.16,1.58
ashtgc13819qsl,Burnt Ash - Tongue & Groove Cladding 138x19mm (118.5mm cover) - Profile: Queenscliff - Set length fee included - (max length we can supply in set length is 3.0m),$42.69,1.58,Tongue & Groove,7.16,1.58
bbttgc8826qsl,Blackbutt - Tongue & Groove Cladding 88x26mm (68.5mm cover) - Profile: Queenscliff - Set length fee included,$34.70,1.57,Tongue & Groove,4.25,1.21
cob25150pp,Aluminium - Click-on Batten 25mm (wide) X 150mm (deep) - Premium Powdercoat - Colour -,$43.39,1.54,Clickon Battens,,
cob25150sp,Aluminium - Click-on Batten 25mm (wide) X 150mm (deep) - Standard Powdercoat - Colour -,$36.34,1.54,Clickon Battens,,
cob25150ae,Aluminium - Click-on Batten 25mm (wide) X 150mm (deep) - Anodised 20um (External) - Colour -,$47.46,1.54,Clickon Battens,,
cob25150ewd,Aluminium - Click-on Batten 25mm (wide) X 150mm (deep) - Exterior Timber-look Wrap - Colour -,$51.24,1.54,Clickon Battens,,
cob25150v,Aluminium - Click-on Batten 25mm (wide) X 150mm (deep) - Veneer - Species -,$82.19,1.54,Clickon Battens,,
bbtcob4242bsl,Blackbutt - Click-on Batten 42mm (wide) X 42mm (deep) - Profile: Block - Set Lengths -,$27.09,1.54,Clickon Battens,5.03,1.61
bbttgi9019fsl,Blackbutt - Tongue & Groove Interior 88x19mm (78mm cover) - Profile: Flute - Set length fee included,$17.15,1.54,Tongue & Groove,4.25,1.21
spgtgc6832ssl,Spotted Gum - Tongue & Groove Cladding 68x32mm (48.5mm cover) - Profile: Sorrento - Set length fee included,$17.87,1.54,Tongue & Groove,4.25,1.21
spgtgc6832qsl,Spotted Gum - Tongue & Groove Cladding 68x32mm (48.5mm cover) - Profile: Queenscliff - Set length fee included,$17.87,1.54,Tongue & Groove,4.25,1.21
ashtgc8832qsl,Burnt Ash - Tongue & Groove Cladding 88x32mm (68.5mm cover) - Profile: Queenscliff - Set length fee included - (max length we can supply in set length is 3.0m),$49.45,1.53,Tongue & Groove,4.25,1.21
awocob3260bsl,American White Oak - Click-on Batten 32mm (wide) X 60mm (deep) - Profile: Block - Set Lengths -,$35.71,1.51,Clickon Battens,6.31,1.61
awocob6032dsl,American White Oak - Click-on Batten 60mm (wide) X 32mm (deep) - Profile: Dome - Set Lengths -,$40.38,1.51,Clickon Battens,5.03,1.61
awocob3260dsl,American White Oak - Click-on Batten Batten 32mm (wide) X 60mm (deep) - Profile: Dome - Set Lengths -,$40.38,1.51,Clickon Battens,6.31,1.61
vastgc13819ssl,Vic Ash - Expression Cladding 138x19mm (118.5mm cover) - Profile: Sorrento - Set length fee included,$26.22,1.49,Tongue & Groove,7.16,1.58
vastgc13819qsl,Vic Ash - Tongue & Groove Cladding 138x19mm (118.5mm cover) - Profile: Queenscliff - Set length fee included,$26.22,1.49,Tongue & Groove,7.16,1.58
vastgc8832qsl,Vic Ash - Tongue & Groove Cladding 88x32mm (68.5mm cover) - Profile: Queenscliff - Set length fee included,$27.47,1.45,Tongue & Groove,4.25,1.21
ptktgc8826qsl,Pacific Teak - Tongue & Groove Cladding 88x26mm (68.5mm cover) - Profile: Queenscliff - Set length fee included - (max length we can supply in set length is 3.0m),$30.34,1.42,Tongue & Groove,4.25,1.21
ptkcob4242bsl,Pacific Teak - Click-on Batten 42mm (wide) X 42mm (deep) - Profile: Block - Set Lengths - (max length we can supply in set length is 3.0m),$25.75,1.4,Clickon Battens,5.03,1.61
ptktgi9019fsl,Pacific Teak - Tongue & Groove Interior 88x19mm (78mm cover) - Profile: Flute - Set length fee included - (max length we can supply in set length is 3.0m),$19.84,1.4,Tongue & Groove,4.25,1.21
bbttgc6832qsl,Blackbutt - Tongue & Groove Cladding 68x32mm (48.5mm cover) - Profile: Queenscliff - Set length fee included,$23.72,1.37,Tongue & Groove,4.25,1.21
bbttgc6832ssl,Blackbutt - Expression Cladding 68x32mm (48.5mm cover) - Profile: Sorrento - Set length fee included,$23.72,1.37,Tongue & Groove,4.25,1.21
cob50100pp,Aluminium - Click-on Batten 50mm (wide) X 100mm (deep) - Premium Powdercoat - Colour -,$45.88,1.35,Clickon Battens,,
cob50100sp,Aluminium - Click-on Batten 50mm (wide) X 100mm (deep) - Standard Powdercoat - Colour -,$39.13,1.35,Clickon Battens,,
cob50100ae,Aluminium - Click-on Batten 50mm (wide) X 100mm (deep) - Anodised 20um (External) - Colour -,$49.72,1.35,Clickon Battens,,
cob50100ewd,Aluminium - Click-on Batten 50mm (wide) X 100mm (deep) - Exterior Timber-look Wrap - Colour -,$58.27,1.35,Clickon Battens,,
cob50100v,Aluminium - Click-on Batten 50mm (wide) X 100mm (deep) - Veneer - Species -,$83.02,1.35,Clickon Battens,,
awotgc8826qsl,American White Oak - Tongue & Groove Cladding 88x26mm (68.5mm cover) - Profile: Queenscliff - Set length fee included,$53.17,1.34,Tongue & Groove,4.25,1.21
awocob4242bsl,American White Oak - Click-on Batten 42mm (wide) X 42mm (deep) - Profile: Block - Set Lengths -,$35.66,1.32,Clickon Battens,5.03,1.61
spgcob4232dsl,Spotted Gum - Click-on Batten 42mm (wide) X 32mm (deep) - Profile: Dome - Set Lengths -,$14.71,1.32,Clickon Battens,5.03,1.61
vascob3260bsl,Vic Ash - Click-on Batten 32mm (wide) X 60mm (deep) - Profile: Block - Set Lengths -,$27.26,1.32,Clickon Battens,6.31,1.61
spgcob3242bsl,Spotted Gum - Click-on Batten Batten 32mm (wide) X 42mm (deep) - Profile: Dome - Set Lengths -,$16.32,1.32,Clickon Battens,6.31,1.61
vascob3260dsl,Vic Ash - Click-on Batten Batten 32mm (wide) X 60mm (deep) - Profile: Dome - Set Lengths -,$30.66,1.32,Clickon Battens,6.31,1.61
awotgi9019fsl,American White Oak - Tongue & Groove Interior 88x19mm (78mm cover) - Profile: Flute - Set length fee included,$30.75,1.32,Tongue & Groove,4.25,1.21
vascob6032dsl,Vic Ash - Click-on Batten Batten 60mm (wide) X 32mm (deep) - Profile: Dome - Set Lengths -,$30.65,1.32,Clickon Battens,5.03,1.61
spgcob6019bsl,Spotted Gum - Click-on Batten 60mm (wide) X 19mm (deep) - Profile: Block - Set Lengths -,$15.45,1.3,Clickon Battens,5.03,1.61
spgcob6019fsl,Spotted Gum - Click-on Batten Batten 60mm (wide) X 19mm (deep) - Profile: Flute - Set Lengths -,$17.08,1.3,Clickon Battens,5.03,1.61
spgtgi6819fsl,Spotted Gum - Tongue & Groove Interior 68x19mm (58mm cover) - Profile: Flute - Set length fee included,$13.09,1.3,Tongue & Groove,4.25,1.21
spgtgi6819dfsl,Spotted Gum - Tongue & Groove Interior 68x19mm (58mm cover) - Profile: Double Flute - Set length fee included,$13.09,1.3,Tongue & Groove,4.25,1.21
spgtgi6819ddsl,Spotted Gum - Tongue & Groove Interior 68x19mm (58mm cover) - Profile: Double Dome - Set length fee included,$13.09,1.3,Tongue & Groove,4.25,1.21
spgtgc8819qsl,Spotted Gum - Tongue & Groove Cladding 88x19mm (68.5mm cover) - Profile: Queenscliff - Set length fee included,$15.32,1.29,Tongue & Groove,4.25,1.21
spgtgc8819ssl,Spotted Gum - Expression Cladding 88x19mm (68.5mm cover) - Profile: Sorrento - Set length fee included,$15.32,1.29,Tongue & Groove,4.25,1.21
ashtgc8826qsl,Burnt Ash - Tongue & Groove Cladding 88x26mm (68.5mm cover) - Profile: Queenscliff - Set length fee included - (max length we can supply in set length is 3.0m),$49.45,1.25,Tongue & Groove,4.25,1.21
spgtgc6826qsl,Spotted Gum - Tongue & Groove Cladding 68x26mm (48.5mm cover) - Profile: Queenscliff - Set length fee included,$17.87,1.25,Tongue & Groove,4.25,1.21
ptktgc6832qsl,Pacific Teak - Tongue & Groove Cladding 68x32mm (48.5mm cover) - Profile: Queenscliff - Set length fee included - (max length we can supply in set length is 3.0m),$20.10,1.24,Tongue & Groove,4.25,1.21
ptktgc6832ssl,Pacific Teak - Expression Cladding 68x32mm (48.5mm cover) - Profile: Sorrento - Set length fee included - (max length we can supply in set length is 3.0m),$20.10,1.24,Tongue & Groove,4.25,1.21
bjptgc13819qsl,Banjo Pine - Tongue & Groove Cladding 138x19mm (118.5mm cover) - Profile: Queenscliff - Set length fee included,$17.48,1.23,Tongue & Groove,7.16,1.58
bjptgc13819ssl,Banjo Pine - Expression Cladding 138x19mm (118.5mm cover) - Profile: Sorrento - Set length fee included,$17.48,1.23,Tongue & Groove,7.16,1.58
bjptgc8832qsl,Banjo Pine - Tongue & Groove Cladding 88x32mm (68.5mm cover) - Profile: Queenscliff - Set length fee included,$21.15,1.19,Tongue & Groove,4.25,1.21
vastgc8826qsl,Vic Ash - Tongue & Groove Cladding 88x26mm (68.5mm cover) - Profile: Queenscliff - Set length fee included,$33.67,1.18,Tongue & Groove,4.25,1.21
bbtcob4232dsl,Blackbutt - Click-on Batten 42mm (wide) X 32mm (deep) - Profile: Dome - Set Lengths -,$19.26,1.17,Clickon Battens,5.03,1.61
bbtcob3242dsl,Blackbutt - Click-on Batten 32mm (wide) X 42mm (deep) - Profile: Dome - Set Lengths -,$22.59,1.17,Clickon Battens,6.31,1.61
awotgc6832qsl,American White Oak - Tongue & Groove Cladding 68x32mm (48.5mm cover) - Profile: Queenscliff - Set length fee included,$32.27,1.17,Tongue & Groove,4.25,1.21
awotgc6832ssl,American White Oak - Tongue & Groove Cladding 68x32mm (48.5mm cover) - Profile: Sorrento - Set length fee included,$32.27,1.17,Tongue & Groove,4.25,1.21
bbtcob6019bsl,Blackbutt - Click-on Batten 60mm (wide) X 19mm (deep) - Profile: Block - Set Lengths -,$18.10,1.16,Clickon Battens,5.03,1.61
vascob4242bsl,Vic Ash - Click-on Batten 42mm (wide) X 42mm (deep) - Profile: Block - Set Lengths -,$28.77,1.16,Clickon Battens,5.03,1.61
bbtcob6019fsl,Blackbutt - Click-on Batten Batten 60mm (wide) X 19mm (deep) - Profile: Flute - Set Lengths -,$20.12,1.16,Clickon Battens,5.03,1.61
bbttgi6819fsl,Blackbutt - Tongue & Groove Interior 68x19mm (58mm cover) - Profile: Flute - Set length fee included,$16.01,1.16,Tongue & Groove,4.25,1.21
vastgi9019fsl,Vic Ash - Tongue & Groove Interior 88x19mm (78mm cover) - Profile: Flute - Set length fee included,$16.73,1.16,Tongue & Groove,4.25,1.21
bbttgi6819dfsl,Blackbutt - Tongue & Groove Interior 68x19mm (58mm cover) - Profile: Double Flute - Set length fee included,$16.01,1.16,Tongue & Groove,4.25,1.21
bbttgi6819ddsl,Blackbutt - Tongue & Groove Interior 68x19mm (58mm cover) - Profile: Double Dome - Set length fee included,$16.01,1.16,Tongue & Groove,4.25,1.21
bbttgc8819ssl,Blackbutt - Expression Cladding 88x19mm (68.5mm cover) - Profile: Sorrento - Set length fee included,$15.69,1.15,Tongue & Groove,4.25,1.21
bbttgc8819qsl,Blackbutt - Tongue & Groove Cladding 88x19mm (68.5mm cover) - Profile: Queenscliff - Set length fee included,$15.69,1.15,Tongue & Groove,4.25,1.21
bbttgc6826qsl,Blackbutt - Tongue & Groove Cladding 68x26mm (48.5mm cover) - Profile: Queenscliff - Set length fee included,$23.72,1.11,Tongue & Groove,4.25,1.21
bjpcob3260bsl,Banjo Pine - Click-on Batten 32mm (wide) X 60mm (deep) - Profile: Block - Set Lengths -,$17.93,1.09,Clickon Battens,6.31,1.61
bjpcob3260dsl,Banjo Pine - Click-on Batten Batten 32mm (wide) X 60mm (deep) - Profile: Dome - Set Lengths -,$19.92,1.09,Clickon Battens,6.31,1.61
ashtgc6832qsl,Burnt Ash - Tongue & Groove Cladding 68x32mm (48.5mm cover) - Profile: Queenscliff - Set length fee included - (max length we can supply in set length is 3.0m),$32.54,1.09,Tongue & Groove,4.25,1.21
ashtgc6832ssl,Burnt Ash - Expression Cladding 68x32mm (48.5mm cover) - Profile: Sorrento - Set length fee included - (max length we can supply in set length is 3.0m),$32.54,1.09,Tongue & Groove,4.25,1.21
ptkcob4232dsl,Pacific Teak - Click-on Batten 42mm (wide) X 32mm (deep) - Profile: Dome - Set Lengths - (max length we can supply in set length is 3.0m),$20.57,1.06,Clickon Battens,5.03,1.61
ptkcob3242dsl,Pacific Teak - Click-on Batten Batten 32mm (wide) X 42mm (deep) - Profile: Dome - Set Lengths - (max length we can supply in set length is 3.0m),$19.47,1.06,Clickon Battens,6.31,1.61
ptkcob6019bsl,Pacific Teak - Click-on Batten 60mm (wide) X 19mm (deep) - Profile: Block - Set Lengths - (max length we can supply in set length is 3.0m),$18.57,1.05,Clickon Battens,5.03,1.61
ptkcob6019fsl,Pacific Teak - Click-on Batten Batten 60mm (wide) X 19mm (deep) - Profile: Flute - Set Lengths - (max length we can supply in set length is 3.0m),$20.67,1.05,Clickon Battens,5.03,1.61
ptktgi6819fsl,Pacific Teak - Tongue & Groove Interior 68x19mm (58mm cover) - Profile: Flute - Set length fee included - (max length we can supply in set length is 3.0m),$15.22,1.05,Tongue & Groove,4.25,1.21
ptktgi6819dfsl,Pacific Teak - Tongue & Groove Interior 68x19mm (58mm cover) - Profile: Double Flute - Set length fee included - (max length we can supply in set length is 3.0m),$15.22,1.05,Tongue & Groove,4.25,1.21
ptktgi6819ddsl,Pacific Teak - Tongue & Groove Interior 68x19mm (58mm cover) - Profile: Double Dome - Set length fee included - (max length we can supply in set length is 3.0m),$15.22,1.05,Tongue & Groove,4.25,1.21
ptktgc8819ssl,Pacific Teak - Expression Cladding 88x19mm (68.5mm cover) - Profile: Sorrento - Set length fee included - (max length we can supply in set length is 3.0m),$18.14,1.04,Tongue & Groove,4.25,1.21
ptktgc8819qsl,Pacific Teak - Tongue & Groove Cladding 88x19mm (68.5mm cover) - Profile: Queenscliff - Set length fee included - (max length we can supply in set length is 3.0m),$18.14,1.04,Tongue & Groove,4.25,1.21
vastgc6832qsl,Vic Ash - Tongue & Groove Cladding 68x32mm (48.5mm cover) - Profile: Queenscliff - Set length fee included,$23.83,1.02,Tongue & Groove,4.25,1.21
vastgc6832ssl,Vic Ash - Expression Cladding 68x32mm (48.5mm cover) - Profile: Sorrento - Set length fee included,$23.83,1.02,Tongue & Groove,4.25,1.21
ptktgc6826qsl,Pacific Teak - Tongue & Groove Cladding 68x26mm (48.5mm cover) - Profile: Queenscliff - Set length fee included - (max length we can supply in set length is 3.0m),$20.10,1.01,Tongue & Groove,4.25,1.21
cob25100pp,Aluminium - Click-on Batten 25mm (wide) X 100mm (deep) - Premium Powdercoat - Colour -,$30.61,1,Clickon Battens,,
cob25100sp,Aluminium - Click-on Batten 25mm (wide) X 100mm (deep) - Standard Powdercoat - Colour -,$25.92,1,Clickon Battens,,
cob25100ae,Aluminium - Click-on Batten 25mm (wide) X 100mm (deep) - Anodised 20um (External) - Colour -,$33.32,1,Clickon Battens,,
cob25100ewd,Aluminium - Click-on Batten 25mm (wide) X 100mm (deep) - Exterior Timber-look Wrap - Colour -,$36.57,1,Clickon Battens,,
cob25100v,Aluminium - Click-on Batten 25mm (wide) X 100mm (deep) - Veneer - Species -,$58.50,1,Clickon Battens,,
awocob4232dsl,American White Oak - Click-on Batten 42mm (wide) X 32mm (deep) - Profile: Dome - Set Lengths -,$23.77,1,Clickon Battens,5.03,1.61
spgcob3232bsl,Spotted Gum - Click-on Batten 32mm (wide) X 32mm (deep) - Profile: Block - Set Lengths -,$13.38,1,Clickon Battens,5.03,1.61
spgcob3232fsl,Spotted Gum - Click-on Batten 32mm (wide) X 32mm (deep) - Profile: Flute - Set Lengths -,$14.71,1,Clickon Battens,5.03,1.61
awocob3242bsl,American White Oak - Click-on Batten Batten 32mm (wide) X 42mm (deep) - Profile: Dome - Set Lengths -,$29.45,1,Clickon Battens,6.31,1.61
spgcob3232dsl,Spotted Gum - Click-on Batten Batten 32mm (wide) X 32mm (deep) - Profile: Dome - Set Lengths -,$14.71,1,Clickon Battens,5.03,1.61
awocob6019bsl,American White Oak - Click-on Batten 60mm (wide) X 19mm (deep) - Profile: Block - Set Lengths -,$22.07,0.99,Clickon Battens,5.03,1.61
awocob6019fsl,American White Oak - Click-on Batten 60mm (wide) X 19mm (deep) - Profile: Flute - Set Lengths -,$23.05,0.99,Clickon Battens,5.03,1.61
awotgi6819fsl,American White Oak - Tongue & Groove Interior 68x19mm (58mm cover) - Profile: Flute - Set length fee included,$18.82,0.99,Tongue & Groove,4.25,1.21
awotgi6819dfsl,American White Oak - Tongue & Groove Interior 68x19mm (58mm cover) - Profile: Double Flute - Set length fee included,$18.82,0.99,Tongue & Groove,4.25,1.21
awotgi6819ddsl,American White Oak - Tongue & Groove Interior 68x19mm (58mm cover) - Profile: Double Dome - Set length fee included,$18.82,0.99,Tongue & Groove,4.25,1.21
awotgc8819ssl,American White Oak - Expression Cladding 88x19mm (68.5mm cover) - Profile: Sorrento - Set length fee included,$25.77,0.98,Tongue & Groove,4.25,1.21
awotgc8819qsl,American White Oak - Tongue & Groove Cladding 88x19mm (68.5mm cover) - Profile: Queenscliff - Set length fee included,$28.06,0.98,Tongue & Groove,4.25,1.21
spgcob2242bsl,Spotted Gum - Click-on Batten 22mm (wide) X 42mm (deep) - Profile: Block - Set Lengths -,$12.78,0.97,Clickon Battens,6.31,1.61
spgcob2242dsl,Spotted Gum - Click-on Batten Batten 22mm (wide) X 42mm (deep) - Profile: Dome - Set Lengths -,$14.27,0.97,Clickon Battens,6.31,1.61
bjptgc8826qsl,Banjo Pine - Tongue & Groove Cladding 88x26mm (68.5mm cover) - Profile: Queenscliff - Set length fee included,$21.15,0.97,Tongue & Groove,4.25,1.21
cob10025pp,Aluminium - Click-on Batten 100mm (wide) X 25mm (deep) - Premium Powdercoat - Colour -,$30.25,0.96,Clickon Battens,,
cob10025sp,Aluminium - Click-on Batten 100mm (wide) X 25mm (deep) - Standard Powdercoat - Colour -,$25.58,0.96,Clickon Battens,,
cob10025ae,Aluminium - Click-on Batten 100mm (wide) X 25mm (deep) - Anodised 20um (External) - Colour -,$32.91,0.96,Clickon Battens,,
cob10025ewd,Aluminium - Click-on Batten 100mm (wide) X 25mm (deep) - Exterior Timber-look Wrap - Colour -,$39.78,0.96,Clickon Battens,,
cob10025v,Aluminium - Click-on Batten 100mm (wide) X 25mm (deep) - Veneer - Species -,$57.87,0.96,Clickon Battens,,
bjpcob4242bsl,Banjo Pine - Click-on Batten 42mm (wide) X 42mm (deep) - Profile: Block - Set Lengths -,$16.20,0.95,Clickon Battens,5.03,1.61
awotgc6826qsl,American White Oak - Tongue & Groove Cladding 68x26mm (48.5mm cover) - Profile: Queenscliff - Set length fee included,$32.27,0.95,Tongue & Groove,4.25,1.21
ashtgc8819ssl,Burnt Ash - Expression Cladding 88x19mm (68.5mm cover) - Profile: Sorrento - Set length fee included - (max length we can supply in set length is 3.0m),$28.89,0.91,Tongue & Groove,4.25,1.21
ashtgc8819qsl,Burnt Ash - Tongue & Groove Cladding 88x19mm (68.5mm cover) - Profile: Queenscliff - Set length fee included - (max length we can supply in set length is 3.0m),$28.89,0.91,Tongue & Groove,4.25,1.21
spgtgc6819ssl,Spotted Gum - Expression Cladding 68x19mm (48.5mm cover) - Profile: Sorrento - Set length fee included,$12.00,0.91,Tongue & Groove,4.25,1.21
spgtgc6819qsl,Spotted Gum - Tongue & Groove Cladding 68x19mm (48.5mm cover) - Profile: Queenscliff - Set length fee included,$12.00,0.91,Tongue & Groove,4.25,1.21
bbtcob3232bsl,Blackbutt - Click-on Batten 32mm (wide) X 32mm (deep) - Profile: Block - Set Lengths -,$15.88,0.89,Clickon Battens,5.03,1.61
bbtcob3232fsl,Blackbutt - Click-on Batten 32mm (wide) X 32mm (deep) - Profile: Flute - Set Lengths -,$17.55,0.89,Clickon Battens,5.03,1.61
bbtcob3232dsl,Blackbutt - Click-on Batten 32mm (wide) X 32mm (deep) - Profile: Dome - Set Lengths -,$17.55,0.89,Clickon Battens,5.03,1.61
vascob3242dsl,Vic Ash - Click-on Batten 32mm (wide) X 42mm (deep) - Profile: Dome - Set Lengths -,$23.94,0.88,Clickon Battens,6.31,1.61
vascob4232dsl,Vic Ash - Click-on Batten Batten 32mm (wide) X 32mm (deep) - Profile: Dome - Set Lengths -,$21.95,0.88,Clickon Battens,5.03,1.61
ashtgc6826qsl,Burnt Ash - Tongue & Groove Cladding 68x26mm (48.5mm cover) - Profile: Queenscliff - Set length fee included - (max length we can supply in set length is 3.0m),$32.54,0.88,Tongue & Groove,4.25,1.21
spgcob4219bsl,Spotted Gum - Click-on Batten 42mm (wide) X 19mm (deep) - Profile: Block - Set Lengths -,$11.90,0.87,Clickon Battens,5.03,1.61
vascob6019bsl,Vic Ash - Click-on Batten 60mm (wide) X 19mm (deep) - Profile: Block - Set Lengths -,$17.13,0.87,Clickon Battens,5.03,1.61
spgcob3219dsl,Spotted Gum - Click-on Batten Batten 32mm (wide) X 19mm (deep) - Profile: Dome - Set Lengths -,$12.73,0.87,Clickon Battens,5.03,1.61
spgcob3219bsl,Spotted Gum - Click-on Batten Batten 32mm (wide) X 19mm (deep) - Profile: Block - Set Lengths -,$11.68,0.87,Clickon Battens,5.03,1.61
spgcob4219fsl,Spotted Gum - Click-on Batten Batten 42mm (wide) X 19mm (deep) - Profile: Flute - Set Lengths -,$13.00,0.87,Clickon Battens,5.03,1.61
vascob6019fsl,Vic Ash - Click-on Batten Batten 60mm (wide) X 19mm (deep) - Profile: Flute - Set Lengths -,$19.02,0.87,Clickon Battens,5.03,1.61
spgcob3219fsl,Spotted Gum - Click-on Batten Batten 32mm (wide) X 19mm (deep) - Profile: Flute - Set Lengths -,$12.73,0.87,Clickon Battens,5.03,1.61
vastgi6819fsl,Vic Ash - Tongue & Groove Interior 68x19mm (58mm cover) - Profile: Flute - Set length fee included,$14.94,0.87,Tongue & Groove,4.25,1.21
vastgi6819dfsl,Vic Ash - Tongue & Groove Interior 68x19mm (58mm cover) - Profile: Double Flute - Set length fee included,$14.94,0.87,Tongue & Groove,4.25,1.21
vastgi6819ddsl,Vic Ash - Tongue & Groove Interior 68x19mm (58mm cover) - Profile: Double Dome - Set length fee included,$14.94,0.87,Tongue & Groove,4.25,1.21
bbtcob2242bsl,Blackbutt - Click-on Batten 22mm (wide) X 42mm (deep) - Profile: Block - Set Lengths -,$17.35,0.86,Clickon Battens,6.31,1.61
bbtcob2242dsl,Blackbutt - Click-on Batten Batten 22mm (wide) X 42mm (deep) - Profile: Dome - Set Lengths -,$13.00,0.86,Clickon Battens,6.31,1.61
vastgc8819qsl,Vic Ash - Tongue & Groove Cladding 88x19mm (68.5mm cover) - Profile: Queenscliff - Set length fee included,$15.31,0.86,Tongue & Groove,4.25,1.21
vastgc8819ssl,Vic Ash - Expression Cladding 88x19mm (68.5mm cover) - Profile: Sorrento - Set length fee included,$15.31,0.86,Tongue & Groove,4.25,1.21
bjptgc6832ssl,Banjo Pine - Expression Cladding 68x32mm (48.5mm cover) - Profile: Sorrento - Set length fee included,$14.49,0.85,Tongue & Groove,4.25,1.21
bjptgc6832qsl,Banjo Pine - Tongue & Groove Cladding 68x32mm (48.5mm cover) - Profile: Queenscliff - Set length fee included,$14.49,0.85,Tongue & Groove,4.25,1.21
vastgc6826qsl,Vic Ash - Tongue & Groove Cladding 68x26mm (48.5mm cover) - Profile: Queenscliff - Set length fee included,$23.83,0.83,Tongue & Groove,4.25,1.21
ptkcob3232bsl,Pacific Teak - Click-on Batten 32mm (wide) X 32mm (deep) - Profile: Block - Set Lengths - (max length we can supply in set length is 3.0m),$15.34,0.81,Clickon Battens,5.03,1.61
ptkcob3232fsl,Pacific Teak - Click-on Batten 32mm (wide) X 32mm (deep) - Profile: Flute - Set Lengths - (max length we can supply in set length is 3.0m),$16.95,0.81,Clickon Battens,5.03,1.61
ptkcob3232dsl,Pacific Teak - Click-on Batten Batten 32mm (wide) X 32mm (deep) - Profile: Dome - Set Lengths - (max length we can supply in set length is 3.0m),$16.95,0.81,Clickon Battens,5.03,1.61
bbttgc6819qsl,Blackbutt - Tongue & Groove Cladding 68x19mm (48.5mm cover) - Profile: Queenscliff - Set length fee included,$14.66,0.81,Tongue & Groove,4.25,1.21
bbttgc6819ssl,Blackbutt - Expression Cladding 68x19mm (48.5mm cover) - Profile: Sorrento - Set length fee included,$14.66,0.81,Tongue & Groove,4.25,1.21
ptkcob2242bsl,Pacific Teak - Click-on Batten 22mm (wide) X 42mm (deep) - Profile: Block - Set Lengths - (max length we can supply in set length is 3.0m),$17.82,0.78,Clickon Battens,6.31,1.61
ptkcob2242dsl,Pacific Teak - Click-on Batten Batten 22mm (wide) X 42mm (deep) - Profile: Dome - Set Lengths - (max length we can supply in set length is 3.0m),$15.33,0.78,Clickon Battens,6.31,1.61
bbtcob4219bsl,Blackbutt - Click-on Batten 42mm (wide) X 19mm (deep) - Profile: Block - Set Lengths -,$13.77,0.77,Clickon Battens,5.03,1.61
bbtcob3219dsl,Blackbutt - Click-on Batten Batten 32mm (wide) X 19mm (deep) - Profile: Dome - Set Lengths -,$12.73,0.77,Clickon Battens,5.03,1.61
bbtcob3219bsl,Blackbutt - Click-on Batten Batten 32mm (wide) X 19mm (deep) - Profile: Block - Set Lengths -,$11.68,0.77,Clickon Battens,5.03,1.61
bbtcob4219fsl,Blackbutt - Click-on Batten Batten 42mm (wide) X 19mm (deep) - Profile: Flute - Set Lengths -,$13.00,0.77,Clickon Battens,5.03,1.61
bbtcob3219fsl,Blackbutt - Click-on Batten Batten 32mm (wide) X 19mm (deep) - Profile: Flute - Set Lengths -,$12.73,0.77,Clickon Battens,5.03,1.61
cob5050pp,Aluminium - Click-on Batten 50mm (wide) X 50mm (deep) - Premium Powdercoat - Colour -,$30.25,0.76,Clickon Battens,,
cob5050sp,Aluminium - Click-on Batten 50mm (wide) X 50mm (deep) - Standard Powdercoat - Colour -,$25.58,0.76,Clickon Battens,,
cob5050ae,Aluminium - Click-on Batten 50mm (wide) X 50mm (deep) - Anodised 20um (External) - Colour -,$32.91,0.76,Clickon Battens,,
cob5050ewd,Aluminium - Click-on Batten 50mm (wide) X 50mm (deep) - Exterior Timber-look Wrap - Colour -,$39.78,0.76,Clickon Battens,,
cob5050v,Aluminium - Click-on Batten 50mm (wide) X 50mm (deep) - Veneer - Species -,$55.53,0.76,Clickon Battens,,
awocob3232bsl,American White Oak - Click-on Batten 32mm (wide) X 32mm (deep) - Profile: Block - Set Lengths -,$19.10,0.76,Clickon Battens,5.03,1.61
awocob3232fsl,American White Oak - Click-on Batten 32mm (wide) X 32mm (deep) - Profile: Flute - Set Lengths -,$23.77,0.76,Clickon Battens,5.03,1.61
awocob3232dsl,American White Oak - Click-on Batten Batten 32mm (wide) X 32mm (deep) - Profile: Dome - Set Lengths -,$23.77,0.76,Clickon Battens,5.03,1.61
awocob2242bsl,American White Oak - Click-on Batten 22mm (wide) X 42mm (deep) - Profile: Block - Set Lengths -,$19.03,0.74,Clickon Battens,6.31,1.61
awocob2242dsl,American White Oak - Click-on Batten Batten 22mm (wide) X 42mm (deep) - Profile: Dome - Set Lengths -,$20.04,0.74,Clickon Battens,6.31,1.61
ptktgc6819ssl,Pacific Teak - Expression Cladding 68x19mm (48.5mm cover) - Profile: Sorrento - Set length fee included - (max length we can supply in set length is 3.0m),$13.94,0.74,Tongue & Groove,4.25,1.21
ptktgc6819qsl,Pacific Teak - Tongue & Groove Cladding 68x19mm (48.5mm cover) - Profile: Queenscliff - Set length fee included - (max length we can supply in set length is 3.0m),$13.94,0.74,Tongue & Groove,4.25,1.21
bjpcob6019bsl,Banjo Pine - Click-on Batten 60mm (wide) X 19mm (deep) - Profile: Block - Set Lengths -,$12.77,0.72,Clickon Battens,5.03,1.61
bjpcob3242dsl,Banjo Pine - Click-on Batten Batten 32mm (wide) X 42mm (deep) - Profile: Dome - Set Lengths -,$13.88,0.72,Clickon Battens,6.31,1.61
bjptgc8819qsl,Banjo Pine - Tongue & Groove Cladding 88x19mm (68.5mm cover) - Profile: Queenscliff - Set length fee included,$11.73,0.71,Tongue & Groove,4.25,1.21
bjptgc8819ssl,Banjo Pine - Expression Cladding 88x19mm (68.5mm cover) - Profile: Sorrento - Set length fee included,$11.73,0.71,Tongue & Groove,4.25,1.21
ptkcob4219bsl,Pacific Teak - Click-on Batten 42mm (wide) X 19mm (deep) - Profile: Block - Set Lengths - (max length we can supply in set length is 3.0m),$13.93,0.7,Clickon Battens,5.03,1.61
ptkcob3219dsl,Pacific Teak - Click-on Batten Batten 32mm (wide) X 19mm (deep) - Profile: Dome - Set Lengths - (max length we can supply in set length is 3.0m),$15.01,0.7,Clickon Battens,5.03,1.61
ptkcob3219bsl,Pacific Teak - Click-on Batten Batten 32mm (wide) X 19mm (deep) - Profile: Block - Set Lengths - (max length we can supply in set length is 3.0m),$13.64,0.7,Clickon Battens,5.03,1.61
ptkcob4219fsl,Pacific Teak - Click-on Batten Batten 42mm (wide) X 19mm (deep) - Profile: Flute - Set Lengths - (max length we can supply in set length is 3.0m),$15.33,0.7,Clickon Battens,5.03,1.61
ptkcob3219fsl,Pacific Teak - Click-on Batten Batten 32mm (wide) X 19mm (deep) - Profile: Flute - Set Lengths - (max length we can supply in set length is 3.0m),$15.01,0.7,Clickon Battens,5.03,1.61
awotgc6819ssl,American White Oak - Expression Cladding 68x19mm (48.5mm cover) - Profile: Sorrento - Set length fee included,$17.21,0.7,Tongue & Groove,4.25,1.21
awotgc6819qsl,American White Oak - Tongue & Groove Cladding 68x19mm (48.5mm cover) - Profile: Queenscliff - Set length fee included,$17.21,0.7,Tongue & Groove,4.25,1.21
bjptgc6826qsl,Banjo Pine - Tongue & Groove Cladding 68x26mm (48.5mm cover) - Profile: Queenscliff - Set length fee included,$14.49,0.69,Tongue & Groove,4.25,1.21
vascob3232bsl,Vic Ash - Click-on Batten 32mm (wide) X 32mm (deep) - Profile: Block - Set Lengths -,$15.91,0.67,Clickon Battens,5.03,1.61
vascob3232fsl,Vic Ash - Click-on Batten 32mm (wide) X 32mm (deep) - Profile: Flute - Set Lengths -,$17.61,0.67,Clickon Battens,5.03,1.61
vascob3232dsl,Vic Ash - Click-on Batten Batten 32mm (wide) X 32mm (deep) - Profile: Dome - Set Lengths -,$17.61,0.67,Clickon Battens,5.03,1.61
awocob4219bsl,American White Oak - Click-on Batten 42mm (wide) X 19mm (deep) - Profile: Block - Set Lengths -,$18.03,0.66,Clickon Battens,5.03,1.61
awocob3219dsl,American White Oak - Click-on Batten Batten 32mm (wide) X 19mm (deep) - Profile: Dome - Set Lengths -,$18.95,0.66,Clickon Battens,5.03,1.61
awocob3219bsl,American White Oak - Click-on Batten Batten 32mm (wide) X 19mm (deep) - Profile: Block - Set Lengths -,$17.08,0.66,Clickon Battens,5.03,1.61
awocob4219fsl,American White Oak - Click-on Batten Batten 42mm (wide) X 19mm (deep) - Profile: Flute - Set Lengths -,$20.04,0.66,Clickon Battens,5.03,1.61
awocob3219fsl,American White Oak - Click-on Batten Batten 32mm (wide) X 19mm (deep) - Profile: Flute - Set Lengths -,$18.95,0.66,Clickon Battens,5.03,1.61
cob5050tpp,Aluminium - Click-on Batten 50mm Round tube - Premium Powdercoat - Colour -,$30.25,0.65,Clickon Battens,,
cob5050tsp,Aluminium - Click-on Batten 50mm Round tube - Standard Powdercoat - Colour -,$25.58,0.65,Clickon Battens,,
cob5050tae,Aluminium - Click-on Batten 50mm Round tube - Anodised 20um (External) - Colour -,$32.91,0.65,Clickon Battens,,
cob5050tewd,Aluminium - Click-on Batten 50mm Round Tube - Exterior Timber-look Wrap - Colour -,$39.78,0.65,Clickon Battens,,
cob5050tv,Aluminium - Click-on Batten 50mm Round tube - Veneer - Species -,$55.53,0.65,Clickon Battens,,
vascob2242bsl,Vic Ash - Click-on Batten 22mm (wide) X 42mm (deep) - Profile: Block - Set Lengths -,$16.08,0.65,Clickon Battens,6.31,1.61
vascob2242dsl,Vic Ash - Click-on Batten Batten 22mm (wide) X 42mm (deep) - Profile: Dome - Set Lengths -,$12.84,0.65,Clickon Battens,6.31,1.61
ashtgc6819ssl,Burnt Ash - Expression Cladding 68x19mm (48.5mm cover) - Profile: Sorrento - Set length fee included - (max length we can supply in set length is 3.0m),$21.92,0.65,Tongue & Groove,4.25,1.21
ashtgc6819qsl,Burnt Ash - Tongue & Groove Cladding 68x19mm (48.5mm cover) - Profile: Queenscliff - Set length fee included - (max length we can supply in set length is 3.0m),$21.92,0.65,Tongue & Groove,4.25,1.21
cob5025pp,Aluminium - Click-on Batten 50mm (wide) X 25mm (deep) - Premium Powdercoat - Colour -,$26.48,0.64,Clickon Battens,,
cob5025sp,Aluminium - Click-on Batten 50mm (wide) X 25mm (deep) - Standard Powdercoat - Colour -,$22.50,0.64,Clickon Battens,,
cob5025ae,Aluminium - Click-on Batten 50mm (wide) X 25mm (deep) - Anodised 20um (External) - Colour -,$28.72,0.64,Clickon Battens,,
cob5025ewd,Aluminium - Click-on Batten 50mm (wide) X 25mm (deep) - Exterior Timber-look Wrap - Colour -,$34.57,0.64,Clickon Battens,,
cob5025v,Aluminium - Click-on Batten 50mm (wide) X 25mm (deep) - Veneer - Species -,$47.95,0.64,Clickon Battens,,
vastgc6819qsl,Vic Ash - Tongue & Groove Cladding 68x19mm (48.5mm cover) - Profile: Queenscliff - Set length fee included,$13.69,0.61,Tongue & Groove,4.25,1.21
vastgc6819ssl,Vic Ash - Expression Cladding 68x19mm (48.5mm cover) - Profile: Sorrento - Set length fee included,$13.69,0.61,Tongue & Groove,4.25,1.21
cob2550pp,Aluminium - Click-on Batten 25mm (wide) X 50mm (deep) - Premium Powdercoat - Colour -,$20.40,0.59,Clickon Battens,,
cob2550sp,Aluminium - Click-on Batten 25mm (wide) X 50mm (deep) - Standard Powdercoat - Colour -,$17.61,0.59,Clickon Battens,,
cob2550ae,Aluminium - Click-on Batten 25mm (wide) X 50mm (deep) - Anodised 20um (External) - Colour -,$21.93,0.59,Clickon Battens,,
cob2550ewd,Aluminium - Click-on Batten 25mm (wide) X 50mm (deep) - Exterior Timber-look Wrap - Colour -,$23.94,0.59,Clickon Battens,,
cob2550v,Aluminium - Click-on Batten 25mm (wide) X 50mm (deep) - Veneer - Species -,$36.89,0.59,Clickon Battens,,
vascob4219bsl,Vic Ash - Click-on Batten 42mm (wide) X 19mm (deep) - Profile: Block - Set Lengths -,$12.60,0.58,Clickon Battens,5.03,1.61
vascob3219dsl,Vic Ash - Click-on Batten Batten 32mm (wide) X 19mm (deep) - Profile: Dome - Set Lengths -,$12.59,0.58,Clickon Battens,5.03,1.61
vascob4219fsl,Vic Ash - Click-on Batten Batten 42mm (wide) X 19mm (deep) - Profile: Flute - Set Lengths -,$12.84,0.58,Clickon Battens,5.03,1.61
vascob3219fsl,Vic Ash - Click-on Batten Batten 32mm (wide) X 19mm (deep) - Profile: Flute - Set Lengths -,$12.59,0.58,Clickon Battens,5.03,1.61
bjpcob3232bsl,Banjo Pine - Click-on Batten 32mm (wide) X 32mm (deep) - Profile: Block - Set Lengths -,$11.76,0.55,Clickon Battens,5.03,1.61
bjpcob3232fsl,Banjo Pine - Click-on Batten Batten 32mm (wide) X 32mm (deep) - Profile: Flute - Set Lengths -,$14.80,0.55,Clickon Battens,5.03,1.61
bjpcob3232dsl,Banjo Pine - Click-on Batten Batten 32mm (wide) X 32mm (deep) - Profile: Dome - Set Lengths -,$14.80,0.55,Clickon Battens,5.03,1.61
bjpcob2242bsl,Banjo Pine - Click-on Batten 22mm (wide) X 42mm (deep) - Profile: Block - Set Lengths -,$9.90,0.53,Clickon Battens,6.31,1.61
bjpcob2242dsl,Banjo Pine - Click-on Batten Batten 22mm (wide) X 42mm (deep) - Profile: Dome - Set Lengths -,$10.69,0.53,Clickon Battens,6.31,1.61
bjptgc6819qsl,Banjo Pine - Tongue & Groove Cladding 68x19mm (48.5mm cover) - Profile: Queenscliff - Set length fee included,$9.33,0.5,Tongue & Groove,4.25,1.21
bjptgc6819ssl,Banjo Pine - Expression Cladding 68x19mm (48.5mm cover) - Profile: Sorrento - Set length fee included,$9.33,0.5,Tongue & Groove,4.25,1.21
bjpcob4219bsl,Banjo Pine - Click-on Batten 42mm (wide) X 19mm (deep) - Profile: Block - Set Lengths -,$9.90,0.48,Clickon Battens,5.03,1.61
vascob3219bsl,Vic Ash - Click-on Batten 32mm (wide) X 19mm (deep) - Profile: Block - Set Lengths -,$11.53,0.44,Clickon Battens,5.03,1.61
bjpcob3219bsl,Banjo Pine - Click-on Batten 32mm (wide) X 19mm (deep) - Profile: Block - Set Lengths -,$9.90,0.36,Clickon Battens,5.03,1.61
