Item Number,Item Description(Long),Sculptform Price,Net Weight,Default Item Group,Coating,Oil
spgcob3260bsl,Spotted Gum - Click-on Batten 32mm (wide) X 60mm (deep) - Profile: Block - Set Lengths -,$21.81,1.98,Clickon Battens,6.31,1.61
spgcob6032dsl,Spotted Gum - Click-on Batten 60mm (wide) X 32mm (deep) - Profile: Dome - Set Lengths -,$24.38,1.98,Clickon Battens,5.03,1.61
spgcob3260dsl,Spotted Gum - Click-on Batten Batten 32mm (wide) X 60mm (deep) - Profile: Dome - Set Lengths -,$27.34,1.98,Clickon Battens,6.31,1.61
bbtcob3260bsl,Blackbutt - Click-on Batten 32mm (wide) X 60mm (deep) - Profile: Block - Set Lengths -,$27.16,1.76,Clickon Battens,6.31,1.61
bbtcob6032dsl,Blackbutt - Click-on Batten 60mm (wide) X 32mm (deep) - Profile: Dome - Set Lengths -,$30.55,1.76,Clickon Battens,5.03,1.61
bbtcob3260dsl,Blackbutt - Click-on Batten Batten 32mm (wide) X 60mm (deep) - Profile: Dome - Set Lengths -,$30.55,1.76,Clickon Battens,6.31,1.61
spgcob4242bsl,Spotted Gum - Click-on Batten 42mm (wide) X 42mm (deep) - Profile: Block - Set Lengths -,$19.26,1.73,Clickon Battens,5.03,1.61
ptkcob3260bsl,Pacific Teak - Click-on Batten 32mm (wide) X 60mm (deep) - Profile: Block - Set Lengths - (max length we can supply in set length is 3.0m),$26.07,1.6,Clickon Battens,6.31,1.61
ptkcob6032dsl,Pacific Teak - Click-on Batten 60mm (wide) X 32mm (deep) - Profile: Dome - Set Lengths - (max length we can supply in set length is 3.0m),$26.07,1.6,Clickon Battens,5.03,1.61
ptkcob3260dsl,Pacific Teak - Click-on Batten Batten 32mm (wide) X 60mm (deep) - Profile: Dome - Set Lengths - (max length we can supply in set length is 3.0m),$29.30,1.6,Clickon Battens,6.31,1.61
bbtcob4242bsl,Blackbutt - Click-on Batten 42mm (wide) X 42mm (deep) - Profile: Block - Set Lengths -,$27.09,1.54,Clickon Battens,5.03,1.61
awocob3260bsl,American White Oak - Click-on Batten 32mm (wide) X 60mm (deep) - Profile: Block - Set Lengths -,$35.71,1.51,Clickon Battens,6.31,1.61
awocob6032dsl,American White Oak - Click-on Batten 60mm (wide) X 32mm (deep) - Profile: Dome - Set Lengths -,$40.38,1.51,Clickon Battens,5.03,1.61
awocob3260dsl,American White Oak - Click-on Batten Batten 32mm (wide) X 60mm (deep) - Profile: Dome - Set Lengths -,$40.38,1.51,Clickon Battens,6.31,1.61
ptkcob4242bsl,Pacific Teak - Click-on Batten 42mm (wide) X 42mm (deep) - Profile: Block - Set Lengths - (max length we can supply in set length is 3.0m),$25.75,1.4,Clickon Battens,5.03,1.61
awocob4242bsl,American White Oak - Click-on Batten 42mm (wide) X 42mm (deep) - Profile: Block - Set Lengths -,$35.66,1.32,Clickon Battens,5.03,1.61
spgcob4232dsl,Spotted Gum - Click-on Batten 42mm (wide) X 32mm (deep) - Profile: Dome - Set Lengths -,$14.71,1.32,Clickon Battens,5.03,1.61
vascob3260bsl,Vic Ash - Click-on Batten 32mm (wide) X 60mm (deep) - Profile: Block - Set Lengths -,$27.26,1.32,Clickon Battens,6.31,1.61
spgcob3242bsl,Spotted Gum - Click-on Batten Batten 32mm (wide) X 42mm (deep) - Profile: Dome - Set Lengths -,$16.32,1.32,Clickon Battens,6.31,1.61
vascob3260dsl,Vic Ash - Click-on Batten Batten 32mm (wide) X 60mm (deep) - Profile: Dome - Set Lengths -,$30.66,1.32,Clickon Battens,6.31,1.61
vascob6032dsl,Vic Ash - Click-on Batten Batten 60mm (wide) X 32mm (deep) - Profile: Dome - Set Lengths -,$30.65,1.32,Clickon Battens,5.03,1.61
spgcob6019bsl,Spotted Gum - Click-on Batten 60mm (wide) X 19mm (deep) - Profile: Block - Set Lengths -,$15.45,1.3,Clickon Battens,5.03,1.61
spgcob6019fsl,Spotted Gum - Click-on Batten Batten 60mm (wide) X 19mm (deep) - Profile: Flute - Set Lengths -,$17.08,1.3,Clickon Battens,5.03,1.61
bbtcob4232dsl,Blackbutt - Click-on Batten 42mm (wide) X 32mm (deep) - Profile: Dome - Set Lengths -,$19.26,1.17,Clickon Battens,5.03,1.61
bbtcob3242dsl,Blackbutt - Click-on Batten 32mm (wide) X 42mm (deep) - Profile: Dome - Set Lengths -,$22.59,1.17,Clickon Battens,6.31,1.61
bbtcob6019bsl,Blackbutt - Click-on Batten 60mm (wide) X 19mm (deep) - Profile: Block - Set Lengths -,$18.10,1.16,Clickon Battens,5.03,1.61
vascob4242bsl,Vic Ash - Click-on Batten 42mm (wide) X 42mm (deep) - Profile: Block - Set Lengths -,$28.77,1.16,Clickon Battens,5.03,1.61
bbtcob6019fsl,Blackbutt - Click-on Batten Batten 60mm (wide) X 19mm (deep) - Profile: Flute - Set Lengths -,$20.12,1.16,Clickon Battens,5.03,1.61
bjpcob3260bsl,Banjo Pine - Click-on Batten 32mm (wide) X 60mm (deep) - Profile: Block - Set Lengths -,$17.93,1.09,Clickon Battens,6.31,1.61
bjpcob3260dsl,Banjo Pine - Click-on Batten Batten 32mm (wide) X 60mm (deep) - Profile: Dome - Set Lengths -,$19.92,1.09,Clickon Battens,6.31,1.61
ptkcob4232dsl,Pacific Teak - Click-on Batten 42mm (wide) X 32mm (deep) - Profile: Dome - Set Lengths - (max length we can supply in set length is 3.0m),$20.57,1.06,Clickon Battens,5.03,1.61
ptkcob3242dsl,Pacific Teak - Click-on Batten Batten 32mm (wide) X 42mm (deep) - Profile: Dome - Set Lengths - (max length we can supply in set length is 3.0m),$19.47,1.06,Clickon Battens,6.31,1.61
ptkcob6019bsl,Pacific Teak - Click-on Batten 60mm (wide) X 19mm (deep) - Profile: Block - Set Lengths - (max length we can supply in set length is 3.0m),$18.57,1.05,Clickon Battens,5.03,1.61
ptkcob6019fsl,Pacific Teak - Click-on Batten Batten 60mm (wide) X 19mm (deep) - Profile: Flute - Set Lengths - (max length we can supply in set length is 3.0m),$20.67,1.05,Clickon Battens,5.03,1.61
awocob4232dsl,American White Oak - Click-on Batten 42mm (wide) X 32mm (deep) - Profile: Dome - Set Lengths -,$23.77,1,Clickon Battens,5.03,1.61
spgcob3232bsl,Spotted Gum - Click-on Batten 32mm (wide) X 32mm (deep) - Profile: Block - Set Lengths -,$13.38,1,Clickon Battens,5.03,1.61
spgcob3232fsl,Spotted Gum - Click-on Batten 32mm (wide) X 32mm (deep) - Profile: Flute - Set Lengths -,$14.71,1,Clickon Battens,5.03,1.61
awocob3242bsl,American White Oak - Click-on Batten Batten 32mm (wide) X 42mm (deep) - Profile: Dome - Set Lengths -,$29.45,1,Clickon Battens,6.31,1.61
spgcob3232dsl,Spotted Gum - Click-on Batten Batten 32mm (wide) X 32mm (deep) - Profile: Dome - Set Lengths -,$14.71,1,Clickon Battens,5.03,1.61
awocob6019bsl,American White Oak - Click-on Batten 60mm (wide) X 19mm (deep) - Profile: Block - Set Lengths -,$22.07,0.99,Clickon Battens,5.03,1.61
awocob6019fsl,American White Oak - Click-on Batten 60mm (wide) X 19mm (deep) - Profile: Flute - Set Lengths -,$23.05,0.99,Clickon Battens,5.03,1.61
spgcob2242bsl,Spotted Gum - Click-on Batten 22mm (wide) X 42mm (deep) - Profile: Block - Set Lengths -,$12.78,0.97,Clickon Battens,6.31,1.61
spgcob2242dsl,Spotted Gum - Click-on Batten Batten 22mm (wide) X 42mm (deep) - Profile: Dome - Set Lengths -,$14.27,0.97,Clickon Battens,6.31,1.61
bjpcob4242bsl,Banjo Pine - Click-on Batten 42mm (wide) X 42mm (deep) - Profile: Block - Set Lengths -,$16.20,0.95,Clickon Battens,5.03,1.61
bbtcob3232bsl,Blackbutt - Click-on Batten 32mm (wide) X 32mm (deep) - Profile: Block - Set Lengths -,$15.88,0.89,Clickon Battens,5.03,1.61
bbtcob3232fsl,Blackbutt - Click-on Batten 32mm (wide) X 32mm (deep) - Profile: Flute - Set Lengths -,$17.55,0.89,Clickon Battens,5.03,1.61
bbtcob3232dsl,Blackbutt - Click-on Batten 32mm (wide) X 32mm (deep) - Profile: Dome - Set Lengths -,$17.55,0.89,Clickon Battens,5.03,1.61
vascob3242dsl,Vic Ash - Click-on Batten 32mm (wide) X 42mm (deep) - Profile: Dome - Set Lengths -,$23.94,0.88,Clickon Battens,6.31,1.61
vascob4232dsl,Vic Ash - Click-on Batten Batten 42mm (wide) X 32mm (deep) - Profile: Dome - Set Lengths -,$21.95,0.88,Clickon Battens,5.03,1.61
spgcob4219bsl,Spotted Gum - Click-on Batten 42mm (wide) X 19mm (deep) - Profile: Block - Set Lengths -,$11.90,0.87,Clickon Battens,5.03,1.61
vascob6019bsl,Vic Ash - Click-on Batten 60mm (wide) X 19mm (deep) - Profile: Block - Set Lengths -,$17.13,0.87,Clickon Battens,5.03,1.61
spgcob3219dsl,Spotted Gum - Click-on Batten Batten 32mm (wide) X 19mm (deep) - Profile: Dome - Set Lengths -,$12.73,0.87,Clickon Battens,5.03,1.61
spgcob3219bsl,Spotted Gum - Click-on Batten Batten 32mm (wide) X 19mm (deep) - Profile: Block - Set Lengths -,$11.68,0.87,Clickon Battens,5.03,1.61
spgcob4219fsl,Spotted Gum - Click-on Batten Batten 42mm (wide) X 19mm (deep) - Profile: Flute - Set Lengths -,$13.00,0.87,Clickon Battens,5.03,1.61
vascob6019fsl,Vic Ash - Click-on Batten Batten 60mm (wide) X 19mm (deep) - Profile: Flute - Set Lengths -,$19.02,0.87,Clickon Battens,5.03,1.61
spgcob3219fsl,Spotted Gum - Click-on Batten Batten 32mm (wide) X 19mm (deep) - Profile: Flute - Set Lengths -,$12.73,0.87,Clickon Battens,5.03,1.61
bbtcob2242bsl,Blackbutt - Click-on Batten 22mm (wide) X 42mm (deep) - Profile: Block - Set Lengths -,$17.35,0.86,Clickon Battens,6.31,1.61
bbtcob2242dsl,Blackbutt - Click-on Batten Batten 22mm (wide) X 42mm (deep) - Profile: Dome - Set Lengths -,$13.00,0.86,Clickon Battens,6.31,1.61
ptkcob3232bsl,Pacific Teak - Click-on Batten 32mm (wide) X 32mm (deep) - Profile: Block - Set Lengths - (max length we can supply in set length is 3.0m),$15.34,0.81,Clickon Battens,5.03,1.61
ptkcob3232fsl,Pacific Teak - Click-on Batten 32mm (wide) X 32mm (deep) - Profile: Flute - Set Lengths - (max length we can supply in set length is 3.0m),$16.95,0.81,Clickon Battens,5.03,1.61
ptkcob3232dsl,Pacific Teak - Click-on Batten Batten 32mm (wide) X 32mm (deep) - Profile: Dome - Set Lengths - (max length we can supply in set length is 3.0m),$16.95,0.81,Clickon Battens,5.03,1.61
ptkcob2242bsl,Pacific Teak - Click-on Batten 22mm (wide) X 42mm (deep) - Profile: Block - Set Lengths - (max length we can supply in set length is 3.0m),$17.82,0.78,Clickon Battens,6.31,1.61
ptkcob2242dsl,Pacific Teak - Click-on Batten Batten 22mm (wide) X 42mm (deep) - Profile: Dome - Set Lengths - (max length we can supply in set length is 3.0m),$15.33,0.78,Clickon Battens,6.31,1.61
bbtcob4219bsl,Blackbutt - Click-on Batten 42mm (wide) X 19mm (deep) - Profile: Block - Set Lengths -,$13.77,0.77,Clickon Battens,5.03,1.61
bbtcob3219dsl,Blackbutt - Click-on Batten Batten 32mm (wide) X 19mm (deep) - Profile: Dome - Set Lengths -,$12.73,0.77,Clickon Battens,5.03,1.61
bbtcob3219bsl,Blackbutt - Click-on Batten Batten 32mm (wide) X 19mm (deep) - Profile: Block - Set Lengths -,$11.68,0.77,Clickon Battens,5.03,1.61
bbtcob4219fsl,Blackbutt - Click-on Batten Batten 42mm (wide) X 19mm (deep) - Profile: Flute - Set Lengths -,$13.00,0.77,Clickon Battens,5.03,1.61
bbtcob3219fsl,Blackbutt - Click-on Batten Batten 32mm (wide) X 19mm (deep) - Profile: Flute - Set Lengths -,$12.73,0.77,Clickon Battens,5.03,1.61
awocob3232bsl,American White Oak - Click-on Batten 32mm (wide) X 32mm (deep) - Profile: Block - Set Lengths -,$19.10,0.76,Clickon Battens,5.03,1.61
awocob3232fsl,American White Oak - Click-on Batten 32mm (wide) X 32mm (deep) - Profile: Flute - Set Lengths -,$23.77,0.76,Clickon Battens,5.03,1.61
awocob3232dsl,American White Oak - Click-on Batten Batten 32mm (wide) X 32mm (deep) - Profile: Dome - Set Lengths -,$23.77,0.76,Clickon Battens,5.03,1.61
awocob2242bsl,American White Oak - Click-on Batten 22mm (wide) X 42mm (deep) - Profile: Block - Set Lengths -,$19.03,0.74,Clickon Battens,6.31,1.61
awocob2242dsl,American White Oak - Click-on Batten Batten 22mm (wide) X 42mm (deep) - Profile: Dome - Set Lengths -,$20.04,0.74,Clickon Battens,6.31,1.61
bjpcob6019bsl,Banjo Pine - Click-on Batten 60mm (wide) X 19mm (deep) - Profile: Block - Set Lengths -,$12.77,0.72,Clickon Battens,5.03,1.61
bjpcob3242dsl,Banjo Pine - Click-on Batten Batten 32mm (wide) X 42mm (deep) - Profile: Dome - Set Lengths -,$13.88,0.72,Clickon Battens,6.31,1.61
ptkcob4219bsl,Pacific Teak - Click-on Batten 42mm (wide) X 19mm (deep) - Profile: Block - Set Lengths - (max length we can supply in set length is 3.0m),$13.93,0.7,Clickon Battens,5.03,1.61
ptkcob3219dsl,Pacific Teak - Click-on Batten Batten 32mm (wide) X 19mm (deep) - Profile: Dome - Set Lengths - (max length we can supply in set length is 3.0m),$15.01,0.7,Clickon Battens,5.03,1.61
ptkcob3219bsl,Pacific Teak - Click-on Batten Batten 32mm (wide) X 19mm (deep) - Profile: Block - Set Lengths - (max length we can supply in set length is 3.0m),$13.64,0.7,Clickon Battens,5.03,1.61
ptkcob4219fsl,Pacific Teak - Click-on Batten Batten 42mm (wide) X 19mm (deep) - Profile: Flute - Set Lengths - (max length we can supply in set length is 3.0m),$15.33,0.7,Clickon Battens,5.03,1.61
ptkcob3219fsl,Pacific Teak - Click-on Batten Batten 32mm (wide) X 19mm (deep) - Profile: Flute - Set Lengths - (max length we can supply in set length is 3.0m),$15.01,0.7,Clickon Battens,5.03,1.61
vascob3232bsl,Vic Ash - Click-on Batten 32mm (wide) X 32mm (deep) - Profile: Block - Set Lengths -,$15.91,0.67,Clickon Battens,5.03,1.61
vascob3232fsl,Vic Ash - Click-on Batten 32mm (wide) X 32mm (deep) - Profile: Flute - Set Lengths -,$17.61,0.67,Clickon Battens,5.03,1.61
vascob3232dsl,Vic Ash - Click-on Batten Batten 32mm (wide) X 32mm (deep) - Profile: Dome - Set Lengths -,$17.61,0.67,Clickon Battens,5.03,1.61
awocob4219bsl,American White Oak - Click-on Batten 42mm (wide) X 19mm (deep) - Profile: Block - Set Lengths -,$18.03,0.66,Clickon Battens,5.03,1.61
awocob3219dsl,American White Oak - Click-on Batten Batten 32mm (wide) X 19mm (deep) - Profile: Dome - Set Lengths -,$18.95,0.66,Clickon Battens,5.03,1.61
awocob3219bsl,American White Oak - Click-on Batten Batten 32mm (wide) X 19mm (deep) - Profile: Block - Set Lengths -,$17.08,0.66,Clickon Battens,5.03,1.61
awocob4219fsl,American White Oak - Click-on Batten Batten 42mm (wide) X 19mm (deep) - Profile: Flute - Set Lengths -,$20.04,0.66,Clickon Battens,5.03,1.61
awocob3219fsl,American White Oak - Click-on Batten Batten 32mm (wide) X 19mm (deep) - Profile: Flute - Set Lengths -,$18.95,0.66,Clickon Battens,5.03,1.61
vascob2242bsl,Vic Ash - Click-on Batten 22mm (wide) X 42mm (deep) - Profile: Block - Set Lengths -,$16.08,0.65,Clickon Battens,6.31,1.61
vascob2242dsl,Vic Ash - Click-on Batten Batten 22mm (wide) X 42mm (deep) - Profile: Dome - Set Lengths -,$12.84,0.65,Clickon Battens,6.31,1.61
vascob4219bsl,Vic Ash - Click-on Batten 42mm (wide) X 19mm (deep) - Profile: Block - Set Lengths -,$12.60,0.58,Clickon Battens,5.03,1.61
vascob3219dsl,Vic Ash - Click-on Batten Batten 32mm (wide) X 19mm (deep) - Profile: Dome - Set Lengths -,$12.59,0.58,Clickon Battens,5.03,1.61
vascob4219fsl,Vic Ash - Click-on Batten Batten 42mm (wide) X 19mm (deep) - Profile: Flute - Set Lengths -,$12.84,0.58,Clickon Battens,5.03,1.61
vascob3219fsl,Vic Ash - Click-on Batten Batten 32mm (wide) X 19mm (deep) - Profile: Flute - Set Lengths -,$12.59,0.58,Clickon Battens,5.03,1.61
bjpcob3232bsl,Banjo Pine - Click-on Batten 32mm (wide) X 32mm (deep) - Profile: Block - Set Lengths -,$11.76,0.55,Clickon Battens,5.03,1.61
bjpcob3232fsl,Banjo Pine - Click-on Batten Batten 32mm (wide) X 32mm (deep) - Profile: Flute - Set Lengths -,$14.80,0.55,Clickon Battens,5.03,1.61
bjpcob3232dsl,Banjo Pine - Click-on Batten Batten 32mm (wide) X 32mm (deep) - Profile: Dome - Set Lengths -,$14.80,0.55,Clickon Battens,5.03,1.61
bjpcob2242bsl,Banjo Pine - Click-on Batten 22mm (wide) X 42mm (deep) - Profile: Block - Set Lengths -,$9.90,0.53,Clickon Battens,6.31,1.61
bjpcob2242dsl,Banjo Pine - Click-on Batten Batten 22mm (wide) X 42mm (deep) - Profile: Dome - Set Lengths -,$10.69,0.53,Clickon Battens,6.31,1.61
bjpcob4219bsl,Banjo Pine - Click-on Batten 42mm (wide) X 19mm (deep) - Profile: Block - Set Lengths -,$9.90,0.48,Clickon Battens,5.03,1.61
vascob3219bsl,Vic Ash - Click-on Batten 32mm (wide) X 19mm (deep) - Profile: Block - Set Lengths -,$11.53,0.44,Clickon Battens,5.03,1.61
bjpcob3219bsl,Banjo Pine - Click-on Batten 32mm (wide) X 19mm (deep) - Profile: Block - Set Lengths -,$9.90,0.36,Clickon Battens,5.03,1.61
