<?xml version="1.0" encoding="UTF-8"?>
<svg width="16px" height="77px" viewBox="0 0 16 77" version="1.1" xmlns="http://www.w3.org/2000/svg" xmlns:xlink="http://www.w3.org/1999/xlink">
    <!-- Generator: Sketch 51.2 (57519) - http://www.bohemiancoding.com/sketch -->
    <title>aluminium-batten-25x150</title>
    <desc>Created with Sketch.</desc>
    <defs></defs>
    <g id="**-UPDATED-WORKSPACES" stroke="none" stroke-width="1" fill="none" fill-rule="evenodd" stroke-linejoin="round">
        <g id="TOOLBAR" transform="translate(-248.000000, -174.000000)" stroke="#606670" stroke-width="2">
            <g id="06" transform="translate(237.000000, 175.000000)">
                <path d="M16.0847258,74.4426706 L16.1933778,74.297918 C16.1943215,74.2898958 16.2141408,73.9989748 16.2528355,73.425155 C16.2478807,73.4190205 16.229949,73.4017964 16.1990404,73.3734829 C16.1615254,73.3543713 16.1392287,73.3193334 16.1325043,73.2807563 C15.5934913,72.7891636 15.5297866,71.9549778 16.0029713,71.3911857 C16.016774,71.3749054 16.0369472,71.3713662 16.0553508,71.3639339 L16.660546,70.6380472 C16.9397851,70.2869601 17.3297998,70.1007989 17.746712,70.0813334 C17.7547341,70.078738 18.7230464,70.0761426 20.6516488,70.0735472 C21.1060761,70.1007989 21.4964447,70.2866061 21.766482,70.6086719 C21.7712009,70.6143346 21.9759999,70.8660886 22.380879,71.3639339 C22.3992826,71.3717201 22.4194558,71.3749054 22.4336124,71.3915396 C22.6686121,71.671843 22.7804494,72.0271771 22.748597,72.3913592 C22.7181603,72.7367836 22.5585445,73.0489397 22.3037255,73.2807563 C22.2970011,73.3193334 22.2750583,73.3543713 22.2371894,73.3734829 C22.2067527,73.3940102 22.2088762,73.6927174 22.2435599,74.2696045 C22.2433239,74.2887161 22.2793053,74.3464048 22.351504,74.4426706 C22.3741546,74.4469176 22.3971591,74.9837198 22.4152088,75 L26,75 L26,0 L12,0 L12,75 L16.0213749,75 C16.0394246,74.9837198 16.0620752,74.4469176 16.0847258,74.4426706 Z" id="aluminium-batten-25x150"></path>
            </g>
        </g>
    </g>
</svg>