<?xml version="1.0" encoding="UTF-8"?>

<svg
    width="50px"
    height="25px"
    viewBox="0 0 21 10.9"
    version="1.1"
    xmlns="http://www.w3.org/2000/svg"
    xmlns:xlink="http://www.w3.org/1999/xlink">

    <title>50x25</title>
    <desc>Created with Sketch.</desc>

    <g stroke="none" stroke-width="1" fill="none" fill-rule="evenodd">
        <g transform="translate(-1285.000000, -310.000000)" fill="#000000">
            <g transform="translate(1149.000000, 0.000000)">
                <g transform="translate(23.000000, 202.000000)">
                    <path d="
                        M125.867875,117.005096 C126.286472,116.576546 126.350741,115.902297 125.997407,
                        115.39782 C125.977643,115.369809 125.954894,115.344215 125.9293,115.321466 L125.666682,
                        114.927467 C125.658293,114.909836 125.64706,114.889077 125.63213,114.867891 C125.422263,
                        114.56873 125.083575,114.385736 124.719862,114.373366 L122.415588,114.372655 L122.362126,
                        114.373224 L122.352173,114.37621 C122.002678,114.399386 121.678351,114.580532 121.477726,
                        114.866753 C121.465071,114.884669 121.455118,114.901873 121.447582,114.916803 L121.166053,
                        115.311086 C121.135341,115.336395 121.108468,115.365401 121.08586,115.39782 C120.731389,
                        115.904004 120.797222,116.581522 121.215534,117.006091 L121.215534,117.146998 C121.215534,
                        117.265012 121.186386,117.382885 121.130791,117.490805 C121.109463,117.513981 121.090694,
                        117.539148 121.074912,117.566021 L120.783003,118.058271 L113.937009,118.058271 C113.933028,
                        118.028269 113.925776,117.998695 113.915681,117.970115 L113.915681,109.003552 C113.925776,
                        108.974973 113.932885,108.94554 113.937009,108.915681 L133.167729,108.915681 L133.167729,
                        118.058271 L126.318891,118.058271 L126.002384,117.555926 C125.987739,117.532465 125.971103,
                        117.510569 125.952334,117.490378 C125.896881,117.382316 125.867733,117.264586 125.867875,
                        117.146713 L125.867875,117.005096 Z M134.081845,108.783874 L134.076727,
                        108.766243 C134.033644,108.347219 133.691544,108.021897 133.271951,108.000995 L113.867337,
                        108 L113.810747,108.001422 L113.793258,108.006256 C113.444901,108.041518 113.1574,
                        108.282382 113.060856,108.614814 C113.021328,108.683348 113,108.761551 113,108.841602 L113,
                        118.132208 C113,118.212259 113.021328,118.290461 113.060856,118.358853 C113.158822,
                        118.696546 113.453575,118.939543 113.809041,118.969117 C113.82781,118.971677 113.851413,
                        118.973952 113.879992,118.973952 L120.82054,118.973952 C121.010786,119.040921 121.228615,
                        118.974094 121.366536,118.826931 C121.391988,118.80475 121.42469,118.771336 121.452843,
                        118.723846 L121.812575,118.116852 C121.834045,118.095239 121.852814,118.071494 121.869023,
                        118.046043 C122.025997,117.799491 122.11529,117.515403 122.128371,117.221361 L122.131215,
                        116.813997 C122.131215,116.80703 122.131073,116.800063 122.130788,116.793096 L122.129082,
                        116.76608 C122.115574,116.615931 122.03922,116.474598 121.917651,116.380186 C121.89675,
                        116.364119 121.874568,116.350185 121.85125,116.338241 C121.772052,116.238995 121.75371,
                        116.103065 121.804186,115.986187 C121.817552,115.971969 121.82978,115.957039 121.841297,
                        115.941256 L122.225342,115.403365 C122.233731,115.391421 122.240983,115.379904 122.247097,
                        115.368956 C122.293734,115.318053 122.359709,115.288336 122.428527,115.288336 L124.680334,
                        115.288336 C124.746877,115.288336 124.810719,115.316063 124.857072,115.363837 L125.235288,
                        115.931303 C125.248369,115.950641 125.263014,115.968983 125.279223,115.986187 C125.329842,
                        116.102922 125.311358,116.238995 125.23216,116.338241 C125.20813,116.350469 125.18538,
                        116.365114 125.16391,116.38175 C125.042767,116.475735 124.966271,116.618917 124.953901,
                        116.771057 L124.952337,116.777171 L124.952905,117.215105 L124.95518,117.222499 C124.968404,
                        117.516114 125.057413,117.799776 125.214671,118.046611 C125.233155,118.075475 125.254767,
                        118.102064 125.279081,118.125952 L125.60284,118.639671 C125.614641,118.677635 125.631135,
                        118.713466 125.652605,118.74688 C125.753842,118.904991 125.926172,118.999403 126.113716,
                        118.999403 C126.164619,118.999403 126.214953,118.99073 126.262727,118.973952 L133.228869,
                        118.973952 C133.238822,118.973952 133.248775,118.973809 133.258728,118.973383 L133.270245,
                        118.972956 C133.691259,118.952624 134.034782,118.625879 134.076869,118.205434 L134.083267,
                        118.182542 L134.083267,108.841602 L134.081845,108.783874 Z"></path>
                </g>
            </g>
        </g>
    </g>
</svg>