<?xml version="1.0" encoding="UTF-8"?>
<svg width="50px" height="50px" viewBox="0 0 21 21" version="1.1" xmlns="http://www.w3.org/2000/svg" xmlns:xlink="http://www.w3.org/1999/xlink">
    <!-- Generator: Sketch 54.1 (76490) - https://sketchapp.com -->
    <title>50x50</title>
    <desc>Created with Sketch.</desc>
    <g id="**-UPDATED-WORKSPACES" stroke="none" stroke-width="1" fill="none" fill-rule="evenodd">
        <g id="021-sculptform-price&amp;spec-workspace-cladding-aluminium" transform="translate(-1172.000000, -245.000000)" fill="#000000">
            <g id="TOOLBAR-CLADDING" transform="translate(1149.000000, 0.000000)">
                <g id="Group-18" transform="translate(23.000000, 202.000000)">
                    <path d="M13.492248,62.7837849 C13.7537842,62.5093859 13.9153911,62.1541238 13.948009,61.7798352 C13.986854,61.3350888 13.8507484,60.9016393 13.5640073,60.5591608 C13.5328721,60.5219995 13.4972889,60.4892975 13.4575544,60.4613522 L13.0616916,59.985093 C13.0450861,59.9544721 13.026405,59.9271214 13.0059446,59.9024463 C12.7034877,59.5415357 12.2586981,59.3144058 11.7836628,59.2775418 C11.7477831,59.2707042 11.7110138,59.2671367 11.6742446,59.2671367 L9.27238068,59.2671367 C9.23620446,59.2671367 9.20002824,59.2707042 9.16385202,59.2775418 C8.68792714,59.3141086 8.24284101,59.5415357 7.94008755,59.9033381 C7.91992375,59.927716 7.90124259,59.9550667 7.88493363,59.9847957 L7.48847783,60.4619468 C7.44933635,60.4895948 7.41375318,60.5222968 7.38202485,60.5597554 C6.83285795,61.2158753 6.86577238,62.1660155 7.45437729,62.7834876 L7.4555634,62.7855687 L7.44310929,62.9594836 L1.03784242,62.9594836 L1.03784242,44.0405164 L19.9621576,44.0405164 L19.9621576,62.9594836 L13.503516,62.9594836 L13.4910618,62.7855687 C13.4913584,62.7849741 13.4919514,62.7843795 13.492248,62.7837849 M20.4810788,43 L0.518921209,43 C0.232773228,43 0,43.233373 0,43.5202582 L0,63.4797418 C0,63.766627 0.232773228,64 0.518921209,64 L7.79478961,64 C7.87485174,64 7.95402429,63.981568 8.02519062,63.9458931 C8.11978255,63.9111102 8.20369952,63.8489765 8.26270827,63.7698972 L8.35403841,63.6483054 C8.36827167,63.6289816 8.38131884,63.6090631 8.39199379,63.5897392 C8.42668738,63.5282001 8.44922338,63.4589315 8.45663654,63.3911492 C8.45930528,63.3658796 8.46019486,63.3373397 8.45871223,63.3087998 L8.50645298,62.6395991 C8.51297656,62.5510065 8.49607456,62.4618194 8.46612539,62.3996857 L8.4527817,62.3657946 C8.41957074,62.2905801 8.36916125,62.2245817 8.30600113,62.1728531 C8.28583733,62.1455024 8.2630048,62.1202327 8.23780006,62.0970441 C8.00739904,61.8862652 7.96440271,61.5455704 8.13105055,61.2904952 C8.16485456,61.2655228 8.19539678,61.2366856 8.22208416,61.2045783 L8.72855126,60.5954302 C8.74663937,60.5734307 8.76324485,60.5499448 8.77777464,60.5252697 C8.90498447,60.3974348 9.07696978,60.3225176 9.2658571,60.3135989 C9.28305563,60.312707 9.30144027,60.310626 9.31982491,60.3076531 L11.6247247,60.3076531 C11.6437023,60.3109233 11.66268,60.312707 11.6813612,60.3135989 C11.8693589,60.3225176 12.0413443,60.3974348 12.1685541,60.5249724 C12.1827873,60.5493502 12.1993928,60.5728362 12.2174809,60.5945384 L12.7242446,61.204281 C12.7509319,61.2366856 12.7814742,61.2655228 12.8152782,61.2901979 C12.8914855,61.4076276 12.9264756,61.5476514 12.914318,61.6888644 C12.9006778,61.8434554 12.8280288,61.9885331 12.7094182,62.0964495 C12.683917,62.1196382 12.6610844,62.1455024 12.6403276,62.1731504 C12.5759814,62.2263654 12.5246823,62.2947422 12.4882095,62.3812537 C12.4505507,62.4615221 12.4339452,62.5507092 12.4401723,62.6393018 L12.48732,63.3040431 C12.4852443,63.3474475 12.4882095,63.3911492 12.4968088,63.4339591 C12.5074838,63.4883632 12.5270545,63.5409836 12.5531488,63.5867663 C12.5650099,63.6081712 12.578057,63.6289816 12.5925868,63.6483054 L12.6830274,63.7693026 C12.7432223,63.8495711 12.8277323,63.912002 12.9232138,63.946785 C12.9937871,63.981568 13.0723666,64 13.1518356,64 L20.4810788,64 C20.7672268,64 21,63.766627 21,63.4797418 L21,43.5202582 C21,43.233373 20.7672268,43 20.4810788,43" id="50x50"></path>
                </g>
            </g>
        </g>
    </g>
</svg>