<?xml version="1.0" encoding="UTF-8"?>
<svg width="42px" height="19px" viewBox="0 0 26 16" version="1.1" xmlns="http://www.w3.org/2000/svg" xmlns:xlink="http://www.w3.org/1999/xlink">
    <!-- Generator: Sketch 51.2 (57519) - http://www.bohemiancoding.com/sketch -->
    <title>timber-batten-42x19</title>
    <desc>Created with Sketch.</desc>
    <defs></defs>
    <g id="Symbols" stroke="none" stroke-width="1" fill="none" fill-rule="evenodd">
        <g id="TOOLBAR-CLICK-ON-BATTENS" transform="translate(-180.000000, -238.000000)" fill="#CAB9AC" stroke="#7E6B5C">
            <g id="TOOLBAR">
                <g id="05" transform="translate(174.000000, 238.000000)">
                    <path d="M6.5,0.5 L6.5,15.5 L14.608786,15.5 L14.6564008,15.3840701 L15.413012,13.5406342 L15.4359789,13.4844599 L15.4396499,13.4660903 C15.4576182,13.4087695 15.4692034,13.3506697 15.4763938,13.2735618 L15.4776523,13.2637422 L15.4802986,13.2876725 L15.480166,13.2046509 L15.5333937,12.3381674 L15.5543521,12.2336945 L15.472343,12.1886176 L15.3811697,12.1242972 L15.0357836,11.8175599 L15.0371755,11.7730484 L14.9778982,11.7170256 C14.5770903,11.3386018 14.5280738,10.7212622 14.8656624,10.2848656 L14.8608245,10.2938465 L14.9056255,10.2308152 L14.9202802,10.2130698 L15.8537148,9.10261398 L15.8751649,9.07712703 L15.8610347,8.99240384 L16.1189293,8.81151752 C16.3131651,8.67528128 16.5419889,8.59612777 16.8707565,8.58694636 L16.9252747,8.58167467 L21.2289725,8.58382114 L21.2058584,8.58290173 L21.229851,8.58344667 C21.593518,8.59157277 21.9361257,8.7546016 22.17047,9.03099265 L22.2159888,9.08461615 L22.2695852,9.13143112 L23.2289129,10.2795602 L23.2150464,10.2616122 L23.2332133,10.2851073 C23.5715779,10.7211744 23.5221964,11.3394987 23.1205126,11.7177781 L23.0614055,11.773518 L23.0620762,11.8157456 L22.8703542,11.968934 L22.6196343,12.1692624 L22.6217363,12.1671292 L22.6127679,12.1748467 L22.5631033,12.2184314 L22.5509259,12.2551524 C22.5346433,12.2881766 22.5250762,12.3254528 22.5236232,12.3587416 L22.5221775,12.3500312 L22.5236873,12.3803458 L22.5700233,13.2380168 L22.5649144,13.2136607 L22.571891,13.2648629 L22.5750928,13.291711 C22.580378,13.3491265 22.5917081,13.4064784 22.6089665,13.4633742 L22.6129603,13.4850129 L22.6397457,13.548225 L23.393383,15.3842126 L23.4408645,15.5 L31.5,15.5 L31.5,0.5 L6.5,0.5 Z" id="timber-batten-32x19"></path>
                </g>
            </g>
        </g>
    </g>
</svg>
