<?xml version="1.0" encoding="utf-8"?>
<!-- Generator: Adobe Illustrator 23.0.1, SVG Export Plug-In . SVG Version: 6.00 Build 0)  -->
<svg
	width="32px"
	height="32px"
	viewBox="0 0 27 26"
	version="1.1"
	xmlns="http://www.w3.org/2000/svg"
	xmlns:xlink="http://www.w3.org/1999/xlink"
	style="enable-background:new 0 0 27 27;" xml:space="preserve">

	<style type="text/css">
		.st0{fill-rule:evenodd;clip-rule:evenodd;fill:#CAB9AC;stroke:#7E6B5C;}
	</style>

	<title>timber-batten-32x32</title>
	<desc>Created with Sketch.</desc>

<g>
	<g id="Artboard" transform="translate(-52.000000, -188.000000)">
		<g id="Group-5" transform="translate(47.000000, 48.000000)">
			<g transform="translate(0.000000, 141.000000)">
				<path class="st0" d="
					M14.4,21.4l0.4,0.4l0,0c0,0,0.1,0.1,0.1,0.1l0,0l0,0.9l0,0c0,0.1,0,0.2-0.1,0.3
					l0,0L14,25H6V12.5v0C6,5.6,11.6,0,18.5,0S31,5.6,31,12.5v0V25h-8l-0.8-1.9l0,
					0c0-0.1-0.1-0.2-0.1-0.3l0,0l0-0.9l0,0 c0-0.1,0-0.1,0.1-0.1l0,0l0.4-0.4l0,
					0c0.5-0.4,0.6-1.1,0.1-1.6l0,0l-1-1.2l0,0c-0.3-0.3-0.6-0.5-1-0.5h0h-4.4h0
					c-0.4,0-0.8,0.2-1,0.5l0,0l-1,1.2l0,0C13.8,20.3,13.9,21,14.4,21.4"/>
			</g>
		</g>
	</g>
</g>
</svg>
