Item Number,Item Description,Unit of Measure,Trade Price,Sculptform Heading,Sculptform price,Natural Accent or Enviropro,Cutek
almccl25w25tae,Aluminium - Concept Click 25mm (wide) X 25mm (deep) Baffle - Anodised 20um (External) - Colour -,L/M,12.63,Anodising,17.31,,
almccl25w25tp,Aluminium - Concept Click 25mm (wide) X 25mm (deep) Baffle - Powdercoated Standard Colour -,L/M,8.17,Duralloy,12.63,,
almccl25w25tpc,Aluminium - Concept Click 25mm (wide) X 25mm (deep) Baffle - Powdercoated Premium Colour -,L/M,9.9,"Alphatec, duratec, precious",14.45,,
almccl25w25tv,Aluminium - Concept Click 25mm (wide) X 25mm (deep) Baffle - Veneer - Species -,L/M,13.28,Veneer,17.99,,
almccl25w42tae,Aluminium - Concept Click 25mm (wide) X 42mm (deep) Baffle - Anodised 20um (External) - Colour -,L/M,12.81,Anodising,17.5,,
almccl25w42tp,Aluminium - Concept Click 25mm (wide) X 42mm (deep) Baffle - Powdercoated Standard Colour -,L/M,9.5,Duralloy,14.03,,
almccl25w42tpc,Aluminium - Concept Click 25mm (wide) X 42mm (deep) Baffle - Powdercoated Premium Colour -,L/M,11.61,"Alphatec, duratec, precious",16.24,,
almccl25w42tv,Aluminium - Concept Click 25mm (wide) X 42mm (deep) Baffle - Veneer - Species -,L/M,17.19,Veneer,22.1,,
almccl25w88tae,Aluminium - Concept Click 25mm (wide) X 88mm (deep) Baffle - Anodised 20um (External) - Colour -,L/M,21.38,Anodising,26.5,,
almccl25w88tp,Aluminium - Concept Click 25mm (wide) X 88mm (deep) Baffle - Powdercoated Standard Colour -,L/M,15.78,Duralloy,20.62,,
almccl25w88tpc,Aluminium - Concept Click 25mm (wide) X 88mm (deep) Baffle - Powdercoated Premium Colour -,L/M,19.33,"Alphatec, duratec, precious",24.35,,
almccl25w88tv,Aluminium - Concept Click 25mm (wide) X 88mm (deep) Baffle - Veneer - Species -,L/M,28.76,Veneer,34.25,,
almccl50w112tae,Aluminium - Concept Click 50mm (wide) X 112mm (deep) Baffle - Anodised 20um (External) - Colour -,L/M,33.78,Anodising,39.52,,
almccl50w112tp,Aluminium - Concept Click 50mm (wide) X 112mm (deep) Baffle - Powdercoated Standard Colour -,L/M,25.77,Duralloy,31.11,,
almccl50w112tpc,Aluminium - Concept Click 50mm (wide) X 112mm (deep) Baffle - Powdercoated Premium Colour -,L/M,30.87,"Alphatec, duratec, precious",36.46,,
almccl50w112tv,Aluminium - Concept Click 50mm (wide) X 112mm (deep) Baffle - Veneer - Species -,L/M,44.35,Veneer,50.62,,
almccl50w162tae,Aluminium - Concept Click 50mm (wide) X 162mm (deep) Baffle - Anodised 20um (External) - Colour -,L/M,49.86,Anodising,56.4,,
almccl50w162tp,Aluminium - Concept Click 50mm (wide) X 162mm (deep) Baffle - Powdercoated Standard Colour -,L/M,39.38,Duralloy,45.4,,
almccl50w162tpc,Aluminium - Concept Click 50mm (wide) X 162mm (deep) Baffle - Powdercoated Premium Colour -,L/M,46.06,"Alphatec, duratec, precious",52.41,,
almccl50w162tv,Aluminium - Concept Click 50mm (wide) X 162mm (deep) Baffle - Veneer - Species -,L/M,63.7,Veneer,70.94,,
almccl50w62tae,Aluminium - Concept Click 50mm (wide) X 62mm (deep) Baffle - Anodised 20um (External) - Colour -,L/M,21.06,Anodising,26.16,,
almccl50w62tp,Aluminium - Concept Click 50mm (wide) X 62mm (deep) Baffle - Powdercoated Standard Colour -,L/M,15.53,Duralloy,20.36,,
almccl50w62tpc,Aluminium - Concept Click 50mm (wide) X 62mm (deep) Baffle - Powdercoated Premium Colour -,L/M,19.06,"Alphatec, duratec, precious",24.06,,
almccl50w62tv,Aluminium - Concept Click 50mm (wide) X 62mm (deep) Baffle - Veneer - Species -,L/M,28.38,Veneer,33.85,,
almccl60w32tfae,Aluminium - Concept Click 60mm (wide) X 32mm (deep) Flute Baffle - Anodised 20um (External) - Colour -,L/M,17.28,Anodising,22.19,,
almccl60w32tfp,Aluminium - Concept Click 60mm (wide) X 32mm (deep) Flute Baffle - Powdercoated Standard Colour -,L/M,12.76,Duralloy,17.45,,
almccl60w32tfpc,Aluminium - Concept Click 60mm (wide) X 32mm (deep) Flute Baffle - Powdercoated Premium Colour -,L/M,15.64,"Alphatec, duratec, precious",20.47,,
almccl60w32tfv,Aluminium - Concept Click 60mm (wide) X 32mm (deep) Flute Baffle - Veneer - Species -,L/M,29.64,Veneer,35.17,,
almccl66w25tae,Aluminium - Concept Click 66mm (wide) X 25mm (deep) Baffle - Anodised 20um (External) - Colour -,L/M,17.28,Anodising,22.19,,
almccl66w25tp,Aluminium - Concept Click 66mm (wide) X 25mm (deep) Baffle - Powdercoated Standard Colour -,L/M,12.76,Duralloy,17.45,,
almccl66w25tpc,Aluminium - Concept Click 66mm (wide) X 25mm (deep) Baffle - Powdercoated Premium Colour -,L/M,15.64,"Alphatec, duratec, precious",20.47,,
almccl66w25tv,Aluminium - Concept Click 66mm (wide) X 25mm (deep) Baffle - Veneer - Species -,L/M,23.22,Veneer,28.43,,
ashccl19w32t,Burnt Ash - Concept Click Batten 19mm (wide) X 32mm (deep) - Profile: Block,L/M,6.8,Block,12.21,5.34,0.99
ashccl19w32td,Burnt Ash - Concept Click Batten 19mm (wide) X 32mm (deep) - Profile: Dome,L/M,7.82,Dome,13.43,5.34,0.99
ashccl19w32tf,Burnt Ash - Concept Click Batten 19mm (wide) X 32mm (deep) - Profile: Flute,L/M,7.82,Flute,13.43,5.34,0.99
ashccl19w32tp,Burnt Ash - Concept Click Batten 19mm (wide) X 32mm (deep) - Profile: Peak,L/M,7.82,Peak,13.43,5.34,0.99
ashccl19w42t,Burnt Ash - Concept Click Batten 19mm (wide) X 42mm (deep) - Profile: Block,L/M,9.05,Block,14.91,5.34,0.99
ashccl19w42td,Burnt Ash - Concept Click Batten 19mm (wide) X 42mm (deep) - Profile: Dome,L/M,10.4,Dome,16.53,5.34,0.99
ashccl19w42tf,Burnt Ash - Concept Click Batten 19mm (wide) X 42mm (deep) - Profile: Flute,L/M,10.4,Flute,16.53,5.34,0.99
ashccl19w42tp,Burnt Ash - Concept Click Batten 19mm (wide) X 42mm (deep) - Profile: Peak,L/M,10.4,Peak,16.53,5.34,0.99
ashccl19w60t,Burnt Ash - Concept Click Batten 19mm (wide) X 60mm (deep) - Profile: Block,L/M,13.57,Block,20.33,5.34,0.99
ashccl19w60td,Burnt Ash - Concept Click Batten 19mm (wide) X 60mm (deep) - Profile: Dome,L/M,15.12,Dome,22.19,5.34,0.99
ashccl19w60tf,Burnt Ash - Concept Click Batten 19mm (wide) X 60mm (deep) - Profile: Flute,L/M,15.12,Flute,22.19,5.34,0.99
ashccl19w60tp,Burnt Ash - Concept Click Batten 19mm (wide) X 60mm (deep) - Profile: Peak,L/M,15.12,Peak,22.19,5.34,0.99
ashccl32w19t,Burnt Ash - Concept Click Batten 32mm (wide) X 19mm (deep) - Profile: Block,L/M,6.8,Block,12.21,4.26,0.99
ashccl32w19tf,Burnt Ash - Concept Click Batten 32mm (wide) X 19mm (deep) - Profile: Flute,L/M,7.82,Flute,13.43,4.26,0.99
ashccl32w32t,Burnt Ash - Concept Click Batten 32mm (wide) X 32mm (deep) - Profile: Block,L/M,10.26,Block,16.36,4.26,0.99
ashccl32w32td,Burnt Ash - Concept Click Batten 32mm (wide) X 32mm (deep) - Profile: Dome,L/M,11.8,Dome,18.21,4.26,0.99
ashccl32w32tf,Burnt Ash - Concept Click Batten 32mm (wide) X 32mm (deep) - Profile: Flute,L/M,11.8,Flute,18.21,4.26,0.99
ashccl32w32tp,Burnt Ash - Concept Click Batten 32mm (wide) X 32mm (deep) - Profile: Peak,L/M,11.8,Peak,18.21,4.26,0.99
ashccl32w42t,Burnt Ash - Concept Click Batten 32mm (wide) X 42mm (deep) - Profile: Block,L/M,13.66,Block,20.44,4.26,0.99
ashccl32w42td,Burnt Ash - Concept Click Batten 32mm (wide) X 42mm (deep) - Profile: Dome,L/M,15.71,Dome,22.9,4.26,0.99
ashccl32w42tf,Burnt Ash - Concept Click Batten 32mm (wide) X 42mm (deep) - Profile: Flute,L/M,15.71,Flute,22.9,4.26,0.99
ashccl32w42tp,Burnt Ash - Concept Click Batten 32mm (wide) X 42mm (deep) - Profile: Peak,L/M,15.71,Peak,22.9,4.26,0.99
ashccl32w60t,Burnt Ash - Concept Click Batten 32mm (wide) X 60mm (deep) - Profile: Block,L/M,20.5,Block,28.65,5.34,0.99
ashccl32w60td,Burnt Ash - Concept Click Batten 32mm (wide) X 60mm (deep) - Profile: Dome,L/M,23.57,Dome,32.33,4.26,0.99
ashccl32w60tf,Burnt Ash - Concept Click Batten 32mm (wide) X 60mm (deep) - Profile: Flute,L/M,23.57,Flute,32.33,4.26,0.99
ashccl32w60tp,Burnt Ash - Concept Click Batten 32mm (wide) X 60mm (deep) - Profile: Peak,L/M,23.57,Peak,32.33,4.26,0.99
ashccl42w19t,Burnt Ash - Concept Click Batten 42mm (wide) X 19mm (deep) - Profile: Block,L/M,9.05,Block,14.91,4.26,0.99
ashccl42w19tf,Burnt Ash - Concept Click Batten 42mm (wide) X 19mm (deep) - Profile: Flute,L/M,10.4,Flute,16.53,4.26,0.99
ashccl42w32t,Burnt Ash - Concept Click Batten 42mm (wide) X 32mm (deep) - Profile: Block,L/M,13.66,Block,20.44,4.26,0.99
ashccl42w32tf,Burnt Ash - Concept Click Batten 42mm (wide) X 32mm (deep) - Profile: Flute,L/M,15.71,Flute,22.9,4.26,0.99
ashccl42w32tp,Burnt Ash - Concept Click Batten 42mm (wide) X 32mm (deep) - Profile: Peak,L/M,15.71,Peak,22.9,4.26,0.99
ashccl42w42t,Burnt Ash - Concept Click Batten 42mm (wide) X 42mm (deep) - Profile: Block,L/M,19.42,Block,27.35,4.26,0.99
ashccl42w42td,Burnt Ash - Concept Click Batten 42mm (wide) X 42mm (deep) - Profile: Dome,L/M,22.33,Dome,30.85,4.26,0.99
ashccl42w42tf,Burnt Ash - Concept Click Batten 42mm (wide) X 42mm (deep) - Profile: Flute,L/M,22.33,Flute,30.85,4.26,0.99
ashccl42w42tp,Burnt Ash - Concept Click Batten 42mm (wide) X 42mm (deep) - Profile: Peak,L/M,22.33,Peak,30.85,4.26,0.99
ashccl42w60t,Burnt Ash - Concept Click Batten 42mm (wide) X 60mm (deep) - Profile: Block,L/M,29.14,Block,39.02,5.34,0.99
ashccl42w60td,Burnt Ash - Concept Click Batten 42mm (wide) X 60mm (deep) - Profile: Dome,L/M,33.52,Dome,44.27,4.26,0.99
ashccl42w60tf,Burnt Ash - Concept Click Batten 42mm (wide) X 60mm (deep) - Profile: Flute,L/M,33.52,Flute,44.27,4.26,0.99
ashccl42w60tp,Burnt Ash - Concept Click Batten 42mm (wide) X 60mm (deep) - Profile: Peak,L/M,33.52,Peak,44.27,4.26,0.99
ashccl60w19t,Burnt Ash - Concept Click Batten 60mm (wide) X 19mm (deep) - Profile: Block,L/M,13.57,Block,20.33,4.26,0.99
ashccl60w19tf,Burnt Ash - Concept Click Batten 60mm (wide) X 19mm (deep) - Profile: Flute,L/M,15.61,Flute,22.78,4.26,0.99
ashccl60w32t,Burnt Ash - Concept Click Batten 60mm (wide) X 32mm (deep) - Profile: Block,L/M,20.5,Block,28.65,4.26,0.99
ashccl60w32tf,Burnt Ash - Concept Click Batten 60mm (wide) X 32mm (deep) - Profile: Flute,L/M,23.57,Flute,32.33,4.26,0.99
ashccl60w42t,Burnt Ash - Concept Click Batten 60mm (wide) X 42mm (deep) - Profile: Block,L/M,29.14,Block,39.02,4.26,0.99
ashccl60w42td,Burnt Ash - Concept Click Batten 60mm (wide) X 42mm (deep) - Profile: Dome,L/M,33.52,Dome,44.27,4.26,0.99
ashccl60w42tf,Burnt Ash - Concept Click Batten 60mm (wide) X 42mm (deep) - Profile: Flute,L/M,33.52,Flute,44.27,4.26,0.99
ashccl60w42tp,Burnt Ash - Concept Click Batten 60mm (wide) X 42mm (deep) - Profile: Peak,L/M,33.52,Peak,44.27,4.26,0.99
awoccl19w32t,American White Oak - Concept Click Batten 19mm (wide) X 32mm (deep) - Profile: Block,L/M,5.25,Block,10.35,5.34,0.99
awoccl19w32td,American White Oak - Concept Click Batten 19mm (wide) X 32mm (deep) - Profile: Dome,L/M,6.03,Dome,11.29,5.34,0.99
awoccl19w32tf,American White Oak - Concept Click Batten 19mm (wide) X 32mm (deep) - Profile: Flute,L/M,6.03,Flute,11.29,5.34,0.99
awoccl19w32tp,American White Oak - Concept Click Batten 19mm (wide) X 32mm (deep) - Profile: Peak,L/M,6.03,Peak,11.29,5.34,0.99
awoccl19w42t,American White Oak - Concept Click Batten 19mm (wide) X 42mm (deep) - Profile: Block,L/M,8.78,Block,14.59,5.34,0.99
awoccl19w42td,American White Oak - Concept Click Batten 19mm (wide) X 42mm (deep) - Profile: Dome,L/M,10.09,Dome,16.16,5.34,0.99
awoccl19w42tf,American White Oak - Concept Click Batten 19mm (wide) X 42mm (deep) - Profile: Flute,L/M,10.09,Flute,16.16,5.34,0.99
awoccl19w42tp,American White Oak - Concept Click Batten 19mm (wide) X 42mm (deep) - Profile: Peak,L/M,10.09,Peak,16.16,5.34,0.99
awoccl19w60t,American White Oak - Concept Click Batten 19mm (wide) X 60mm (deep) - Profile: Block,L/M,10.49,Block,16.64,5.34,0.99
awoccl19w60td,American White Oak - Concept Click Batten 19mm (wide) X 60mm (deep) - Profile: Dome,L/M,12.06,Dome,18.52,5.34,0.99
awoccl19w60tf,American White Oak - Concept Click Batten 19mm (wide) X 60mm (deep) - Profile: Flute,L/M,12.06,Flute,18.52,5.34,0.99
awoccl19w60tp,American White Oak - Concept Click Batten 19mm (wide) X 60mm (deep) - Profile: Peak,L/M,12.06,Peak,18.52,5.34,0.99
awoccl32w19t,American White Oak - Concept Click Batten 32mm (wide) X 19mm (deep) - Profile: Block,L/M,5.25,Block,10.35,4.26,0.99
awoccl32w19tf,American White Oak - Concept Click Batten 32mm (wide) X 19mm (deep) - Profile: Flute,L/M,6.03,Flute,11.29,4.26,0.99
awoccl32w32t,American White Oak - Concept Click Batten 32mm (wide) X 32mm (deep) - Profile: Block,L/M,9.48,Block,15.43,4.26,0.99
awoccl32w32td,American White Oak - Concept Click Batten 32mm (wide) X 32mm (deep) - Profile: Dome,L/M,10.89,Dome,17.12,4.26,0.99
awoccl32w32tf,American White Oak - Concept Click Batten 32mm (wide) X 32mm (deep) - Profile: Flute,L/M,10.89,Flute,17.12,4.26,0.99
awoccl32w32tp,American White Oak - Concept Click Batten 32mm (wide) X 32mm (deep) - Profile: Peak,L/M,10.89,Peak,17.12,4.26,0.99
awoccl32w42t,American White Oak - Concept Click Batten 32mm (wide) X 42mm (deep) - Profile: Block,L/M,13.55,Block,20.31,4.26,0.99
awoccl32w42td,American White Oak - Concept Click Batten 32mm (wide) X 42mm (deep) - Profile: Dome,L/M,15.6,Dome,22.77,4.26,0.99
awoccl32w42tf,American White Oak - Concept Click Batten 32mm (wide) X 42mm (deep) - Profile: Flute,L/M,15.6,Flute,22.77,4.26,0.99
awoccl32w42tp,American White Oak - Concept Click Batten 32mm (wide) X 42mm (deep) - Profile: Peak,L/M,15.6,Peak,22.77,4.26,0.99
awoccl32w60t,American White Oak - Concept Click Batten 32mm (wide) X 60mm (deep) - Profile: Block,L/M,20.33,Block,28.45,5.34,0.99
awoccl32w60td,American White Oak - Concept Click Batten 32mm (wide) X 60mm (deep) - Profile: Dome,L/M,23.38,Dome,32.11,4.26,0.99
awoccl32w60tf,American White Oak - Concept Click Batten 32mm (wide) X 60mm (deep) - Profile: Flute,L/M,23.38,Flute,32.11,4.26,0.99
awoccl32w60tp,American White Oak - Concept Click Batten 32mm (wide) X 60mm (deep) - Profile: Peak,L/M,23.38,Peak,32.11,4.26,0.99
awoccl42w19t,American White Oak - Concept Click Batten 42mm (wide) X 19mm (deep) - Profile: Block,L/M,8.78,Block,14.59,4.26,0.99
awoccl42w19tf,American White Oak - Concept Click Batten 42mm (wide) X 19mm (deep) - Profile: Flute,L/M,10.09,Flute,16.16,4.26,0.99
awoccl42w32t,American White Oak - Concept Click Batten 42mm (wide) X 32mm (deep) - Profile: Block,L/M,13.55,Block,20.31,4.26,0.99
awoccl42w32tf,American White Oak - Concept Click Batten 42mm (wide) X 32mm (deep) - Profile: Flute,L/M,15.6,Flute,22.77,4.26,0.99
awoccl42w32tp,American White Oak - Concept Click Batten 42mm (wide) X 32mm (deep) - Profile: Peak,L/M,15.6,Peak,22.77,4.26,0.99
awoccl42w42t,American White Oak - Concept Click Batten 42mm (wide) X 42mm (deep) - Profile: Block,L/M,20.3,Block,28.41,4.26,0.99
awoccl42w42td,American White Oak - Concept Click Batten 42mm (wide) X 42mm (deep) - Profile: Dome,L/M,23.34,Dome,32.06,4.26,0.99
awoccl42w42tf,American White Oak - Concept Click Batten 42mm (wide) X 42mm (deep) - Profile: Flute,L/M,23.34,Flute,32.06,4.26,0.99
awoccl42w42tp,American White Oak - Concept Click Batten 42mm (wide) X 42mm (deep) - Profile: Peak,L/M,23.34,Peak,32.06,4.26,0.99
awoccl42w60t,American White Oak - Concept Click Batten 42mm (wide) X 60mm (deep) - Profile: Block,L/M,30.43,Block,40.57,5.34,0.99
awoccl42w60td,American White Oak - Concept Click Batten 42mm (wide) X 60mm (deep) - Profile: Dome,L/M,35,Dome,46.05,4.26,0.99
awoccl42w60tf,American White Oak - Concept Click Batten 42mm (wide) X 60mm (deep) - Profile: Flute,L/M,35,Flute,46.05,4.26,0.99
awoccl42w60tp,American White Oak - Concept Click Batten 42mm (wide) X 60mm (deep) - Profile: Peak,L/M,35,Peak,46.05,4.26,0.99
awoccl60w19t,American White Oak - Concept Click Batten 60mm (wide) X 19mm (deep) - Profile: Block,L/M,10.49,Block,16.64,4.26,0.99
awoccl60w19tf,American White Oak - Concept Click Batten 60mm (wide) X 19mm (deep) - Profile: Flute,L/M,12.06,Flute,18.52,4.26,0.99
awoccl60w32t,American White Oak - Concept Click Batten 60mm (wide) X 32mm (deep) - Profile: Block,L/M,20.33,Block,28.45,4.26,0.99
awoccl60w32tf,American White Oak - Concept Click Batten 60mm (wide) X 32mm (deep) - Profile: Flute,L/M,23.38,Flute,32.11,4.26,0.99
awoccl60w42t,American White Oak - Concept Click Batten 60mm (wide) X 42mm (deep) - Profile: Block,L/M,30.43,Block,40.57,4.26,0.99
awoccl60w42td,American White Oak - Concept Click Batten 60mm (wide) X 42mm (deep) - Profile: Dome,L/M,35,Dome,46.05,4.26,0.99
awoccl60w42tf,American White Oak - Concept Click Batten 60mm (wide) X 42mm (deep) - Profile: Flute,L/M,35,Flute,46.05,4.26,0.99
awoccl60w42tp,American White Oak - Concept Click Batten 60mm (wide) X 42mm (deep) - Profile: Peak,L/M,35,Peak,46.05,4.26,0.99
bbtccl19w32t,Blackbutt - Concept Click Batten 19mm (wide) X 32mm (deep) - Profile: Block,L/M,4.41,Block,9.34,5.34,0.99
bbtccl19w32td,Blackbutt - Concept Click Batten 19mm (wide) X 32mm (deep) - Profile: Dome,L/M,5.08,Dome,10.15,5.34,0.99
bbtccl19w32tf,Blackbutt - Concept Click Batten 19mm (wide) X 32mm (deep) - Profile: Flute,L/M,5.08,Flute,10.15,5.34,0.99
bbtccl19w32tp,Blackbutt - Concept Click Batten 19mm (wide) X 32mm (deep) - Profile: Peak,L/M,5.08,Peak,10.15,5.34,0.99
bbtccl19w42t,Blackbutt - Concept Click Batten 19mm (wide) X 42mm (deep) - Profile: Block,L/M,4.75,Block,9.75,5.34,0.99
bbtccl19w42td,Blackbutt - Concept Click Batten 19mm (wide) X 42mm (deep) - Profile: Dome,L/M,5.45,Dome,10.59,5.34,0.99
bbtccl19w42tf,Blackbutt - Concept Click Batten 19mm (wide) X 42mm (deep) - Profile: Flute,L/M,5.45,Flute,10.59,5.34,0.99
bbtccl19w42tp,Blackbutt - Concept Click Batten 19mm (wide) X 42mm (deep) - Profile: Peak,L/M,5.45,Peak,10.59,5.34,0.99
bbtccl19w60t,Blackbutt - Concept Click Batten 19mm (wide) X 60mm (deep) - Profile: Block,L/M,8.82,Block,14.63,5.34,0.99
bbtccl19w60td,Blackbutt - Concept Click Batten 19mm (wide) X 60mm (deep) - Profile: Dome,L/M,10.15,Dome,16.23,5.34,0.99
bbtccl19w60tf,Blackbutt - Concept Click Batten 19mm (wide) X 60mm (deep) - Profile: Flute,L/M,10.15,Flute,16.23,5.34,0.99
bbtccl19w60tp,Blackbutt - Concept Click Batten 19mm (wide) X 60mm (deep) - Profile: Peak,L/M,10.15,Peak,16.23,5.34,0.99
bbtccl32w19t,Blackbutt - Concept Click Batten 32mm (wide) X 19mm (deep) - Profile: Block,L/M,4.41,Block,9.34,4.26,0.99
bbtccl32w19tf,Blackbutt - Concept Click Batten 32mm (wide) X 19mm (deep) - Profile: Flute,L/M,5.08,Flute,10.15,4.26,0.99
bbtccl32w32t,Blackbutt - Concept Click Batten 32mm (wide) X 32mm (deep) - Profile: Block,L/M,7.37,Block,12.89,4.26,0.99
bbtccl32w32td,Blackbutt - Concept Click Batten 32mm (wide) X 32mm (deep) - Profile: Dome,L/M,8.47,Dome,14.21,4.26,0.99
bbtccl32w32tf,Blackbutt - Concept Click Batten 32mm (wide) X 32mm (deep) - Profile: Flute,L/M,8.47,Flute,14.21,4.26,0.99
bbtccl32w32tp,Blackbutt - Concept Click Batten 32mm (wide) X 32mm (deep) - Profile: Peak,L/M,8.47,Peak,14.21,4.26,0.99
bbtccl32w42t,Blackbutt - Concept Click Batten 32mm (wide) X 42mm (deep) - Profile: Block,L/M,9.81,Block,15.82,4.26,0.99
bbtccl32w42td,Blackbutt - Concept Click Batten 32mm (wide) X 42mm (deep) - Profile: Dome,L/M,11.29,Dome,17.6,4.26,0.99
bbtccl32w42tf,Blackbutt - Concept Click Batten 32mm (wide) X 42mm (deep) - Profile: Flute,L/M,11.29,Flute,17.6,4.26,0.99
bbtccl32w42tp,Blackbutt - Concept Click Batten 32mm (wide) X 42mm (deep) - Profile: Peak,L/M,11.29,Peak,17.6,4.26,0.99
bbtccl32w60t,Blackbutt - Concept Click Batten 32mm (wide) X 60mm (deep) - Profile: Block,L/M,14.74,Block,21.74,5.34,0.99
bbtccl32w60td,Blackbutt - Concept Click Batten 32mm (wide) X 60mm (deep) - Profile: Dome,L/M,16.96,Dome,24.4,4.26,0.99
bbtccl32w60tf,Blackbutt - Concept Click Batten 32mm (wide) X 60mm (deep) - Profile: Flute,L/M,16.96,Flute,24.4,4.26,0.99
bbtccl32w60tp,Blackbutt - Concept Click Batten 32mm (wide) X 60mm (deep) - Profile: Peak,L/M,16.96,Peak,24.4,4.26,0.99
bbtccl42w19t,Blackbutt - Concept Click Batten 42mm (wide) X 19mm (deep) - Profile: Block,L/M,4.75,Block,9.75,4.26,0.99
bbtccl42w19tf,Blackbutt - Concept Click Batten 42mm (wide) X 19mm (deep) - Profile: Flute,L/M,5.45,Flute,10.59,4.26,0.99
bbtccl42w32t,Blackbutt - Concept Click Batten 42mm (wide) X 32mm (deep) - Profile: Block,L/M,9.81,Block,15.82,4.26,0.99
bbtccl42w32tf,Blackbutt - Concept Click Batten 42mm (wide) X 32mm (deep) - Profile: Flute,L/M,11.29,Flute,17.6,4.26,0.99
bbtccl42w32tp,Blackbutt - Concept Click Batten 42mm (wide) X 32mm (deep) - Profile: Peak,L/M,11.29,Peak,17.6,4.26,0.99
bbtccl42w42t,Blackbutt - Concept Click Batten 42mm (wide) X 42mm (deep) - Profile: Block,L/M,14.7,Block,21.69,4.26,0.99
bbtccl42w42td,Blackbutt - Concept Click Batten 42mm (wide) X 42mm (deep) - Profile: Dome,L/M,16.9,Dome,24.33,4.26,0.99
bbtccl42w42tf,Blackbutt - Concept Click Batten 42mm (wide) X 42mm (deep) - Profile: Flute,L/M,16.9,Flute,24.33,4.26,0.99
bbtccl42w42tp,Blackbutt - Concept Click Batten 42mm (wide) X 42mm (deep) - Profile: Peak,L/M,16.9,Peak,24.33,4.26,0.99
bbtccl60w19t,Blackbutt - Concept Click Batten 60mm (wide) X 19mm (deep) - Profile: Block,L/M,8.82,Block,14.63,4.26,0.99
bbtccl60w19tf,Blackbutt - Concept Click Batten 60mm (wide) X 19mm (deep) - Profile: Flute,L/M,10.15,Flute,16.23,4.26,0.99
bbtccl60w32t,Blackbutt - Concept Click Batten 60mm (wide) X 32mm (deep) - Profile: Block,L/M,14.74,Block,21.74,4.26,0.99
bbtccl60w32tf,Blackbutt - Concept Click Batten 60mm (wide) X 32mm (deep) - Profile: Flute,L/M,16.96,Flute,24.4,4.26,0.99
bbtccl60w42t,Blackbutt - Concept Click Batten 60mm (wide) X 42mm (deep) - Profile: Block,L/M,22.04,Block,30.5,4.26,0.99
bbtccl60w42td,Blackbutt - Concept Click Batten 60mm (wide) X 42mm (deep) - Profile: Dome,L/M,25.34,Dome,34.46,4.26,0.99
bbtccl60w42tf,Blackbutt - Concept Click Batten 60mm (wide) X 42mm (deep) - Profile: Flute,L/M,25.34,Flute,34.46,4.26,0.99
bbtccl60w42tp,Blackbutt - Concept Click Batten 60mm (wide) X 42mm (deep) - Profile: Peak,L/M,25.34,Peak,34.46,4.26,0.99
bjpccl19w32t,Banjo Pine - Concept Click Batten 19mm (wide) X 32mm (deep) - Profile: Block,L/M,2.66,Block,7.24,5.34,0.99
bjpccl19w32td,Banjo Pine - Concept Click Batten 19mm (wide) X 32mm (deep) - Profile: Dome,L/M,3.05,Dome,7.71,5.34,0.99
bjpccl19w32tf,Banjo Pine - Concept Click Batten 19mm (wide) X 32mm (deep) - Profile: Flute,L/M,3.05,Flute,7.71,5.34,0.99
bjpccl19w32tp,Banjo Pine - Concept Click Batten 19mm (wide) X 32mm (deep) - Profile: Peak,L/M,3.05,Peak,7.71,5.34,0.99
bjpccl19w42t,Banjo Pine - Concept Click Batten 19mm (wide) X 42mm (deep) - Profile: Block,L/M,3.47,Block,8.21,5.34,0.99
bjpccl19w42td,Banjo Pine - Concept Click Batten 19mm (wide) X 42mm (deep) - Profile: Dome,L/M,3.99,Dome,8.84,5.34,0.99
bjpccl19w42tf,Banjo Pine - Concept Click Batten 19mm (wide) X 42mm (deep) - Profile: Flute,L/M,3.99,Flute,8.84,5.34,0.99
bjpccl19w42tp,Banjo Pine - Concept Click Batten 19mm (wide) X 42mm (deep) - Profile: Peak,L/M,3.99,Peak,8.84,5.34,0.99
bjpccl19w60t,Banjo Pine - Concept Click Batten 19mm (wide) X 60mm (deep) - Profile: Block,L/M,5.34,Block,10.46,5.34,0.99
bjpccl19w60td,Banjo Pine - Concept Click Batten 19mm (wide) X 60mm (deep) - Profile: Dome,L/M,6.13,Dome,11.41,5.34,0.99
bjpccl19w60tf,Banjo Pine - Concept Click Batten 19mm (wide) X 60mm (deep) - Profile: Flute,L/M,6.13,Flute,11.41,5.34,0.99
bjpccl19w60tp,Banjo Pine - Concept Click Batten 19mm (wide) X 60mm (deep) - Profile: Peak,L/M,6.13,Peak,11.41,5.34,0.99
bjpccl32w19t,Banjo Pine - Concept Click Batten 32mm (wide) X 19mm (deep) - Profile: Block,L/M,2.66,Block,7.24,4.26,0.99
bjpccl32w19tf,Banjo Pine - Concept Click Batten 32mm (wide) X 19mm (deep) - Profile: Flute,L/M,3.05,Flute,7.71,4.26,0.99
bjpccl32w32t,Banjo Pine - Concept Click Batten 32mm (wide) X 32mm (deep) - Profile: Block,L/M,4.37,Block,9.29,4.26,0.99
bjpccl32w32td,Banjo Pine - Concept Click Batten 32mm (wide) X 32mm (deep) - Profile: Dome,L/M,5.02,Dome,10.07,4.26,0.99
bjpccl32w32tf,Banjo Pine - Concept Click Batten 32mm (wide) X 32mm (deep) - Profile: Flute,L/M,5.02,Flute,10.07,4.26,0.99
bjpccl32w32tp,Banjo Pine - Concept Click Batten 32mm (wide) X 32mm (deep) - Profile: Peak,L/M,5.02,Peak,10.07,4.26,0.99
bjpccl32w42t,Banjo Pine - Concept Click Batten 32mm (wide) X 42mm (deep) - Profile: Block,L/M,5.81,Block,11.02,4.26,0.99
bjpccl32w42td,Banjo Pine - Concept Click Batten 32mm (wide) X 42mm (deep) - Profile: Dome,L/M,6.67,Dome,12.05,4.26,0.99
bjpccl32w42tf,Banjo Pine - Concept Click Batten 32mm (wide) X 42mm (deep) - Profile: Flute,L/M,6.67,Flute,12.05,4.26,0.99
bjpccl32w42tp,Banjo Pine - Concept Click Batten 32mm (wide) X 42mm (deep) - Profile: Peak,L/M,6.67,Peak,12.05,4.26,0.99
bjpccl32w60t,Banjo Pine - Concept Click Batten 32mm (wide) X 60mm (deep) - Profile: Block,L/M,8.71,Block,14.5,5.34,0.99
bjpccl32w60td,Banjo Pine - Concept Click Batten 32mm (wide) X 60mm (deep) - Profile: Dome,L/M,10.02,Dome,16.07,4.26,0.99
bjpccl32w60tf,Banjo Pine - Concept Click Batten 32mm (wide) X 60mm (deep) - Profile: Flute,L/M,10.02,Flute,16.07,4.26,0.99
bjpccl32w60tp,Banjo Pine - Concept Click Batten 32mm (wide) X 60mm (deep) - Profile: Peak,L/M,10.02,Peak,16.07,4.26,0.99
bjpccl42w19t,Banjo Pine - Concept Click Batten 42mm (wide) X 19mm (deep) - Profile: Block,L/M,3.47,Block,8.21,4.26,0.99
bjpccl42w19tf,Banjo Pine - Concept Click Batten 42mm (wide) X 19mm (deep) - Profile: Flute,L/M,3.99,Flute,8.84,4.26,0.99
bjpccl42w32t,Banjo Pine - Concept Click Batten 42mm (wide) X 32mm (deep) - Profile: Block,L/M,5.81,Block,11.02,4.26,0.99
bjpccl42w32tf,Banjo Pine - Concept Click Batten 42mm (wide) X 32mm (deep) - Profile: Flute,L/M,6.67,Flute,12.05,4.26,0.99
bjpccl42w32tp,Banjo Pine - Concept Click Batten 42mm (wide) X 32mm (deep) - Profile: Peak,L/M,6.67,Peak,12.05,4.26,0.99
bjpccl42w42t,Banjo Pine - Concept Click Batten 42mm (wide) X 42mm (deep) - Profile: Block,L/M,7.59,Block,13.16,4.26,0.99
bjpccl42w42td,Banjo Pine - Concept Click Batten 42mm (wide) X 42mm (deep) - Profile: Dome,L/M,8.72,Dome,14.51,4.26,0.99
bjpccl42w42tf,Banjo Pine - Concept Click Batten 42mm (wide) X 42mm (deep) - Profile: Flute,L/M,8.72,Flute,14.51,4.26,0.99
bjpccl42w42tp,Banjo Pine - Concept Click Batten 42mm (wide) X 42mm (deep) - Profile: Peak,L/M,8.72,Peak,14.51,4.26,0.99
bjpccl42w60t,Banjo Pine - Concept Click Batten 42mm (wide) X 60mm (deep) - Profile: Block,L/M,11.39,Block,17.72,5.34,0.99
bjpccl42w60td,Banjo Pine - Concept Click Batten 42mm (wide) X 60mm (deep) - Profile: Dome,L/M,13.1,Dome,19.77,4.26,0.99
bjpccl42w60tf,Banjo Pine - Concept Click Batten 42mm (wide) X 60mm (deep) - Profile: Flute,L/M,13.1,Flute,19.77,4.26,0.99
bjpccl42w60tp,Banjo Pine - Concept Click Batten 42mm (wide) X 60mm (deep) - Profile: Peak,L/M,13.1,Peak,19.77,4.26,0.99
bjpccl60w19t,Banjo Pine - Concept Click Batten 60mm (wide) X 19mm (deep) - Profile: Block,L/M,5.34,Block,10.46,4.26,0.99
bjpccl60w19tf,Banjo Pine - Concept Click Batten 60mm (wide) X 19mm (deep) - Profile: Flute,L/M,6.13,Flute,11.41,4.26,0.99
bjpccl60w32t,Banjo Pine - Concept Click Batten 60mm (wide) X 32mm (deep) - Profile: Block,L/M,8.71,Block,14.5,4.26,0.99
bjpccl60w32tf,Banjo Pine - Concept Click Batten 60mm (wide) X 32mm (deep) - Profile: Flute,L/M,10.02,Flute,16.07,4.26,0.99
bjpccl60w42t,Banjo Pine - Concept Click Batten 60mm (wide) X 42mm (deep) - Profile: Block,L/M,11.39,Block,17.72,4.26,0.99
bjpccl60w42td,Banjo Pine - Concept Click Batten 60mm (wide) X 42mm (deep) - Profile: Dome,L/M,13.1,Dome,19.77,4.26,0.99
bjpccl60w42tf,Banjo Pine - Concept Click Batten 60mm (wide) X 42mm (deep) - Profile: Flute,L/M,13.1,Flute,19.77,4.26,0.99
bjpccl60w42tp,Banjo Pine - Concept Click Batten 60mm (wide) X 42mm (deep) - Profile: Peak,L/M,13.1,Peak,19.77,4.26,0.99
ptkccl19w32t,Pacific Teak - Concept Click Batten 19mm (wide) X 32mm (deep) - Profile: Block,L/M,4.57,Block,9.53,5.34,0.99
ptkccl19w32td,Pacific Teak - Concept Click Batten 19mm (wide) X 32mm (deep) - Profile: Dome,L/M,5.26,Dome,10.36,5.34,0.99
ptkccl19w32tf,Pacific Teak - Concept Click Batten 19mm (wide) X 32mm (deep) - Profile: Flute,L/M,5.26,Flute,10.36,5.34,0.99
ptkccl19w32tp,Pacific Teak - Concept Click Batten 19mm (wide) X 32mm (deep) - Profile: Peak,L/M,5.26,Peak,10.36,5.34,0.99
ptkccl19w42t,Pacific Teak - Concept Click Batten 19mm (wide) X 42mm (deep) - Profile: Block,L/M,6.1,Block,11.37,5.34,0.99
ptkccl19w42td,Pacific Teak - Concept Click Batten 19mm (wide) X 42mm (deep) - Profile: Dome,L/M,7.01,Dome,12.46,5.34,0.99
ptkccl19w42tf,Pacific Teak - Concept Click Batten 19mm (wide) X 42mm (deep) - Profile: Flute,L/M,7.01,Flute,12.46,5.34,0.99
ptkccl19w42tp,Pacific Teak - Concept Click Batten 19mm (wide) X 42mm (deep) - Profile: Peak,L/M,7.01,Peak,12.46,5.34,0.99
ptkccl19w60t,Pacific Teak - Concept Click Batten 19mm (wide) X 60mm (deep) - Profile: Block,L/M,9.14,Block,15.02,5.34,0.99
ptkccl19w60td,Pacific Teak - Concept Click Batten 19mm (wide) X 60mm (deep) - Profile: Dome,L/M,10.49,Dome,16.64,5.34,0.99
ptkccl19w60tf,Pacific Teak - Concept Click Batten 19mm (wide) X 60mm (deep) - Profile: Flute,L/M,10.49,Flute,16.64,5.34,0.99
ptkccl19w60tp,Pacific Teak - Concept Click Batten 19mm (wide) X 60mm (deep) - Profile: Peak,L/M,10.49,Peak,16.64,5.34,0.99
ptkccl32w19t,Pacific Teak - Concept Click Batten 32mm (wide) X 19mm (deep) - Profile: Block,L/M,4.57,Block,9.53,4.26,0.99
ptkccl32w19tf,Pacific Teak - Concept Click Batten 32mm (wide) X 19mm (deep) - Profile: Flute,L/M,5.26,Flute,10.36,4.26,0.99
ptkccl32w32t,Pacific Teak - Concept Click Batten 32mm (wide) X 32mm (deep) - Profile: Block,L/M,7.02,Block,12.47,4.26,0.99
ptkccl32w32td,Pacific Teak - Concept Click Batten 32mm (wide) X 32mm (deep) - Profile: Dome,L/M,8.08,Dome,13.75,4.26,0.99
ptkccl32w32tf,Pacific Teak - Concept Click Batten 32mm (wide) X 32mm (deep) - Profile: Flute,L/M,8.08,Flute,13.75,4.26,0.99
ptkccl32w32tp,Pacific Teak - Concept Click Batten 32mm (wide) X 32mm (deep) - Profile: Peak,L/M,8.08,Peak,13.75,4.26,0.99
ptkccl32w42t,Pacific Teak - Concept Click Batten 32mm (wide) X 42mm (deep) - Profile: Block,L/M,9.35,Block,15.27,4.26,0.99
ptkccl32w42td,Pacific Teak - Concept Click Batten 32mm (wide) X 42mm (deep) - Profile: Dome,L/M,10.76,Dome,16.96,4.26,0.99
ptkccl32w42tf,Pacific Teak - Concept Click Batten 32mm (wide) X 42mm (deep) - Profile: Flute,L/M,10.76,Flute,16.96,4.26,0.99
ptkccl32w42tp,Pacific Teak - Concept Click Batten 32mm (wide) X 42mm (deep) - Profile: Peak,L/M,10.76,Peak,16.96,4.26,0.99
ptkccl32w60t,Pacific Teak - Concept Click Batten 32mm (wide) X 60mm (deep) - Profile: Block,L/M,14.03,Block,20.89,5.34,0.99
ptkccl32w60td,Pacific Teak - Concept Click Batten 32mm (wide) X 60mm (deep) - Profile: Dome,L/M,16.15,Dome,23.43,4.26,0.99
ptkccl32w60tf,Pacific Teak - Concept Click Batten 32mm (wide) X 60mm (deep) - Profile: Flute,L/M,16.15,Flute,23.43,4.26,0.99
ptkccl32w60tp,Pacific Teak - Concept Click Batten 32mm (wide) X 60mm (deep) - Profile: Peak,L/M,16.15,Peak,23.43,4.26,0.99
ptkccl42w19t,Pacific Teak - Concept Click Batten 42mm (wide) X 19mm (deep) - Profile: Block,L/M,6.1,Block,11.37,4.26,0.99
ptkccl42w19tf,Pacific Teak - Concept Click Batten 42mm (wide) X 19mm (deep) - Profile: Flute,L/M,7.01,Flute,12.46,4.26,0.99
ptkccl42w32t,Pacific Teak - Concept Click Batten 42mm (wide) X 32mm (deep) - Profile: Block,L/M,9.35,Block,15.27,4.26,0.99
ptkccl42w32tf,Pacific Teak - Concept Click Batten 42mm (wide) X 32mm (deep) - Profile: Flute,L/M,10.76,Flute,16.96,4.26,0.99
ptkccl42w32tp,Pacific Teak - Concept Click Batten 42mm (wide) X 32mm (deep) - Profile: Peak,L/M,10.76,Peak,16.96,4.26,0.99
ptkccl42w42t,Pacific Teak - Concept Click Batten 42mm (wide) X 42mm (deep) - Profile: Block,L/M,12.15,Block,18.63,4.26,0.99
ptkccl42w42td,Pacific Teak - Concept Click Batten 42mm (wide) X 42mm (deep) - Profile: Dome,L/M,13.98,Dome,20.83,4.26,0.99
ptkccl42w42tf,Pacific Teak - Concept Click Batten 42mm (wide) X 42mm (deep) - Profile: Flute,L/M,13.98,Flute,20.83,4.26,0.99
ptkccl42w42tp,Pacific Teak - Concept Click Batten 42mm (wide) X 42mm (deep) - Profile: Peak,L/M,13.98,Peak,20.83,4.26,0.99
ptkccl42w60t,Pacific Teak - Concept Click Batten 42mm (wide) X 60mm (deep) - Profile: Block,L/M,18.23,Block,25.93,5.34,0.99
ptkccl42w60td,Pacific Teak - Concept Click Batten 42mm (wide) X 60mm (deep) - Profile: Dome,L/M,20.97,Dome,29.21,4.26,0.99
ptkccl42w60tf,Pacific Teak - Concept Click Batten 42mm (wide) X 60mm (deep) - Profile: Flute,L/M,20.97,Flute,29.21,4.26,0.99
ptkccl42w60tp,Pacific Teak - Concept Click Batten 42mm (wide) X 60mm (deep) - Profile: Peak,L/M,20.97,Peak,29.21,4.26,0.99
ptkccl60w19t,Pacific Teak - Concept Click Batten 60mm (wide) X 19mm (deep) - Profile: Block,L/M,9.14,Block,15.02,4.26,0.99
ptkccl60w19tf,Pacific Teak - Concept Click Batten 60mm (wide) X 19mm (deep) - Profile: Flute,L/M,10.49,Flute,16.64,4.26,0.99
ptkccl60w32t,Pacific Teak - Concept Click Batten 60mm (wide) X 32mm (deep) - Profile: Block,L/M,14.03,Block,20.89,4.26,0.99
ptkccl60w32tf,Pacific Teak - Concept Click Batten 60mm (wide) X 32mm (deep) - Profile: Flute,L/M,16.15,Flute,23.43,4.26,0.99
ptkccl60w42t,Pacific Teak - Concept Click Batten 60mm (wide) X 42mm (deep) - Profile: Block,L/M,18.23,Block,25.93,4.26,0.99
ptkccl60w42td,Pacific Teak - Concept Click Batten 60mm (wide) X 42mm (deep) - Profile: Dome,L/M,20.97,Dome,29.21,4.26,0.99
ptkccl60w42tf,Pacific Teak - Concept Click Batten 60mm (wide) X 42mm (deep) - Profile: Flute,L/M,20.97,Flute,29.21,4.26,0.99
ptkccl60w42tp,Pacific Teak - Concept Click Batten 60mm (wide) X 42mm (deep) - Profile: Peak,L/M,20.97,Peak,29.21,4.26,0.99
spgccl19w32t,Spotted Gum - Concept Click Batten 19mm (wide) X 32mm (deep) - Profile: Block,L/M,3.54,Block,8.3,5.34,0.99
spgccl19w32td,Spotted Gum - Concept Click Batten 19mm (wide) X 32mm (deep) - Profile: Dome,L/M,4.06,Dome,8.92,5.34,0.99
spgccl19w32tf,Spotted Gum - Concept Click Batten 19mm (wide) X 32mm (deep) - Profile: Flute,L/M,4.06,Flute,8.92,5.34,0.99
spgccl19w32tp,Spotted Gum - Concept Click Batten 19mm (wide) X 32mm (deep) - Profile: Peak,L/M,4.06,Peak,8.92,5.34,0.99
spgccl19w42t,Spotted Gum - Concept Click Batten 19mm (wide) X 42mm (deep) - Profile: Block,L/M,4.77,Block,9.77,5.34,0.99
spgccl19w42td,Spotted Gum - Concept Click Batten 19mm (wide) X 42mm (deep) - Profile: Dome,L/M,5.49,Dome,10.64,5.34,0.99
spgccl19w42tf,Spotted Gum - Concept Click Batten 19mm (wide) X 42mm (deep) - Profile: Flute,L/M,5.49,Flute,10.64,5.34,0.99
spgccl19w42tp,Spotted Gum - Concept Click Batten 19mm (wide) X 42mm (deep) - Profile: Peak,L/M,5.49,Peak,10.64,5.34,0.99
spgccl19w60t,Spotted Gum - Concept Click Batten 19mm (wide) X 60mm (deep) - Profile: Block,L/M,7.09,Block,12.56,5.34,0.99
spgccl19w60td,Spotted Gum - Concept Click Batten 19mm (wide) X 60mm (deep) - Profile: Dome,L/M,8.15,Dome,13.83,5.34,0.99
spgccl19w60tf,Spotted Gum - Concept Click Batten 19mm (wide) X 60mm (deep) - Profile: Flute,L/M,8.15,Flute,13.83,5.34,0.99
spgccl19w60tp,Spotted Gum - Concept Click Batten 19mm (wide) X 60mm (deep) - Profile: Peak,L/M,8.15,Peak,13.83,5.34,0.99
spgccl32w19t,Spotted Gum - Concept Click Batten 32mm (wide) X 19mm (deep) - Profile: Block,L/M,3.54,Block,8.3,4.26,0.99
spgccl32w19tf,Spotted Gum - Concept Click Batten 32mm (wide) X 19mm (deep) - Profile: Flute,L/M,4.06,Flute,8.92,4.26,0.99
spgccl32w32t,Spotted Gum - Concept Click Batten 32mm (wide) X 32mm (deep) - Profile: Block,L/M,5.74,Block,10.94,4.26,0.99
spgccl32w32td,Spotted Gum - Concept Click Batten 32mm (wide) X 32mm (deep) - Profile: Dome,L/M,6.61,Dome,11.98,4.26,0.99
spgccl32w32tf,Spotted Gum - Concept Click Batten 32mm (wide) X 32mm (deep) - Profile: Flute,L/M,6.61,Flute,11.98,4.26,0.99
spgccl32w32tp,Spotted Gum - Concept Click Batten 32mm (wide) X 32mm (deep) - Profile: Peak,L/M,6.61,Peak,11.98,4.26,0.99
spgccl32w42t,Spotted Gum - Concept Click Batten 32mm (wide) X 42mm (deep) - Profile: Block,L/M,7.11,Block,12.58,4.26,0.99
spgccl32w42td,Spotted Gum - Concept Click Batten 32mm (wide) X 42mm (deep) - Profile: Dome,L/M,7.7,Dome,13.29,4.26,0.99
spgccl32w42tf,Spotted Gum - Concept Click Batten 32mm (wide) X 42mm (deep) - Profile: Flute,L/M,7.7,Flute,13.29,4.26,0.99
spgccl32w42tp,Spotted Gum - Concept Click Batten 32mm (wide) X 42mm (deep) - Profile: Peak,L/M,7.7,Peak,13.29,4.26,0.99
spgccl32w60t,Spotted Gum - Concept Click Batten 32mm (wide) X 60mm (deep) - Profile: Block,L/M,11.24,Block,17.54,5.34,0.99
spgccl32w60td,Spotted Gum - Concept Click Batten 32mm (wide) X 60mm (deep) - Profile: Dome,L/M,12.92,Dome,19.55,4.26,0.99
spgccl32w60tf,Spotted Gum - Concept Click Batten 32mm (wide) X 60mm (deep) - Profile: Flute,L/M,12.92,Flute,19.55,4.26,0.99
spgccl32w60tp,Spotted Gum - Concept Click Batten 32mm (wide) X 60mm (deep) - Profile: Peak,L/M,12.92,Peak,19.55,4.26,0.99
spgccl42w19t,Spotted Gum - Concept Click Batten 42mm (wide) X 19mm (deep) - Profile: Block,L/M,4.77,Block,9.77,4.26,0.99
spgccl42w19tf,Spotted Gum - Concept Click Batten 42mm (wide) X 19mm (deep) - Profile: Flute,L/M,5.49,Flute,10.64,4.26,0.99
spgccl42w32t,Spotted Gum - Concept Click Batten 42mm (wide) X 32mm (deep) - Profile: Block,L/M,7.11,Block,12.58,4.26,0.99
spgccl42w32tf,Spotted Gum - Concept Click Batten 42mm (wide) X 32mm (deep) - Profile: Flute,L/M,8.18,Flute,13.87,4.26,0.99
spgccl42w32tp,Spotted Gum - Concept Click Batten 42mm (wide) X 32mm (deep) - Profile: Peak,L/M,8.18,Peak,13.87,4.26,0.99
spgccl42w42t,Spotted Gum - Concept Click Batten 42mm (wide) X 42mm (deep) - Profile: Block,L/M,9.58,Block,15.55,4.26,0.99
spgccl42w42td,Spotted Gum - Concept Click Batten 42mm (wide) X 42mm (deep) - Profile: Dome,L/M,11.02,Dome,17.27,4.26,0.99
spgccl42w42tf,Spotted Gum - Concept Click Batten 42mm (wide) X 42mm (deep) - Profile: Flute,L/M,11.02,Flute,17.27,4.26,0.99
spgccl42w42tp,Spotted Gum - Concept Click Batten 42mm (wide) X 42mm (deep) - Profile: Peak,L/M,11.02,Peak,17.27,4.26,0.99
spgccl60w19t,Spotted Gum - Concept Click Batten 60mm (wide) X 19mm (deep) - Profile: Block,L/M,7.09,Block,12.56,4.26,0.99
spgccl60w19tf,Spotted Gum - Concept Click Batten 60mm (wide) X 19mm (deep) - Profile: Flute,L/M,8.15,Flute,13.83,4.26,0.99
spgccl60w32t,Spotted Gum - Concept Click Batten 60mm (wide) X 32mm (deep) - Profile: Block,L/M,11.24,Block,17.54,4.26,0.99
spgccl60w32tf,Spotted Gum - Concept Click Batten 60mm (wide) X 32mm (deep) - Profile: Flute,L/M,12.92,Flute,19.55,4.26,0.99
spgccl60w42t,Spotted Gum - Concept Click Batten 60mm (wide) X 42mm (deep) - Profile: Block,L/M,17.42,Block,24.95,4.26,0.99
spgccl60w42td,Spotted Gum - Concept Click Batten 60mm (wide) X 42mm (deep) - Profile: Dome,L/M,20.03,Dome,28.09,4.26,0.99
spgccl60w42tf,Spotted Gum - Concept Click Batten 60mm (wide) X 42mm (deep) - Profile: Flute,L/M,20.03,Flute,28.09,4.26,0.99
spgccl60w42tp,Spotted Gum - Concept Click Batten 60mm (wide) X 42mm (deep) - Profile: Peak,L/M,20.03,Peak,28.09,4.26,0.99
vasccl19w32t,Vic Ash - Concept Click Batten 19mm (wide) X 32mm (deep) - Profile: Block,L/M,4.18,Block,9.07,5.34,0.99
vasccl19w32td,Vic Ash - Concept Click Batten 19mm (wide) X 32mm (deep) - Profile: Dome,L/M,4.72,Dome,9.71,5.34,0.99
vasccl19w32tf,Vic Ash - Concept Click Batten 19mm (wide) X 32mm (deep) - Profile: Flute,L/M,4.72,Flute,9.71,5.34,0.99
vasccl19w32tp,Vic Ash - Concept Click Batten 19mm (wide) X 32mm (deep) - Profile: Peak,L/M,4.72,Peak,9.71,5.34,0.99
vasccl19w42t,Vic Ash - Concept Click Batten 19mm (wide) X 42mm (deep) - Profile: Block,L/M,4.68,Block,9.67,5.34,0.99
vasccl19w42td,Vic Ash - Concept Click Batten 19mm (wide) X 42mm (deep) - Profile: Dome,L/M,5.38,Dome,10.51,5.34,0.99
vasccl19w42tf,Vic Ash - Concept Click Batten 19mm (wide) X 42mm (deep) - Profile: Flute,L/M,5.38,Flute,10.51,5.34,0.99
vasccl19w42tp,Vic Ash - Concept Click Batten 19mm (wide) X 42mm (deep) - Profile: Peak,L/M,5.38,Peak,10.51,5.34,0.99
vasccl19w60t,Vic Ash - Concept Click Batten 19mm (wide) X 60mm (deep) - Profile: Block,L/M,8.19,Block,13.88,5.34,0.99
vasccl19w60td,Vic Ash - Concept Click Batten 19mm (wide) X 60mm (deep) - Profile: Dome,L/M,9.41,Dome,15.34,5.34,0.99
vasccl19w60tf,Vic Ash - Concept Click Batten 19mm (wide) X 60mm (deep) - Profile: Flute,L/M,9.41,Flute,15.34,5.34,0.99
vasccl19w60tp,Vic Ash - Concept Click Batten 19mm (wide) X 60mm (deep) - Profile: Peak,L/M,9.41,Peak,15.34,5.34,0.99
vasccl32w19t,Vic Ash - Concept Click Batten 32mm (wide) X 19mm (deep) - Profile: Block,L/M,4.18,Block,9.07,4.26,0.99
vasccl32w19tf,Vic Ash - Concept Click Batten 32mm (wide) X 19mm (deep) - Profile: Flute,L/M,4.81,Flute,9.82,4.26,0.99
vasccl32w32t,Vic Ash - Concept Click Batten 32mm (wide) X 32mm (deep) - Profile: Block,L/M,7.39,Block,12.92,4.26,0.99
vasccl32w32td,Vic Ash - Concept Click Batten 32mm (wide) X 32mm (deep) - Profile: Dome,L/M,8.51,Dome,14.26,4.26,0.99
vasccl32w32tf,Vic Ash - Concept Click Batten 32mm (wide) X 32mm (deep) - Profile: Flute,L/M,8.51,Flute,14.26,4.26,0.99
vasccl32w32tp,Vic Ash - Concept Click Batten 32mm (wide) X 32mm (deep) - Profile: Peak,L/M,8.51,Peak,14.26,4.26,0.99
vasccl32w42t,Vic Ash - Concept Click Batten 32mm (wide) X 42mm (deep) - Profile: Block,L/M,9.88,Block,15.91,4.26,0.99
vasccl32w42td,Vic Ash - Concept Click Batten 32mm (wide) X 42mm (deep) - Profile: Dome,L/M,11.37,Dome,17.69,4.26,0.99
vasccl32w42tf,Vic Ash - Concept Click Batten 32mm (wide) X 42mm (deep) - Profile: Flute,L/M,11.37,Flute,17.69,4.26,0.99
vasccl32w42tp,Vic Ash - Concept Click Batten 32mm (wide) X 42mm (deep) - Profile: Peak,L/M,11.37,Peak,17.69,4.26,0.99
vasccl32w60t,Vic Ash - Concept Click Batten 32mm (wide) X 60mm (deep) - Profile: Block,L/M,14.81,Block,21.82,5.34,0.99
vasccl32w60td,Vic Ash - Concept Click Batten 32mm (wide) X 60mm (deep) - Profile: Dome,L/M,17.02,Dome,24.47,4.26,0.99
vasccl32w60tf,Vic Ash - Concept Click Batten 32mm (wide) X 60mm (deep) - Profile: Flute,L/M,17.02,Flute,24.47,4.26,0.99
vasccl32w60tp,Vic Ash - Concept Click Batten 32mm (wide) X 60mm (deep) - Profile: Peak,L/M,17.02,Peak,24.47,4.26,0.99
vasccl42w19t,Vic Ash - Concept Click Batten 42mm (wide) X 19mm (deep) - Profile: Block,L/M,4.68,Block,9.67,4.26,0.99
vasccl42w19tf,Vic Ash - Concept Click Batten 42mm (wide) X 19mm (deep) - Profile: Flute,L/M,5.38,Flute,10.51,4.26,0.99
vasccl42w32t,Vic Ash - Concept Click Batten 42mm (wide) X 32mm (deep) - Profile: Block,L/M,9.88,Block,15.91,4.26,0.99
vasccl42w32tf,Vic Ash - Concept Click Batten 42mm (wide) X 32mm (deep) - Profile: Flute,L/M,11.37,Flute,17.69,4.26,0.99
vasccl42w32tp,Vic Ash - Concept Click Batten 42mm (wide) X 32mm (deep) - Profile: Peak,L/M,11.37,Peak,17.69,4.26,0.99
vasccl42w42t,Vic Ash - Concept Click Batten 42mm (wide) X 42mm (deep) - Profile: Block,L/M,15.8,Block,23.01,4.26,0.99
vasccl42w42td,Vic Ash - Concept Click Batten 42mm (wide) X 42mm (deep) - Profile: Dome,L/M,18.17,Dome,25.85,4.26,0.99
vasccl42w42tf,Vic Ash - Concept Click Batten 42mm (wide) X 42mm (deep) - Profile: Flute,L/M,18.17,Flute,25.85,4.26,0.99
vasccl42w42tp,Vic Ash - Concept Click Batten 42mm (wide) X 42mm (deep) - Profile: Peak,L/M,18.17,Peak,25.85,4.26,0.99
vasccl42w60t,Vic Ash - Concept Click Batten 42mm (wide) X 60mm (deep) - Profile: Block,L/M,23.7,Block,32.49,5.34,0.99
vasccl42w60td,Vic Ash - Concept Click Batten 42mm (wide) X 60mm (deep) - Profile: Dome,L/M,27.25,Dome,36.75,4.26,0.99
vasccl42w60tf,Vic Ash - Concept Click Batten 42mm (wide) X 60mm (deep) - Profile: Flute,L/M,27.25,Flute,36.75,4.26,0.99
vasccl42w60tp,Vic Ash - Concept Click Batten 42mm (wide) X 60mm (deep) - Profile: Peak,L/M,27.25,Peak,36.75,4.26,0.99
vasccl60w19t,Vic Ash - Concept Click Batten 60mm (wide) X 19mm (deep) - Profile: Block,L/M,8.19,Block,13.88,4.26,0.99
vasccl60w19tf,Vic Ash - Concept Click Batten 60mm (wide) X 19mm (deep) - Profile: Flute,L/M,9.41,Flute,15.34,4.26,0.99
vasccl60w32t,Vic Ash - Concept Click Batten 60mm (wide) X 32mm (deep) - Profile: Block,L/M,14.81,Block,21.82,4.26,0.99
vasccl60w32tf,Vic Ash - Concept Click Batten 60mm (wide) X 32mm (deep) - Profile: Flute,L/M,17.02,Flute,24.47,4.26,0.99
vasccl60w42t,Vic Ash - Concept Click Batten 60mm (wide) X 42mm (deep) - Profile: Block,L/M,23.7,Block,32.49,4.26,0.99
vasccl60w42td,Vic Ash - Concept Click Batten 60mm (wide) X 42mm (deep) - Profile: Dome,L/M,27.25,Dome,36.75,4.26,0.99
vasccl60w42tf,Vic Ash - Concept Click Batten 60mm (wide) X 42mm (deep) - Profile: Flute,L/M,27.25,Flute,36.75,4.26,0.99
vasccl60w42tp,Vic Ash - Concept Click Batten 60mm (wide) X 42mm (deep) - Profile: Peak,L/M,27.25,Peak,36.75,4.26,0.99