Number,Description,Sculptform Price,Unit,Weight
 acclb30012b001,Acoustic Linear Blade 2400x300x12mm - White 001,22.53,LM,1.13
 acclb30012b002,Acoustic Linear Blade 2400x300x12mm - Light Grey 002,22.53,LM,1.13
 acclb30012b003,Acoustic Linear Blade 2400x300x12mm - Blue 003,22.53,LM,1.13
 acclb30012b004,Acoustic Linear Blade 2400x300x12mm - Red 004,22.53,LM,1.13
 acclb30012b005,Acoustic Linear Blade 2400x300x12mm - Yellow 005,22.53,LM,1.13
 acclb30012b006,Acoustic Linear Blade 2400x300x12mm - Orange 006,22.53,LM,1.13
 acclb30012b007,Acoustic Linear Blade 2400x300x12mm - Navy 007,22.53,LM,1.13
 acclb30012b008,Acoustic Linear Blade 2400x300x12mm - Black 008,22.53,LM,1.13
 acclb30012b009,Acoustic Linear Blade 2400x300x12mm - Cream 009,22.53,LM,1.13
 acclb30012b010,Acoustic Linear Blade 2400x300x12mm - Dark Grey 010,22.53,LM,1.13
 acclb30012b011,Acoustic Linear Blade 2400x300x12mm - Green 011,22.53,LM,1.13
 acclb15012b001,Acoustic Linear Blade 2400x150x12mm - White 001,19.61,LM,0.77
 acclb15012b002,Acoustic Linear Blade 2400x150x12mm - Light Grey 002,19.61,LM,0.77
 acclb15012b003,Acoustic Linear Blade 2400x150x12mm - Blue 003,19.61,LM,0.77
 acclb15012b004,Acoustic Linear Blade 2400x150x12mm - Red 004,19.61,LM,0.77
 acclb15012b005,Acoustic Linear Blade 2400x150x12mm - Yellow 005,19.61,LM,0.77
 acclb15012b006,Acoustic Linear Blade 2400x150x12mm - Orange 006,19.61,LM,0.77
 acclb15012b007,Acoustic Linear Blade 2400x150x12mm - Navy 007,19.61,LM,0.77
 acclb15012b008,Acoustic Linear Blade 2400x150x12mm - Black 008,19.61,LM,0.77
 acclb15012b009,Acoustic Linear Blade 2400x150x12mm - Cream 009,19.61,LM,0.77
 acclb15012b010,Acoustic Linear Blade 2400x150x12mm - Dark Grey 010,19.61,LM,0.77
 acclb15012b011,Acoustic Linear Blade 2400x150x12mm - Green 011,19.61,LM,0.77
 acclb40012b001,Acoustic Linear Blade 2400x400x12mm - White 001,24.49,LM,1.37
 acclb40012b002,Acoustic Linear Blade 2400x400x12mm - Light Grey 002,24.49,LM,1.37
 acclb40012b003,Acoustic Linear Blade 2400x400x12mm - Blue 003,24.49,LM,1.37
 acclb40012b004,Acoustic Linear Blade 2400x400x12mm - Red 004,24.49,LM,1.37
 acclb40012b005,Acoustic Linear Blade 2400x400x12mm - Yellow 005,24.49,LM,1.37
 acclb40012b006,Acoustic Linear Blade 2400x400x12mm - Orange 006,24.49,LM,1.37
 acclb40012b007,Acoustic Linear Blade 2400x400x12mm - Navy 007,24.49,LM,1.37
 acclb40012b008,Acoustic Linear Blade 2400x400x12mm - Black 008,24.49,LM,1.37
 acclb40012b009,Acoustic Linear Blade 2400x400x12mm - Cream 009,24.49,LM,1.37
 acclb40012b010,Acoustic Linear Blade 2400x400x12mm - Dark Grey 010,24.49,LM,1.37
 acclb40012b011,Acoustic Linear Blade 2400x400x12mm - Green 011,24.49,LM,1.37
 accsb15012b001,Acoustic Sculpture Blade 2400x150x12mm - White 001,22.53,LM,0.77
 accsb15012b002,Acoustic Sculpture Blade 2400x150x12mm - Light Grey 002,22.53,LM,0.77
 accsb15012b003,Acoustic Sculpture Blade 2400x150x12mm - Blue 003,22.53,LM,0.77
 accsb15012b004,Acoustic Sculpture Blade 2400x150x12mm - Red 004,22.53,LM,0.77
 accsb15012b005,Acoustic Sculpture Blade 2400x150x12mm - Yellow 005,22.53,LM,0.77
 accsb15012b006,Acoustic Sculpture Blade 2400x150x12mm - Orange 006,22.53,LM,0.77
 accsb15012b007,Acoustic Sculpture Blade 2400x150x12mm - Navy 007,22.53,LM,0.77
 accsb15012b008,Acoustic Sculpture Blade 2400x150x12mm - Black 008,22.53,LM,0.77
 accsb15012b009,Acoustic Sculpture Blade 2400x150x12mm - Cream 009,22.53,LM,0.77
 accsb15012b010,Acoustic Sculpture Blade 2400x150x12mm - Dark Grey 010,22.53,LM,0.77
 accsb15012b011,Acoustic Sculpture Blade 2400x150x12mm - Green 011,22.53,LM,0.77
