<?xml version="1.0" encoding="UTF-8"?>
<svg width="68px" height="32px" viewBox="0 0 44 22" version="1.1" xmlns="http://www.w3.org/2000/svg" xmlns:xlink="http://www.w3.org/1999/xlink">
    <!-- Generator: Sketch 51.2 (57519) - http://www.bohemiancoding.com/sketch -->
    <title>cladding-queenscliff-68x32</title>
    <desc>Created with Sketch.</desc>
    <defs></defs>
    <g id="**-UPDATED-WORKSPACES" stroke="none" stroke-width="1" fill="none" fill-rule="evenodd">
        <g id="Group" transform="translate(-31.000000, -324.000000)" fill="#CAB9AC" stroke="#7E6B5C">
            <g id="TOOLBAR-CLADDING">
                <g id="07" transform="translate(32.000000, 325.000000)">
                    <g id="cladding-queenscliff-68x32">
                        <path d="M41.8877812,10.930625 L41.895875,0.23484375 C41.8939062,0.2306875 41.88975,0.22784375 41.8890938,0.22325 C41.8667812,0.09746875 41.7582812,0.00625 41.6305312,0.00625 L14.3195937,0.00625 C14.3174062,0.00625 14.3163125,0.00428125 14.314125,0.0040625 C14.3119375,0.00428125 14.3108437,0.00625 14.3086562,0.00625 C14.1914062,0.00625 14.093625,0.0845625 14.0605937,0.194375 C14.0645312,0.20378125 14.0689062,0.21296875 14.0671562,0.2236875 L14.1109062,12.0140938 C14.1063125,12.0403438 14.0837812,12.059375 14.0570937,12.059375 L11.8805312,12.059375 L11.8805312,12.3109375 C11.8805312,12.3400313 11.8575625,12.3640938 11.8284687,12.365625 L8.07428125,12.559875 L8.07428125,12.7044688 C8.07428125,12.7335625 8.05153125,12.7578438 8.0224375,12.7591563 L0.8474375,13.13125 L0.84459375,13.13125 C0.84240625,13.13125 0.840875,13.1292813 0.83890625,13.1290625 C0.8360625,13.1295 0.83453125,13.132125 0.8316875,13.1323438 C0.366625,13.1568438 0.00240625,13.5405313 0.00240625,14.0060313 C0.00240625,14.008 0.00021875,14.0093125 0,14.0115 C0.00021875,14.0136875 0.00240625,14.015 0.00240625,14.0169688 L0.00240625,14.9359375 C0.00240625,14.9379063 0.0004375,14.9392188 0,14.9414063 C0.0004375,14.943375 0.00240625,14.9446875 0.00240625,14.9466563 C0.00240625,15.4204688 0.3731875,15.8045938 0.84678125,15.8212188 C0.84721875,15.8212188 0.8474375,15.8216563 0.84809375,15.8216563 L6.00884375,15.996875 C6.038375,15.9979688 6.06178125,16.0220313 6.06178125,16.0515625 L6.06178125,20 L35.0899062,20 L35.0899062,17.0794688 C35.0899062,17.0775 35.091875,17.0761875 35.0920937,17.0742188 C35.091875,17.0720313 35.0899062,17.0707188 35.0899062,17.06875 C35.0899062,16.5949375 34.719125,16.2108125 34.2455312,16.1941875 C34.2450938,16.1941875 34.2446562,16.19375 34.2442187,16.19375 L29.105125,16.01875 C29.0979062,16.0185313 29.0930937,16.0130625 29.0869687,16.0104375 C29.0804062,16.0075938 29.07275,16.0069375 29.0679375,16.0019063 C29.0629062,15.9966563 29.0626875,15.989 29.0598437,15.9824375 C29.0574375,15.9760938 29.0524063,15.9712813 29.0524063,15.9640625 L29.0524063,12.6828125 C29.0524063,12.6537188 29.0751562,12.629875 29.10425,12.6283438 L41.0598125,11.9941875 C41.0613437,11.9939688 41.0622187,11.9924375 41.06375,11.9924375 C41.3137812,11.9793125 41.54675,11.8594375 41.7027187,11.6636563 C41.8586875,11.4674375 41.9232188,11.2134688 41.8796875,10.9669375 C41.8775,10.9535938 41.8816562,10.9413438 41.8877812,10.930625" id="Fill-1"></path>
                    </g>
                </g>
            </g>
        </g>
    </g>
</svg>